%!PS-Adobe-3.0 EPSF-3.0
%%BoundingBox: 0 0 394 142
%%HiResBoundingBox: 0.000000 0.018750 393.400000 141.100000
%.........................................
%%Creator: GPL Ghostscript 907 (epswrite)
%%CreationDate: 2016/02/11 21:01:04
%%DocumentData: Clean7Bit
%%LanguageLevel: 2
%%EndComments
%%BeginProlog
% This copyright applies to everything between here and the %%EndProlog:
% Copyright (C) 2012 Artifex Software, Inc.  All rights reserved.
%%BeginResource: procset GS_epswrite_2_0_1001 1.001 0
/GS_epswrite_2_0_1001 80 dict dup begin
/PageSize 2 array def/setpagesize{ PageSize aload pop 3 index eq exch
4 index eq and{ pop pop pop}{ PageSize dup  1
5 -1 roll put 0 4 -1 roll put dup null eq {false} {dup where} ifelse{ exch get exec}
{ pop/setpagedevice where
{ pop 1 dict dup /PageSize PageSize put setpagedevice}
{ /setpage where{ pop PageSize aload pop pageparams 3 {exch pop} repeat
setpage}if}ifelse}ifelse}ifelse} bind def
/!{bind def}bind def/#{load def}!/N/counttomark #
/rG{3{3 -1 roll 255 div}repeat setrgbcolor}!/G{255 div setgray}!/K{0 G}!
/r6{dup 3 -1 roll rG}!/r5{dup 3 1 roll rG}!/r3{dup rG}!
/w/setlinewidth #/J/setlinecap #
/j/setlinejoin #/M/setmiterlimit #/d/setdash #/i/setflat #
/m/moveto #/l/lineto #/c/rcurveto #
/p{N 2 idiv{N -2 roll rlineto}repeat}!
/P{N 0 gt{N -2 roll moveto p}if}!
/h{p closepath}!/H{P closepath}!
/lx{0 rlineto}!/ly{0 exch rlineto}!/v{0 0 6 2 roll c}!/y{2 copy c}!
/re{4 -2 roll m exch dup lx exch ly neg lx h}!
/^{3 index neg 3 index neg}!
/f{P fill}!/f*{P eofill}!/s{H stroke}!/S{P stroke}!
/q/gsave #/Q/grestore #/rf{re fill}!
/Y{P clip newpath}!/Y*{P eoclip newpath}!/rY{re Y}!
/|={pop exch 4 1 roll 1 array astore cvx 3 array astore cvx exch 1 index def exec}!
/|{exch string readstring |=}!
/+{dup type/nametype eq{2 index 7 add -3 bitshift 2 index mul}if}!
/@/currentfile #/${+ @ |}!
/B{{2 copy string{readstring pop}aload pop 4 array astore cvx
3 1 roll}repeat pop pop true}!
/Ix{[1 0 0 1 11 -2 roll exch neg exch neg]exch}!
/,{true exch Ix imagemask}!/If{false exch Ix imagemask}!/I{exch Ix image}!
/Ic{exch Ix false 3 colorimage}!
/F{/Columns counttomark 3 add -2 roll/Rows exch/K -1/BlackIs1 true>>
/CCITTFaxDecode filter}!/FX{<</EndOfBlock false F}!
/X{/ASCII85Decode filter}!/@X{@ X}!/&2{2 index 2 index}!
/@F{@ &2<<F}!/@C{@X &2 FX}!
/$X{+ @X |}!/&4{4 index 4 index}!/$F{+ @ &4<<F |}!/$C{+ @X &4 FX |}!
/IC{3 1 roll 10 dict begin 1{/ImageType/Interpolate/Decode/DataSource
/ImageMatrix/BitsPerComponent/Height/Width}{exch def}forall
currentdict end image}!
/~{@ read {pop} if}!
end def
%%EndResource
/pagesave null def
%%EndProlog
%%Page: 1 1
%%BeginPageSetup
GS_epswrite_2_0_1001 begin
/pagesave save store 197 dict begin
0.1 0.1 scale
%%EndPageSetup
gsave mark
Q q
0 0 3934 1410.78 re
Y
255 G
1254.53 783.105 2679.47 627.676 re
f
35 31 32 rG
0 783.105 1254.17 627.664 re
f
255 G
524.703 1258.71 247.879 26.5352 re
f
635.379 908.645 26.5312 310.27 re
f
907.645 1083.68 154.656 26.5352 re
f
841.312 908.645 26.5352 376.605 re
f
1102.1 908.645 26.5273 376.605 re
f
460.31 1215.26 -18.94 -18.95 P
21.43 -27.44 34.26 -61.93 34.26 -99.37 c
0 -89.2 -72.57 -161.77 -161.77 -161.77 c
-37.45 0 -71.93 12.82 -99.37 34.26 c
-18.94 -18.94 p
32.34 -26.16 73.48 -41.85 118.31 -41.85 c
104 0 188.3 84.3 188.3 188.3 c
0 44.83 -15.69 85.98 -41.85 118.31 c
f
186.35 997.57 m
-21.44 27.45 -34.26 61.93 -34.26 99.37 c
0 89.2 72.57 161.77 161.77 161.77 c
37.44 0 71.92 -12.82 99.37 -34.26 c
18.95 18.94 p
-32.34 26.16 -73.48 41.85 -118.31 41.85 c
-104 0 -188.3 -84.3 -188.3 -188.3 c
0 -44.83 15.69 -85.98 41.84 -118.31 c
18.95 18.94 p f
35 31 32 rG
1428.71 1203.71 m
18.95 0 33.13 14.98 33.13 35.12 c
0 20.01 -14.18 35.12 -33.13 35.12 c
-18.95 0 -33.13 -15.11 -33.13 -35.12 c
0 -20.14 14.18 -35.12 33.13 -35.12 c
h
1428.71 1286.55 m
26.24 0 46.39 -20.67 46.39 -47.71 c
0 -27.04 -20.15 -47.71 -46.39 -47.71 c
-26.24 0 -46.39 20.68 -46.39 47.71 c
0 27.04 20.15 47.71 46.39 47.71 c
f
1510.74 1215.64 m
5.44 -6.63 13.12 -11.93 22.67 -11.93 c
8.61 0 16.17 5.57 16.17 13.92 c
0 14.18 -19.62 15.77 -31.94 23.86 c
-6.63 4.38 -11.8 10.73 -11.8 20.41 c
0 13.52 11.93 24.65 28.09 24.65 c
11.8 0 20.02 -5.17 24.92 -9.27 c
-7.82 -9.68 p
-5.03 4.24 -10.73 6.36 -16.56 6.36 c
-7.69 0 -15.38 -4.37 -15.38 -12.46 c
0 -11.79 19.75 -14.31 31.68 -22.27 c
6.23 -4.11 12.06 -10.6 12.06 -21.21 c
0 -16.3 -12.59 -26.9 -28.76 -26.9 c
-12.72 0 -24.25 5.57 -32.47 15.51 c
9.14 9.01 p f
1586.02 1285.22 63.61 0 0 -12.59 -25.18 0 0 -80.18 -13.25 0 ^ -25.18 0 
0 12.59 f
1715.5 1205.04 m
8.35 0 12.32 1.86 15.24 4.77 c
2.65 2.78 4.37 6.63 4.37 10.87 c
0 4.24 -1.72 7.95 -4.37 10.73 c
-2.92 2.92 -6.89 4.77 -15.24 4.77 c
-20.15 0 0 -31.15 ^ h
1711.26 1248.78 m
7.42 0 10.6 1.46 12.72 3.84 c
1.99 2.12 3.18 4.9 3.18 8.09 c
0 3.18 -1.19 5.96 -3.18 8.08 c
-2.12 2.39 -5.3 3.84 -12.72 3.84 c
-15.91 0 0 -23.86 ^ h
1682.1 1192.45 0 92.77 31.54 0 P
9.01 0 14.71 -2.52 19.09 -6.49 c
4.77 -4.37 7.68 -10.73 7.68 -17.63 c
0 -6.36 -2.91 -12.46 -7.29 -16.57 c
8.75 -4.37 15.25 -13.91 15.25 -24.39 c
0 -8.61 -3.98 -16.43 -10.21 -21.47 c
-4.77 -3.98 -10.87 -6.23 -20.28 -6.23 c
-35.78 0 p f
1799.66 1228.9 28.62 0 -14.31 34.46 -14.31 -34.46 H
1833.45 1216.3 -39.1 0 -9.67 -23.86 -13.79 0 38.44 92.77 9.28 0 38.43 -92.77 -13.78 0 
-9.81 23.86 f
1912.04 1234.86 0 -42.41 -13.25 0 ^ -31.81 50.36 14.84 0 23.6 -37.24 23.59 37.24 
14.84 0 -31.81 -50.36 f
2019.39 1248.78 0 -12.59 -30.49 0 0 -31.15 41.09 0 0 -12.59 -54.34 0 0 92.77 
53.01 0 0 -12.59 -39.76 0 0 -23.86 30.49 0 f
2097.58 1248.78 m
5.96 0 9.01 1.32 11.13 3.45 c
2.12 2.12 3.45 5.17 3.45 8.48 c
0 3.31 -1.33 6.36 -3.45 8.48 c
-2.12 2.12 -5.17 3.45 -11.13 3.45 c
-18.56 0 0 -23.86 ^ h
2079.02 1236.19 0 -43.74 -13.25 0 0 92.77 32.47 0 P
8.48 0 13.78 -1.99 18.03 -5.43 c
5.56 -4.51 9.14 -11.4 9.14 -19.08 c
0 -7.69 -3.58 -14.58 -9.14 -19.09 c
-2.92 -2.39 -6.24 -4.11 -10.87 -4.91 c
33.26 -44.27 -16.03 0 -33 43.74 -10.61 0 p f
2169.14 1192.45 13.2578 92.7734 re
f
2226 1215.64 m
5.43 -6.63 13.12 -11.93 22.66 -11.93 c
8.62 0 16.17 5.57 16.17 13.92 c
0 14.18 -19.61 15.77 -31.94 23.86 c
-6.63 4.38 -11.8 10.73 -11.8 20.41 c
0 13.52 11.93 24.65 28.1 24.65 c
11.8 0 20.01 -5.17 24.92 -9.27 c
-7.82 -9.68 p
-5.04 4.24 -10.73 6.36 -16.57 6.36 c
-7.68 0 -15.37 -4.37 -15.37 -12.46 c
0 -11.79 19.75 -14.31 31.68 -22.27 c
6.22 -4.11 12.06 -10.6 12.06 -21.21 c
0 -16.3 -12.6 -26.9 -28.77 -26.9 c
-12.72 0 -24.25 5.57 -32.46 15.51 c
9.14 9.01 p f
2353.49 1286.55 m
13.25 0 25.85 -5.43 33.93 -14.31 c
-8.88 -8.75 p
-5.43 5.96 -15.11 10.47 -25.05 10.47 c
-18.95 0 -33.66 -15.11 -33.66 -35.12 c
0 -20.94 15.11 -35.12 34.85 -35.12 c
12.46 0 21.47 6.89 26.64 13.12 c
9.41 -8.48 p
-7.95 -10.2 -21.73 -17.23 -36.05 -17.23 c
-27.7 0 -48.11 20.28 -48.11 47.71 c
0 26.77 20.15 47.71 46.92 47.71 c
f
2488.8 1236.19 -51.69 0 0 -43.74 -13.25 0 0 92.77 ^ 0 -36.45 51.69 0 
^ 13.25 0 0 -92.77 ^ 0 43.74 f
2588.2 1248.78 0 -12.59 -30.49 0 0 -31.15 41.09 0 0 -12.59 -54.34 0 0 92.77 
53.01 0 0 -12.59 -39.76 0 0 -23.86 30.49 0 f
1379.67 1143.33 63.62 0 0 -12.59 -25.18 0 0 -80.18 -13.26 0 ^ -25.18 0 
0 12.59 f
1519.49 1106.88 0 -12.59 -30.48 0 0 -31.14 41.08 0 0 -12.59 -54.34 0 0 92.77 
53.02 0 0 -12.59 -39.76 0 0 -23.86 30.48 0 f
1602.85 1144.65 m
13.25 0 25.85 -5.43 33.93 -14.31 c
-8.88 -8.75 p
-5.44 5.96 -15.11 10.47 -25.05 10.47 c
-18.95 0 -33.66 -15.11 -33.66 -35.12 c
0 -20.94 15.11 -35.12 34.85 -35.12 c
12.46 0 21.47 6.89 26.64 13.12 c
9.41 -8.48 p
-7.95 -10.2 -21.73 -17.23 -36.05 -17.23 c
-27.7 0 -48.11 20.28 -48.11 47.71 c
0 26.77 20.15 47.71 46.92 47.71 c
f
1738.16 1094.29 -51.69 0 0 -43.73 -13.25 0 0 92.77 ^ 0 -36.45 51.69 0 
^ 13.25 0 0 -92.77 ^ 0 43.73 f
1807.07 1118.68 0 -68.12 -13.25 0 0 92.77 9.27 0 55.67 -68.12 0 68.12 13.25 0 
0 -92.77 -9.28 0 -55.66 68.12 f
1914.42 1050.55 13.25 92.7734 re
f
1971.27 1073.75 m
5.43 -6.63 13.12 -11.93 22.66 -11.93 c
8.62 0 16.17 5.57 16.17 13.91 c
0 14.18 -19.61 15.77 -31.94 23.86 c
-6.62 4.37 -11.79 10.73 -11.79 20.41 c
0 13.52 11.93 24.65 28.09 24.65 c
11.8 0 20.02 -5.17 24.92 -9.28 c
-7.82 -9.67 p
-5.03 4.24 -10.73 6.36 -16.56 6.36 c
-7.69 0 -15.38 -4.37 -15.38 -12.46 c
0 -11.8 19.75 -14.31 31.68 -22.27 c
6.23 -4.11 12.06 -10.61 12.06 -21.21 c
0 -16.3 -12.59 -26.9 -28.76 -26.9 c
-12.73 0 -24.26 5.57 -32.47 15.5 c
9.14 9.02 p f
2098.76 1144.65 m
13.26 0 25.85 -5.43 33.93 -14.31 c
-8.88 -8.75 p
-5.43 5.96 -15.11 10.47 -25.05 10.47 c
-18.95 0 -33.66 -15.11 -33.66 -35.12 c
0 -20.94 15.11 -35.12 34.86 -35.12 c
12.46 0 21.47 6.89 26.64 13.12 c
9.41 -8.48 p
-7.96 -10.2 -21.74 -17.23 -36.05 -17.23 c
-27.7 0 -48.11 20.28 -48.11 47.71 c
0 26.77 20.14 47.71 46.91 47.71 c
f
2234.08 1094.29 -51.69 0 0 -43.73 -13.26 0 0 92.77 ^ 0 -36.45 51.69 0 
^ 13.25 0 0 -92.77 ^ 0 43.73 f
2333.47 1106.88 0 -12.59 -30.48 0 0 -31.14 41.08 0 0 -12.59 -54.34 0 0 92.77 
53.02 0 0 -12.59 -39.76 0 0 -23.86 30.48 0 f
2499.13 1094.29 -51.69 0 0 -43.73 -13.25 0 0 92.77 ^ 0 -36.45 51.69 0 
^ 13.25 0 0 -92.77 ^ 0 43.73 f
2593.89 1061.82 m
18.95 0 33.13 14.98 33.13 35.12 c
0 20.01 -14.18 35.12 -33.13 35.12 c
-18.96 0 -33.14 -15.11 -33.14 -35.12 c
0 -20.14 14.18 -35.12 33.14 -35.12 c
h
2593.89 1144.65 m
26.24 0 46.38 -20.68 46.38 -47.71 c
0 -27.04 -20.14 -47.71 -46.38 -47.71 c
-26.25 0 -46.39 20.67 -46.39 47.71 c
0 27.04 20.14 47.71 46.39 47.71 c
f
2717.66 1144.65 m
13.26 0 25.85 -5.43 33.93 -14.31 c
-8.88 -8.75 p
-5.43 5.96 -15.1 10.47 -25.05 10.47 c
-18.95 0 -33.66 -15.11 -33.66 -35.12 c
0 -20.94 15.11 -35.12 34.86 -35.12 c
12.46 0 21.47 6.89 26.64 13.12 c
9.41 -8.48 p
-7.96 -10.2 -21.74 -17.23 -36.05 -17.23 c
-27.7 0 -48.11 20.28 -48.11 47.71 c
0 26.77 20.14 47.71 46.91 47.71 c
f
2852.97 1094.29 -51.69 0 0 -43.73 -13.25 0 0 92.77 ^ 0 -36.45 51.69 0 
^ 13.26 0 0 -92.77 ^ 0 43.73 f
2909.82 1073.75 m
5.44 -6.63 13.12 -11.93 22.67 -11.93 c
8.61 0 16.17 5.57 16.17 13.91 c
0 14.18 -19.62 15.77 -31.94 23.86 c
-6.63 4.37 -11.8 10.73 -11.8 20.41 c
0 13.52 11.93 24.65 28.1 24.65 c
11.79 0 20.01 -5.17 24.91 -9.28 c
-7.82 -9.67 p
-5.03 4.24 -10.73 6.36 -16.56 6.36 c
-7.69 0 -15.38 -4.37 -15.38 -12.46 c
0 -11.8 19.75 -14.31 31.68 -22.27 c
6.23 -4.11 12.06 -10.61 12.06 -21.21 c
0 -16.3 -12.59 -26.9 -28.76 -26.9 c
-12.72 0 -24.25 5.57 -32.47 15.5 c
9.14 9.02 p f
3037.32 1144.65 m
13.25 0 25.84 -5.43 33.93 -14.31 c
-8.88 -8.75 p
-5.44 5.96 -15.11 10.47 -25.05 10.47 c
-18.96 0 -33.67 -15.11 -33.67 -35.12 c
0 -20.94 15.11 -35.12 34.86 -35.12 c
12.46 0 21.47 6.89 26.64 13.12 c
9.41 -8.48 p
-7.95 -10.2 -21.74 -17.23 -36.05 -17.23 c
-27.7 0 -48.11 20.28 -48.11 47.71 c
0 26.77 20.15 47.71 46.92 47.71 c
f
3172.63 1094.29 -51.69 0 0 -43.73 -13.26 0 0 92.77 ^ 0 -36.45 51.69 0 
^ 13.25 0 0 -92.77 ^ 0 43.73 f
3236.63 1061.42 m
-5.96 6.5 -9.67 15.11 -9.67 27.57 c
0 54.34 13.25 0 0 -55 p
0 -8.75 2.12 -14.18 5.83 -18.29 c
4.64 -5.17 11.53 -8.22 19.35 -8.22 c
7.82 0 14.71 3.05 19.35 8.22 c
3.72 4.11 5.83 9.54 5.83 18.29 c
0 55 13.26 0 0 -54.34 p
0 -12.46 -3.71 -21.07 -9.68 -27.57 c
-7.02 -7.55 -17.36 -12.19 -28.76 -12.19 c
-11.39 0 -21.73 4.64 -28.76 12.19 c
f
3358.16 1063.14 41.09 0 0 -12.59 -54.34 0 0 92.77 13.25 0 0 -80.18 f
3476.11 1106.88 0 -12.59 -30.48 0 0 -31.14 41.08 0 0 -12.59 -54.34 0 0 92.77 
53.02 0 0 -12.59 -39.76 0 0 -23.86 30.48 0 f
1421.42 964.99 m
5.96 0 9.01 1.33 11.13 3.45 c
2.13 2.12 3.45 5.17 3.45 8.48 c
0 3.32 -1.32 6.36 -3.45 8.48 c
-2.12 2.12 -5.17 3.45 -11.13 3.45 c
-18.55 0 0 -23.86 ^ h
1402.87 952.39 0 -43.73 -13.26 0 0 92.77 32.47 0 P
8.49 0 13.79 -1.99 18.03 -5.43 c
5.56 -4.5 9.14 -11.4 9.14 -19.09 c
0 -7.69 -3.58 -14.57 -9.14 -19.08 c
-2.92 -2.39 -6.23 -4.11 -10.87 -4.9 c
33.27 -44.27 -16.04 0 -33 43.73 -10.6 0 p f
1536.72 964.99 0 -12.59 -30.48 0 0 -31.14 41.08 0 0 -12.59 -54.34 0 0 92.77 
53.02 0 0 -12.59 -39.76 0 0 -23.86 30.48 0 f
1657.32 924.57 m
-7.95 -10.07 -21.73 -17.23 -36.05 -17.23 c
-27.7 0 -48.11 20.28 -48.11 47.71 c
0 26.77 20.15 47.71 46.92 47.71 c
13.25 0 25.85 -5.43 33.93 -14.32 c
-8.88 -8.75 p
-5.44 5.96 -15.11 10.47 -25.05 10.47 c
-18.95 0 -33.66 -15.11 -33.66 -35.12 c
0 -20.94 15.11 -35.12 34.85 -35.12 c
9.81 0 17.9 3.71 22.8 8.62 c
0 23.85 -26.51 0 0 12.59 39.76 0 0 -40.42 p f
1740.15 964.99 0 -12.59 -30.48 0 0 -31.14 41.08 0 0 -12.59 -54.34 0 0 92.77 
53.02 0 0 -12.59 -39.76 0 0 -23.86 30.48 0 f
1799.79 976.78 0 -68.12 -13.26 0 0 92.77 9.28 0 55.66 -68.12 0 68.12 13.26 0 
0 -92.77 -9.28 0 -55.66 68.12 f
1908.32 931.86 m
5.44 -6.63 13.13 -11.93 22.67 -11.93 c
8.61 0 16.17 5.57 16.17 13.92 c
0 14.18 -19.62 15.77 -31.94 23.86 c
-6.63 4.37 -11.8 10.73 -11.8 20.41 c
0 13.52 11.93 24.65 28.1 24.65 c
11.79 0 20.01 -5.17 24.91 -9.28 c
-7.82 -9.68 p
-5.03 4.24 -10.73 6.36 -16.56 6.36 c
-7.69 0 -15.38 -4.37 -15.38 -12.46 c
0 -11.79 19.75 -14.31 31.68 -22.27 c
6.23 -4.11 12.06 -10.6 12.06 -21.2 c
0 -16.3 -12.59 -26.91 -28.76 -26.91 c
-12.72 0 -24.25 5.57 -32.47 15.51 c
9.14 9.01 p f
2029.59 921.25 m
8.35 0 12.32 1.86 15.24 4.77 c
2.65 2.78 4.37 6.63 4.37 10.87 c
0 4.24 -1.72 7.95 -4.37 10.73 c
-2.92 2.92 -6.89 4.77 -15.24 4.77 c
-20.15 0 0 -31.14 ^ h
2025.35 964.99 m
7.42 0 10.6 1.46 12.72 3.84 c
1.99 2.12 3.18 4.9 3.18 8.08 c
0 3.18 -1.19 5.96 -3.18 8.09 c
-2.12 2.39 -5.3 3.84 -12.72 3.84 c
-15.91 0 0 -23.86 ^ h
1996.19 908.66 0 92.77 31.54 0 P
9.01 0 14.71 -2.52 19.09 -6.49 c
4.77 -4.37 7.68 -10.73 7.68 -17.63 c
0 -6.36 -2.91 -12.46 -7.29 -16.57 c
8.75 -4.37 15.25 -13.92 15.25 -24.39 c
0 -8.61 -3.98 -16.43 -10.21 -21.47 c
-4.77 -3.98 -10.87 -6.23 -20.28 -6.23 c
-35.78 0 p f
2105.26 919.53 m
-5.96 6.5 -9.67 15.11 -9.67 27.57 c
0 54.34 13.25 0 0 -55 p
0 -8.75 2.12 -14.18 5.83 -18.29 c
4.64 -5.17 11.53 -8.22 19.35 -8.22 c
7.82 0 14.71 3.05 19.35 8.22 c
3.71 4.11 5.83 9.54 5.83 18.29 c
0 55 13.26 0 0 -54.34 p
0 -12.46 -3.71 -21.07 -9.68 -27.57 c
-7.02 -7.55 -17.36 -12.19 -28.76 -12.19 c
-11.4 0 -21.73 4.64 -28.76 12.19 c
f
2245.35 964.99 m
5.96 0 9.01 1.33 11.13 3.45 c
2.12 2.12 3.44 5.17 3.44 8.48 c
0 3.32 -1.32 6.36 -3.44 8.48 c
-2.12 2.12 -5.17 3.45 -11.13 3.45 c
-18.56 0 0 -23.86 ^ h
2226.79 952.39 0 -43.73 -13.25 0 0 92.77 32.47 0 P
8.48 0 13.78 -1.99 18.02 -5.43 c
5.57 -4.5 9.15 -11.4 9.15 -19.09 c
0 -7.69 -3.58 -14.57 -9.15 -19.08 c
-2.91 -2.39 -6.23 -4.11 -10.87 -4.9 c
33.27 -44.27 -16.03 0 -33.01 43.73 -10.6 0 p f
2390.47 924.57 m
-7.95 -10.07 -21.74 -17.23 -36.05 -17.23 c
-27.7 0 -48.11 20.28 -48.11 47.71 c
0 26.77 20.15 47.71 46.92 47.71 c
13.25 0 25.84 -5.43 33.92 -14.32 c
-8.87 -8.75 p
-5.44 5.96 -15.11 10.47 -25.05 10.47 c
-18.96 0 -33.67 -15.11 -33.67 -35.12 c
0 -20.94 15.11 -35.12 34.86 -35.12 c
9.81 0 17.89 3.71 22.8 8.62 c
0 23.85 -26.51 0 0 12.59 39.76 0 0 -40.42 p f
255 G
907.516 1084.88 154.664 26.3047 re
f
841.18 911.328 26.5352 373.402 re
f
1101.98 911.328 26.5312 373.402 re
f
K
56.54 5.5 1195.03 317.03 0 -317.03 -1195.03 0 f*
10.9992 w
1 j
56.54 5.5 1195.03 317.03 0 -317.03 -1195.03 0 0 0 H
S
14 142 68 rG
606.18 471.67 m
0 134.71 109.21 243.93 243.93 243.93 c
134.71 0 243.93 -109.21 243.93 -243.93 c
0 -134.72 -109.21 -243.92 -243.93 -243.92 c
-134.72 0 -243.93 109.2 -243.93 243.92 c
f*
K
674.43 244.09 m
-1.2 4.56 -2.71 8.91 -4.54 13.03 c
-1.83 4.12 -4.04 7.61 -6.64 10.46 c
-2.6 2.86 -5.6 4.92 -9 6.19 c
-3.39 1.26 -7.22 1.34 -11.48 0.22 c
-2.13 -0.56 -4.15 -1.41 -6.06 -2.55 c
-1.91 -1.14 -3.75 -2.68 -5.51 -4.63 c
-1.77 -1.95 -3.51 -4.32 -5.24 -7.11 c
-1.72 -2.79 -3.45 -6.18 -5.18 -10.17 c
9.36 -35.65 p
5.97 -4.31 11.4 -7.36 16.29 -9.15 c
4.89 -1.8 9.56 -2.11 14.02 -0.94 c
4.13 1.09 7.4 3.01 9.81 5.76 c
2.41 2.76 4.1 6.01 5.07 9.77 c
0.97 3.76 1.34 7.78 1.1 12.07 c
-0.23 4.29 -0.9 8.53 -2 12.7 c
h
690.91 250.43 m
2.04 -7.74 3.02 -14.93 2.96 -21.57 c
-0.06 -6.63 -1.16 -12.56 -3.29 -17.79 c
-2.13 -5.23 -5.27 -9.63 -9.43 -13.2 c
-4.16 -3.57 -9.32 -6.16 -15.47 -7.78 c
-2.85 -0.75 -5.55 -1.16 -8.12 -1.23 c
-2.57 -0.07 -5.17 0.22 -7.82 0.87 c
-2.64 0.65 -5.38 1.63 -8.2 2.94 c
-2.82 1.31 -5.88 2.99 -9.17 5.02 c
2.87 -10.92 p
0.14 -0.53 0.13 -1.03 -0.03 -1.5 c
-0.16 -0.46 -0.51 -0.89 -1.04 -1.28 c
-0.54 -0.39 -1.23 -0.77 -2.09 -1.13 c
-0.86 -0.37 -1.98 -0.74 -3.37 -1.1 c
-1.32 -0.35 -2.47 -0.58 -3.43 -0.69 c
-0.96 -0.11 -1.77 -0.13 -2.43 -0.05 c
-0.66 0.07 -1.14 0.28 -1.44 0.63 c
-0.3 0.34 -0.52 0.78 -0.66 1.31 c
-34.84 132.68 p
-0.14 0.53 -0.14 1.02 -0.02 1.48 c
0.13 0.46 0.47 0.9 1.03 1.33 c
0.56 0.43 1.35 0.85 2.38 1.26 c
1.03 0.41 2.33 0.83 3.92 1.24 c
1.66 0.44 3.03 0.73 4.13 0.87 c
1.09 0.15 1.97 0.17 2.64 0.06 c
0.66 -0.11 1.18 -0.33 1.55 -0.65 c
0.37 -0.33 0.62 -0.76 0.76 -1.29 c
14.05 -53.53 p
1.93 3.41 3.9 6.37 5.89 8.88 c
2 2.5 4.04 4.65 6.11 6.43 c
2.08 1.79 4.24 3.26 6.49 4.41 c
2.24 1.16 4.69 2.08 7.34 2.78 c
6.49 1.7 12.38 1.87 17.65 0.49 c
5.28 -1.37 9.93 -3.85 13.95 -7.43 c
4.02 -3.58 7.46 -8.11 10.31 -13.59 c
2.86 -5.48 5.14 -11.46 6.84 -17.95 c
h
563.46 211.45 -14 -3.68 P
-4.5 -1.18 -8.31 -2.59 -11.42 -4.22 c
-3.11 -1.63 -5.56 -3.48 -7.36 -5.54 c
-1.79 -2.06 -2.93 -4.27 -3.41 -6.63 c
-0.48 -2.35 -0.36 -4.89 0.35 -7.6 c
1.22 -4.63 3.66 -7.94 7.33 -9.91 c
3.67 -1.98 8.15 -2.27 13.45 -0.88 c
4.3 1.13 8 3.27 11.11 6.42 c
3.1 3.15 6.08 7.51 8.94 13.07 c
-4.98 18.97 h
590.46 174.91 m
0.21 -0.8 0.1 -1.46 -0.32 -2 c
-0.43 -0.53 -1.08 -1.02 -1.95 -1.47 c
-0.87 -0.44 -2.2 -0.89 -3.99 -1.36 c
-1.72 -0.46 -3.12 -0.72 -4.2 -0.79 c
-1.08 -0.07 -1.9 0.03 -2.47 0.31 c
-0.57 0.28 -0.96 0.81 -1.16 1.6 c
-2.35 8.94 p
-2.81 -5.19 -6.31 -9.58 -10.5 -13.16 c
-4.19 -3.58 -8.97 -6.07 -14.33 -7.48 c
-4.7 -1.23 -9.11 -1.74 -13.24 -1.51 c
-4.13 0.22 -7.84 1.14 -11.13 2.76 c
-3.29 1.61 -6.12 3.91 -8.5 6.9 c
-2.38 2.98 -4.13 6.62 -5.26 10.93 c
-1.32 5.03 -1.44 9.67 -0.36 13.92 c
1.08 4.24 3.22 8.09 6.41 11.55 c
3.2 3.46 7.41 6.53 12.66 9.22 c
5.24 2.68 11.34 4.94 18.29 6.76 c
12.32 3.23 -1.83 6.96 p
-0.9 3.44 -2.07 6.39 -3.49 8.85 c
-1.43 2.45 -3.18 4.35 -5.26 5.67 c
-2.08 1.33 -4.53 2.11 -7.35 2.32 c
-2.82 0.22 -6.11 -0.17 -9.89 -1.16 c
-4.04 -1.06 -7.54 -2.49 -10.5 -4.3 c
-2.96 -1.8 -5.5 -3.6 -7.61 -5.39 c
-2.11 -1.79 -3.86 -3.38 -5.23 -4.77 c
-1.37 -1.39 -2.45 -2.18 -3.25 -2.39 c
-0.53 -0.14 -1.03 -0.13 -1.49 0.03 c
-0.47 0.16 -0.92 0.47 -1.36 0.92 c
-0.43 0.45 -0.83 1.07 -1.18 1.87 c
-0.35 0.79 -0.65 1.68 -0.91 2.67 c
-0.43 1.66 -0.66 3 -0.68 4.02 c
-0.02 1.02 0.3 2.08 0.97 3.17 c
0.67 1.1 1.94 2.51 3.82 4.24 c
1.88 1.74 4.12 3.46 6.71 5.16 c
2.59 1.71 5.5 3.32 8.71 4.84 c
3.21 1.51 6.54 2.72 9.98 3.63 c
6.42 1.68 12.07 2.39 16.96 2.11 c
4.88 -0.27 9.09 -1.45 12.61 -3.53 c
3.52 -2.09 6.45 -5.05 8.81 -8.89 c
2.35 -3.84 4.26 -8.54 5.72 -14.1 c
15.83 -60.28 h
504.59 157.77 m
0.34 -1.32 0.57 -2.45 0.67 -3.37 c
0.1 -0.93 0.09 -1.75 -0.04 -2.46 c
-0.13 -0.71 -0.38 -1.26 -0.73 -1.68 c
-0.35 -0.41 -0.82 -0.69 -1.42 -0.85 c
-56.8 -14.91 p
-1.52 -0.4 -3.1 -0.27 -4.72 0.4 c
-1.62 0.67 -2.78 2.3 -3.46 4.88 c
-31.24 118.97 p
-0.14 0.53 -0.13 1.03 0.03 1.5 c
0.16 0.46 0.54 0.9 1.14 1.31 c
0.6 0.4 1.44 0.84 2.52 1.3 c
1.08 0.46 2.42 0.9 4.01 1.31 c
1.66 0.44 3.05 0.72 4.18 0.84 c
1.14 0.12 2.07 0.15 2.79 0.09 c
0.72 -0.06 1.27 -0.25 1.64 -0.58 c
0.37 -0.32 0.62 -0.75 0.76 -1.28 c
29.18 -111.13 46.08 12.1 p
0.59 0.16 1.15 0.14 1.66 -0.04 c
0.51 -0.19 0.98 -0.52 1.43 -1.01 c
0.45 -0.48 0.86 -1.17 1.23 -2.06 c
0.38 -0.89 0.73 -2 1.09 -3.33 c
h
407.32 126.93 m
0.14 -0.53 0.13 -1.01 -0.04 -1.45 c
-0.17 -0.43 -0.52 -0.86 -1.05 -1.28 c
-0.52 -0.42 -1.3 -0.84 -2.32 -1.25 c
-1.02 -0.41 -2.33 -0.82 -3.92 -1.24 c
-1.65 -0.43 -3.03 -0.72 -4.12 -0.87 c
-1.09 -0.15 -1.98 -0.16 -2.64 -0.06 c
-0.66 0.11 -1.18 0.31 -1.54 0.61 c
-0.36 0.29 -0.61 0.71 -0.75 1.23 c
-13.74 52.34 p
-1.34 5.1 -2.81 9.1 -4.42 12 c
-1.61 2.91 -3.48 5.28 -5.59 7.13 c
-2.11 1.85 -4.54 3.06 -7.27 3.62 c
-2.73 0.55 -5.68 0.41 -8.86 -0.42 c
-4.11 -1.08 -7.83 -3.61 -11.17 -7.6 c
-3.34 -3.99 -6.52 -9.39 -9.55 -16.2 c
16.4 -62.47 p
0.14 -0.53 0.13 -1.01 -0.05 -1.44 c
-0.17 -0.44 -0.52 -0.86 -1.04 -1.29 c
-0.52 -0.42 -1.3 -0.83 -2.32 -1.24 c
-1.02 -0.41 -2.36 -0.84 -4.02 -1.27 c
-1.59 -0.42 -2.93 -0.7 -4.02 -0.85 c
-1.1 -0.14 -1.99 -0.16 -2.69 -0.07 c
-0.7 0.1 -1.21 0.31 -1.54 0.61 c
-0.32 0.3 -0.56 0.72 -0.7 1.25 c
-23.46 89.38 p
-0.14 0.53 -0.16 1 -0.05 1.42 c
0.1 0.41 0.41 0.85 0.93 1.3 c
0.52 0.46 1.23 0.85 2.13 1.2 c
0.9 0.34 2.11 0.71 3.63 1.11 c
1.46 0.38 2.68 0.65 3.66 0.8 c
0.99 0.16 1.79 0.15 2.39 -0.01 c
0.61 -0.15 1.08 -0.39 1.4 -0.69 c
0.33 -0.3 0.56 -0.72 0.7 -1.25 c
3.1 -11.82 p
3.55 6.95 7.49 12.39 11.8 16.32 c
4.31 3.93 9.02 6.56 14.12 7.9 c
5.96 1.56 11.24 1.87 15.84 0.92 c
4.6 -0.95 8.61 -2.78 12.01 -5.5 c
3.4 -2.72 6.24 -6.2 8.53 -10.45 c
2.28 -4.24 4.26 -9.55 5.93 -15.9 c
14.32 -54.52 h
273.09 135.21 -14 -3.68 P
-4.5 -1.18 -8.31 -2.59 -11.42 -4.22 c
-3.11 -1.63 -5.56 -3.48 -7.36 -5.54 c
-1.79 -2.06 -2.93 -4.27 -3.41 -6.63 c
-0.48 -2.35 -0.36 -4.89 0.35 -7.6 c
1.22 -4.64 3.66 -7.94 7.33 -9.92 c
3.67 -1.97 8.15 -2.26 13.45 -0.87 c
4.3 1.13 8 3.27 11.11 6.42 c
3.1 3.15 6.08 7.5 8.94 13.07 c
-4.98 18.97 h
300.09 98.67 m
0.21 -0.8 0.1 -1.46 -0.32 -2 c
-0.43 -0.54 -1.08 -1.03 -1.95 -1.47 c
-0.87 -0.44 -2.2 -0.9 -3.99 -1.37 c
-1.72 -0.45 -3.12 -0.71 -4.2 -0.78 c
-1.08 -0.07 -1.9 0.03 -2.47 0.31 c
-0.57 0.27 -0.96 0.81 -1.16 1.6 c
-2.35 8.94 p
-2.81 -5.2 -6.31 -9.58 -10.5 -13.16 c
-4.19 -3.58 -8.97 -6.07 -14.33 -7.48 c
-4.7 -1.23 -9.11 -1.74 -13.24 -1.51 c
-4.13 0.22 -7.84 1.14 -11.13 2.76 c
-3.29 1.61 -6.12 3.91 -8.5 6.89 c
-2.38 2.99 -4.13 6.63 -5.26 10.94 c
-1.32 5.03 -1.44 9.67 -0.36 13.91 c
1.08 4.25 3.22 8.1 6.41 11.56 c
3.2 3.46 7.41 6.53 12.66 9.21 c
5.24 2.69 11.34 4.94 18.29 6.77 c
12.32 3.23 -1.83 6.95 p
-0.9 3.45 -2.07 6.4 -3.49 8.85 c
-1.43 2.46 -3.18 4.35 -5.26 5.68 c
-2.08 1.33 -4.53 2.1 -7.35 2.32 c
-2.82 0.21 -6.11 -0.17 -9.89 -1.16 c
-4.04 -1.06 -7.54 -2.5 -10.5 -4.3 c
-2.96 -1.8 -5.5 -3.6 -7.61 -5.39 c
-2.11 -1.8 -3.86 -3.39 -5.23 -4.77 c
-1.37 -1.39 -2.45 -2.18 -3.25 -2.39 c
-0.53 -0.14 -1.03 -0.13 -1.49 0.03 c
-0.47 0.16 -0.92 0.47 -1.36 0.92 c
-0.44 0.45 -0.83 1.07 -1.18 1.86 c
-0.35 0.8 -0.65 1.69 -0.91 2.68 c
-0.43 1.66 -0.66 3 -0.68 4.02 c
-0.02 1.02 0.3 2.07 0.97 3.17 c
0.67 1.1 1.94 2.51 3.82 4.24 c
1.88 1.73 4.12 3.45 6.71 5.16 c
2.59 1.71 5.5 3.32 8.71 4.84 c
3.21 1.51 6.54 2.72 9.98 3.62 c
6.42 1.69 12.07 2.4 16.96 2.12 c
4.88 -0.27 9.09 -1.45 12.61 -3.53 c
3.52 -2.09 6.45 -5.05 8.81 -8.89 c
2.35 -3.84 4.26 -8.54 5.72 -14.1 c
15.83 -60.28 h
177.11 123.59 m
-2.06 8.66 -5.75 14.91 -11.07 18.75 c
-5.32 3.84 -11.94 4.72 -19.86 2.64 c
-4.07 -1.06 -7.43 -2.76 -10.09 -5.09 c
-2.66 -2.33 -4.7 -5.02 -6.1 -8.08 c
-1.41 -3.06 -2.23 -6.4 -2.49 -10.05 c
-0.25 -3.64 0.03 -7.29 0.86 -10.97 c
48.76 12.8 h
194.88 123.05 m
0.68 -2.58 0.51 -4.58 -0.5 -6.02 c
-1.01 -1.43 -2.35 -2.37 -4.01 -2.8 c
-58.86 -15.46 p
1.3 -4.96 2.97 -9.3 5.02 -13.01 c
2.04 -3.71 4.6 -6.68 7.68 -8.92 c
3.07 -2.24 6.68 -3.63 10.8 -4.17 c
4.13 -0.54 8.88 -0.11 14.27 1.31 c
4.26 1.11 7.96 2.46 11.11 4.03 c
3.14 1.56 5.82 3.1 8.02 4.6 c
2.2 1.49 3.99 2.8 5.38 3.9 c
1.38 1.11 2.47 1.77 3.27 1.98 c
0.46 0.12 0.91 0.11 1.34 -0.03 c
0.43 -0.13 0.8 -0.4 1.12 -0.82 c
0.32 -0.41 0.64 -1.01 0.96 -1.81 c
0.32 -0.81 0.63 -1.8 0.95 -2.99 c
0.23 -0.86 0.39 -1.62 0.48 -2.26 c
0.1 -0.65 0.16 -1.23 0.2 -1.76 c
0.03 -0.52 -0.02 -1.01 -0.14 -1.47 c
-0.12 -0.46 -0.32 -0.92 -0.59 -1.38 c
-0.27 -0.45 -1.19 -1.33 -2.76 -2.63 c
-1.57 -1.3 -3.68 -2.72 -6.31 -4.26 c
-2.64 -1.54 -5.75 -3.12 -9.32 -4.73 c
-3.57 -1.61 -7.48 -2.97 -11.72 -4.08 c
-7.35 -1.93 -14.06 -2.6 -20.12 -2 c
-6.07 0.6 -11.52 2.43 -16.35 5.48 c
-4.83 3.04 -9.01 7.36 -12.53 12.95 c
-3.52 5.58 -6.34 12.42 -8.46 20.49 c
-2.02 7.68 -2.84 14.85 -2.46 21.49 c
0.38 6.65 1.88 12.6 4.5 17.85 c
2.62 5.25 6.28 9.72 10.97 13.39 c
4.7 3.67 10.32 6.37 16.88 8.09 c
7.02 1.85 13.29 2.29 18.81 1.33 c
5.52 -0.95 10.38 -2.92 14.55 -5.89 c
4.18 -2.97 7.69 -6.83 10.52 -11.57 c
2.84 -4.74 5.02 -10.02 6.55 -15.85 c
0.78 -2.98 h
112.84 54.91 m
0.35 -1.32 0.57 -2.45 0.68 -3.38 c
0.1 -0.92 0.09 -1.74 -0.05 -2.45 c
-0.13 -0.71 -0.37 -1.27 -0.73 -1.68 c
-0.35 -0.41 -0.82 -0.69 -1.42 -0.85 c
-56.8 -14.91 p
-1.52 -0.4 -3.1 -0.27 -4.72 0.4 c
-1.63 0.67 -2.78 2.3 -3.46 4.88 c
-31.24 118.97 p
-0.14 0.53 -0.13 1.03 0.03 1.5 c
0.16 0.46 0.54 0.9 1.14 1.31 c
0.6 0.4 1.44 0.83 2.52 1.29 c
1.08 0.47 2.42 0.91 4.01 1.32 c
1.65 0.44 3.05 0.71 4.18 0.84 c
1.14 0.12 2.07 0.15 2.79 0.09 c
0.72 -0.06 1.27 -0.25 1.64 -0.58 c
0.37 -0.32 0.63 -0.75 0.77 -1.28 c
29.18 -111.13 46.08 12.1 p
0.59 0.16 1.15 0.14 1.66 -0.04 c
0.51 -0.19 0.98 -0.52 1.43 -1.01 c
0.45 -0.48 0.86 -1.17 1.23 -2.06 c
0.38 -0.89 0.73 -2 1.08 -3.33 c
f
cleartomark end end pagesave restore
 showpage
%%PageTrailer
%%Trailer
%%Pages: 1
