%!PS-Adobe-3.0 EPSF-3.0
%%BoundingBox: 0 -1 394 115
%%HiResBoundingBox: 0.000000 -0.049609 393.400000 114.700000
%.......................................
%%Creator: GPL Ghostscript 907 (epswrite)
%%CreationDate: 2016/02/11 21:01:05
%%DocumentData: Clean7Bit
%%LanguageLevel: 2
%%EndComments
%%BeginProlog
% This copyright applies to everything between here and the %%EndProlog:
% Copyright (C) 2012 Artifex Software, Inc.  All rights reserved.
%%BeginResource: procset GS_epswrite_2_0_1001 1.001 0
/GS_epswrite_2_0_1001 80 dict dup begin
/PageSize 2 array def/setpagesize{ PageSize aload pop 3 index eq exch
4 index eq and{ pop pop pop}{ PageSize dup  1
5 -1 roll put 0 4 -1 roll put dup null eq {false} {dup where} ifelse{ exch get exec}
{ pop/setpagedevice where
{ pop 1 dict dup /PageSize PageSize put setpagedevice}
{ /setpage where{ pop PageSize aload pop pageparams 3 {exch pop} repeat
setpage}if}ifelse}ifelse}ifelse} bind def
/!{bind def}bind def/#{load def}!/N/counttomark #
/rG{3{3 -1 roll 255 div}repeat setrgbcolor}!/G{255 div setgray}!/K{0 G}!
/r6{dup 3 -1 roll rG}!/r5{dup 3 1 roll rG}!/r3{dup rG}!
/w/setlinewidth #/J/setlinecap #
/j/setlinejoin #/M/setmiterlimit #/d/setdash #/i/setflat #
/m/moveto #/l/lineto #/c/rcurveto #
/p{N 2 idiv{N -2 roll rlineto}repeat}!
/P{N 0 gt{N -2 roll moveto p}if}!
/h{p closepath}!/H{P closepath}!
/lx{0 rlineto}!/ly{0 exch rlineto}!/v{0 0 6 2 roll c}!/y{2 copy c}!
/re{4 -2 roll m exch dup lx exch ly neg lx h}!
/^{3 index neg 3 index neg}!
/f{P fill}!/f*{P eofill}!/s{H stroke}!/S{P stroke}!
/q/gsave #/Q/grestore #/rf{re fill}!
/Y{P clip newpath}!/Y*{P eoclip newpath}!/rY{re Y}!
/|={pop exch 4 1 roll 1 array astore cvx 3 array astore cvx exch 1 index def exec}!
/|{exch string readstring |=}!
/+{dup type/nametype eq{2 index 7 add -3 bitshift 2 index mul}if}!
/@/currentfile #/${+ @ |}!
/B{{2 copy string{readstring pop}aload pop 4 array astore cvx
3 1 roll}repeat pop pop true}!
/Ix{[1 0 0 1 11 -2 roll exch neg exch neg]exch}!
/,{true exch Ix imagemask}!/If{false exch Ix imagemask}!/I{exch Ix image}!
/Ic{exch Ix false 3 colorimage}!
/F{/Columns counttomark 3 add -2 roll/Rows exch/K -1/BlackIs1 true>>
/CCITTFaxDecode filter}!/FX{<</EndOfBlock false F}!
/X{/ASCII85Decode filter}!/@X{@ X}!/&2{2 index 2 index}!
/@F{@ &2<<F}!/@C{@X &2 FX}!
/$X{+ @X |}!/&4{4 index 4 index}!/$F{+ @ &4<<F |}!/$C{+ @X &4 FX |}!
/IC{3 1 roll 10 dict begin 1{/ImageType/Interpolate/Decode/DataSource
/ImageMatrix/BitsPerComponent/Height/Width}{exch def}forall
currentdict end image}!
/~{@ read {pop} if}!
end def
%%EndResource
/pagesave null def
%%EndProlog
%%Page: 1 1
%%BeginPageSetup
GS_epswrite_2_0_1001 begin
/pagesave save store 197 dict begin
0.1 0.1 scale
%%EndPageSetup
gsave mark
Q q
0 0 3934 1146.26 re
Y
255 G
1254.53 518.586 2679.47 627.676 re
f
35 31 32 rG
0 518.586 1254.17 627.664 re
f
255 G
524.703 994.195 247.879 26.5312 re
f
635.379 644.125 26.5312 310.27 re
f
907.645 819.16 154.656 26.5312 re
f
841.312 644.125 26.5352 376.602 re
f
1102.1 644.125 26.5273 376.602 re
f
460.31 950.73 -18.94 -18.94 P
21.43 -27.44 34.26 -61.93 34.26 -99.37 c
0 -89.2 -72.57 -161.77 -161.77 -161.77 c
-37.45 0 -71.93 12.82 -99.37 34.26 c
-18.94 -18.94 p
32.34 -26.16 73.48 -41.85 118.31 -41.85 c
104 0 188.3 84.3 188.3 188.3 c
0 44.83 -15.69 85.98 -41.85 118.31 c
f
186.35 733.05 m
-21.44 27.45 -34.26 61.93 -34.26 99.37 c
0 89.2 72.57 161.77 161.77 161.77 c
37.44 0 71.92 -12.82 99.37 -34.25 c
18.95 18.94 p
-32.34 26.16 -73.48 41.85 -118.31 41.85 c
-104 0 -188.3 -84.3 -188.3 -188.3 c
0 -44.83 15.69 -85.98 41.84 -118.31 c
18.95 18.94 p f
35 31 32 rG
1428.71 939.2 m
18.95 0 33.13 14.98 33.13 35.12 c
0 20.01 -14.18 35.12 -33.13 35.12 c
-18.95 0 -33.13 -15.11 -33.13 -35.12 c
0 -20.14 14.18 -35.12 33.13 -35.12 c
h
1428.71 1022.03 m
26.24 0 46.39 -20.68 46.39 -47.71 c
0 -27.04 -20.15 -47.71 -46.39 -47.71 c
-26.24 0 -46.39 20.68 -46.39 47.71 c
0 27.04 20.15 47.71 46.39 47.71 c
f
1510.74 951.13 m
5.44 -6.63 13.12 -11.93 22.67 -11.93 c
8.61 0 16.17 5.57 16.17 13.92 c
0 14.18 -19.62 15.77 -31.94 23.86 c
-6.63 4.38 -11.8 10.73 -11.8 20.41 c
0 13.52 11.93 24.65 28.09 24.65 c
11.8 0 20.02 -5.17 24.92 -9.27 c
-7.82 -9.68 p
-5.03 4.24 -10.73 6.36 -16.56 6.36 c
-7.69 0 -15.38 -4.37 -15.38 -12.46 c
0 -11.8 19.75 -14.31 31.68 -22.27 c
6.23 -4.11 12.06 -10.61 12.06 -21.21 c
0 -16.3 -12.59 -26.9 -28.76 -26.9 c
-12.72 0 -24.25 5.57 -32.47 15.5 c
9.14 9.02 p f
1586.02 1020.7 63.61 0 0 -12.59 -25.18 0 0 -80.18 -13.25 0 ^ -25.18 0 
0 12.59 f
1715.5 940.52 m
8.35 0 12.32 1.86 15.24 4.77 c
2.65 2.78 4.37 6.63 4.37 10.87 c
0 4.24 -1.72 7.95 -4.37 10.73 c
-2.92 2.91 -6.89 4.77 -15.24 4.77 c
-20.15 0 0 -31.15 ^ h
1711.26 984.26 m
7.42 0 10.6 1.46 12.72 3.84 c
1.99 2.12 3.18 4.9 3.18 8.08 c
0 3.18 -1.19 5.96 -3.18 8.09 c
-2.12 2.39 -5.3 3.84 -12.72 3.84 c
-15.91 0 0 -23.86 ^ h
1682.1 927.93 0 92.77 31.54 0 P
9.01 0 14.71 -2.52 19.09 -6.49 c
4.77 -4.37 7.68 -10.73 7.68 -17.63 c
0 -6.36 -2.91 -12.46 -7.29 -16.57 c
8.75 -4.37 15.25 -13.91 15.25 -24.39 c
0 -8.61 -3.98 -16.43 -10.21 -21.47 c
-4.77 -3.98 -10.87 -6.23 -20.28 -6.23 c
-35.78 0 p f
1799.66 964.38 28.62 0 -14.31 34.46 -14.31 -34.46 H
1833.45 951.79 -39.1 0 -9.67 -23.86 -13.79 0 38.44 92.77 9.28 0 38.43 -92.77 -13.78 0 
-9.81 23.86 f
1912.04 970.34 0 -42.41 -13.25 0 ^ -31.81 50.36 14.84 0 23.6 -37.24 23.59 37.24 
14.84 0 -31.81 -50.36 f
2019.39 984.26 0 -12.59 -30.49 0 0 -31.15 41.09 0 0 -12.59 -54.34 0 0 92.77 
53.01 0 0 -12.59 -39.76 0 0 -23.86 30.49 0 f
2097.58 984.26 m
5.96 0 9.01 1.32 11.13 3.45 c
2.12 2.12 3.45 5.17 3.45 8.48 c
0 3.32 -1.33 6.36 -3.45 8.48 c
-2.12 2.12 -5.17 3.45 -11.13 3.45 c
-18.56 0 0 -23.86 ^ h
2079.02 971.67 0 -43.74 -13.25 0 0 92.77 32.47 0 P
8.48 0 13.78 -1.99 18.03 -5.43 c
5.56 -4.51 9.14 -11.4 9.14 -19.09 c
0 -7.69 -3.58 -14.58 -9.14 -19.08 c
-2.92 -2.39 -6.24 -4.11 -10.87 -4.91 c
33.26 -44.27 -16.03 0 -33 43.74 -10.61 0 p f
2169.14 927.93 13.2578 92.7734 re
f
2226 951.13 m
5.43 -6.63 13.12 -11.93 22.66 -11.93 c
8.62 0 16.17 5.57 16.17 13.92 c
0 14.18 -19.61 15.77 -31.94 23.86 c
-6.63 4.38 -11.8 10.73 -11.8 20.41 c
0 13.52 11.93 24.65 28.1 24.65 c
11.8 0 20.01 -5.17 24.92 -9.27 c
-7.82 -9.68 p
-5.04 4.24 -10.73 6.36 -16.57 6.36 c
-7.68 0 -15.37 -4.37 -15.37 -12.46 c
0 -11.8 19.75 -14.31 31.68 -22.27 c
6.22 -4.11 12.06 -10.61 12.06 -21.21 c
0 -16.3 -12.6 -26.9 -28.77 -26.9 c
-12.72 0 -24.25 5.57 -32.46 15.5 c
9.14 9.02 p f
2353.49 1022.03 m
13.25 0 25.85 -5.43 33.93 -14.31 c
-8.88 -8.75 p
-5.43 5.96 -15.11 10.47 -25.05 10.47 c
-18.95 0 -33.66 -15.11 -33.66 -35.12 c
0 -20.94 15.11 -35.12 34.85 -35.12 c
12.46 0 21.47 6.89 26.64 13.12 c
9.41 -8.48 p
-7.95 -10.2 -21.73 -17.23 -36.05 -17.23 c
-27.7 0 -48.11 20.28 -48.11 47.71 c
0 26.77 20.15 47.71 46.92 47.71 c
f
2488.8 971.67 -51.69 0 0 -43.74 -13.25 0 0 92.77 ^ 0 -36.45 51.69 0 
^ 13.25 0 0 -92.77 ^ 0 43.74 f
2588.2 984.26 0 -12.59 -30.49 0 0 -31.15 41.09 0 0 -12.59 -54.34 0 0 92.77 
53.01 0 0 -12.59 -39.76 0 0 -23.86 30.49 0 f
1379.67 878.81 63.62 0 0 -12.59 -25.18 0 0 -80.18 -13.26 0 ^ -25.18 0 
0 12.59 f
1519.49 842.36 0 -12.59 -30.48 0 0 -31.14 41.08 0 0 -12.59 -54.34 0 0 92.77 
53.02 0 0 -12.59 -39.76 0 0 -23.86 30.48 0 f
1602.85 880.13 m
13.25 0 25.85 -5.43 33.93 -14.31 c
-8.88 -8.75 p
-5.44 5.96 -15.11 10.47 -25.05 10.47 c
-18.95 0 -33.66 -15.11 -33.66 -35.12 c
0 -20.94 15.11 -35.12 34.85 -35.12 c
12.46 0 21.47 6.89 26.64 13.12 c
9.41 -8.48 p
-7.95 -10.2 -21.73 -17.23 -36.05 -17.23 c
-27.7 0 -48.11 20.28 -48.11 47.71 c
0 26.77 20.15 47.71 46.92 47.71 c
f
1738.16 829.77 -51.69 0 0 -43.73 -13.25 0 0 92.77 ^ 0 -36.45 51.69 0 
^ 13.25 0 0 -92.77 ^ 0 43.73 f
1807.07 854.16 0 -68.12 -13.25 0 0 92.77 9.27 0 55.67 -68.12 0 68.12 13.25 0 
0 -92.77 -9.28 0 -55.66 68.12 f
1914.42 786.035 13.25 92.7734 re
f
1971.27 809.23 m
5.43 -6.62 13.12 -11.93 22.66 -11.93 c
8.62 0 16.17 5.57 16.17 13.91 c
0 14.18 -19.61 15.77 -31.94 23.86 c
-6.62 4.38 -11.79 10.74 -11.79 20.41 c
0 13.52 11.93 24.65 28.09 24.65 c
11.8 0 20.02 -5.17 24.92 -9.28 c
-7.82 -9.67 p
-5.03 4.24 -10.73 6.36 -16.56 6.36 c
-7.69 0 -15.38 -4.37 -15.38 -12.46 c
0 -11.8 19.75 -14.32 31.68 -22.27 c
6.23 -4.11 12.06 -10.61 12.06 -21.21 c
0 -16.3 -12.59 -26.9 -28.76 -26.9 c
-12.73 0 -24.26 5.56 -32.47 15.5 c
9.14 9.01 p f
2098.76 880.13 m
13.26 0 25.85 -5.43 33.93 -14.31 c
-8.88 -8.75 p
-5.43 5.96 -15.11 10.47 -25.05 10.47 c
-18.95 0 -33.66 -15.11 -33.66 -35.12 c
0 -20.94 15.11 -35.12 34.86 -35.12 c
12.46 0 21.47 6.89 26.64 13.12 c
9.41 -8.48 p
-7.96 -10.2 -21.74 -17.23 -36.05 -17.23 c
-27.7 0 -48.11 20.28 -48.11 47.71 c
0 26.77 20.14 47.71 46.91 47.71 c
f
2234.08 829.77 -51.69 0 0 -43.73 -13.26 0 0 92.77 ^ 0 -36.45 51.69 0 
^ 13.25 0 0 -92.77 ^ 0 43.73 f
2333.47 842.36 0 -12.59 -30.48 0 0 -31.14 41.08 0 0 -12.59 -54.34 0 0 92.77 
53.02 0 0 -12.59 -39.76 0 0 -23.86 30.48 0 f
2499.13 829.77 -51.69 0 0 -43.73 -13.25 0 0 92.77 ^ 0 -36.45 51.69 0 
^ 13.25 0 0 -92.77 ^ 0 43.73 f
2593.89 797.3 m
18.95 0 33.13 14.97 33.13 35.12 c
0 20.01 -14.18 35.12 -33.13 35.12 c
-18.96 0 -33.14 -15.11 -33.14 -35.12 c
0 -20.15 14.18 -35.12 33.14 -35.12 c
h
2593.89 880.13 m
26.24 0 46.38 -20.68 46.38 -47.71 c
0 -27.04 -20.14 -47.71 -46.38 -47.71 c
-26.25 0 -46.39 20.67 -46.39 47.71 c
0 27.04 20.14 47.71 46.39 47.71 c
f
2717.66 880.13 m
13.26 0 25.85 -5.43 33.93 -14.31 c
-8.88 -8.75 p
-5.43 5.96 -15.1 10.47 -25.05 10.47 c
-18.95 0 -33.66 -15.11 -33.66 -35.12 c
0 -20.94 15.11 -35.12 34.86 -35.12 c
12.46 0 21.47 6.89 26.64 13.12 c
9.41 -8.48 p
-7.96 -10.2 -21.74 -17.23 -36.05 -17.23 c
-27.7 0 -48.11 20.28 -48.11 47.71 c
0 26.77 20.14 47.71 46.91 47.71 c
f
2852.97 829.77 -51.69 0 0 -43.73 -13.25 0 0 92.77 ^ 0 -36.45 51.69 0 
^ 13.26 0 0 -92.77 ^ 0 43.73 f
2909.82 809.23 m
5.44 -6.62 13.12 -11.93 22.67 -11.93 c
8.61 0 16.17 5.57 16.17 13.91 c
0 14.18 -19.62 15.77 -31.94 23.86 c
-6.63 4.38 -11.8 10.74 -11.8 20.41 c
0 13.52 11.93 24.65 28.1 24.65 c
11.79 0 20.01 -5.17 24.91 -9.28 c
-7.82 -9.67 p
-5.03 4.24 -10.73 6.36 -16.56 6.36 c
-7.69 0 -15.38 -4.37 -15.38 -12.46 c
0 -11.8 19.75 -14.32 31.68 -22.27 c
6.23 -4.11 12.06 -10.61 12.06 -21.21 c
0 -16.3 -12.59 -26.9 -28.76 -26.9 c
-12.72 0 -24.25 5.56 -32.47 15.5 c
9.14 9.01 p f
3037.32 880.13 m
13.25 0 25.84 -5.43 33.93 -14.31 c
-8.88 -8.75 p
-5.44 5.96 -15.11 10.47 -25.05 10.47 c
-18.96 0 -33.67 -15.11 -33.67 -35.12 c
0 -20.94 15.11 -35.12 34.86 -35.12 c
12.46 0 21.47 6.89 26.64 13.12 c
9.41 -8.48 p
-7.95 -10.2 -21.74 -17.23 -36.05 -17.23 c
-27.7 0 -48.11 20.28 -48.11 47.71 c
0 26.77 20.15 47.71 46.92 47.71 c
f
3172.63 829.77 -51.69 0 0 -43.73 -13.26 0 0 92.77 ^ 0 -36.45 51.69 0 
^ 13.25 0 0 -92.77 ^ 0 43.73 f
3236.63 796.9 m
-5.96 6.49 -9.67 15.11 -9.67 27.57 c
0 54.34 13.25 0 0 -55 p
0 -8.75 2.12 -14.18 5.83 -18.29 c
4.64 -5.17 11.53 -8.21 19.35 -8.21 c
7.82 0 14.71 3.05 19.35 8.21 c
3.72 4.11 5.83 9.54 5.83 18.29 c
0 55 13.26 0 0 -54.34 p
0 -12.46 -3.71 -21.07 -9.68 -27.57 c
-7.02 -7.55 -17.36 -12.19 -28.76 -12.19 c
-11.39 0 -21.73 4.64 -28.76 12.19 c
f
3358.16 798.63 41.09 0 0 -12.59 -54.34 0 0 92.77 13.25 0 0 -80.18 f
3476.11 842.36 0 -12.59 -30.48 0 0 -31.14 41.08 0 0 -12.59 -54.34 0 0 92.77 
53.02 0 0 -12.59 -39.76 0 0 -23.86 30.48 0 f
1421.42 700.47 m
5.96 0 9.01 1.33 11.13 3.45 c
2.13 2.12 3.45 5.17 3.45 8.48 c
0 3.32 -1.32 6.36 -3.45 8.48 c
-2.12 2.12 -5.17 3.45 -11.13 3.45 c
-18.55 0 0 -23.86 ^ h
1402.87 687.88 0 -43.73 -13.26 0 0 92.77 32.47 0 P
8.49 0 13.79 -1.99 18.03 -5.43 c
5.56 -4.5 9.14 -11.4 9.14 -19.09 c
0 -7.69 -3.58 -14.58 -9.14 -19.08 c
-2.92 -2.39 -6.23 -4.11 -10.87 -4.91 c
33.27 -44.27 -16.04 0 -33 43.73 -10.6 0 p f
1536.72 700.47 0 -12.59 -30.48 0 0 -31.14 41.08 0 0 -12.59 -54.34 0 0 92.77 
53.02 0 0 -12.59 -39.76 0 0 -23.86 30.48 0 f
1657.32 660.05 m
-7.95 -10.07 -21.73 -17.23 -36.05 -17.23 c
-27.7 0 -48.11 20.28 -48.11 47.71 c
0 26.77 20.15 47.71 46.92 47.71 c
13.25 0 25.85 -5.43 33.93 -14.32 c
-8.88 -8.75 p
-5.44 5.96 -15.11 10.47 -25.05 10.47 c
-18.95 0 -33.66 -15.11 -33.66 -35.12 c
0 -20.94 15.11 -35.12 34.85 -35.12 c
9.81 0 17.9 3.71 22.8 8.62 c
0 23.85 -26.51 0 0 12.59 39.76 0 0 -40.42 p f
1740.15 700.47 0 -12.59 -30.48 0 0 -31.14 41.08 0 0 -12.59 -54.34 0 0 92.77 
53.02 0 0 -12.59 -39.76 0 0 -23.86 30.48 0 f
1799.79 712.26 0 -68.12 -13.26 0 0 92.77 9.28 0 55.66 -68.12 0 68.12 13.26 0 
0 -92.77 -9.28 0 -55.66 68.12 f
1908.32 667.34 m
5.44 -6.63 13.13 -11.93 22.67 -11.93 c
8.61 0 16.17 5.57 16.17 13.92 c
0 14.18 -19.62 15.77 -31.94 23.86 c
-6.63 4.37 -11.8 10.73 -11.8 20.41 c
0 13.52 11.93 24.65 28.1 24.65 c
11.79 0 20.01 -5.17 24.91 -9.28 c
-7.82 -9.68 p
-5.03 4.24 -10.73 6.36 -16.56 6.36 c
-7.69 0 -15.38 -4.37 -15.38 -12.46 c
0 -11.8 19.75 -14.31 31.68 -22.27 c
6.23 -4.11 12.06 -10.61 12.06 -21.2 c
0 -16.3 -12.59 -26.91 -28.76 -26.91 c
-12.72 0 -24.25 5.57 -32.47 15.51 c
9.14 9.01 p f
2029.59 656.73 m
8.35 0 12.32 1.86 15.24 4.77 c
2.65 2.78 4.37 6.63 4.37 10.87 c
0 4.24 -1.72 7.95 -4.37 10.73 c
-2.92 2.91 -6.89 4.77 -15.24 4.77 c
-20.15 0 0 -31.14 ^ h
2025.35 700.47 m
7.42 0 10.6 1.46 12.72 3.84 c
1.99 2.12 3.18 4.9 3.18 8.08 c
0 3.18 -1.19 5.96 -3.18 8.09 c
-2.12 2.39 -5.3 3.84 -12.72 3.84 c
-15.91 0 0 -23.86 ^ h
1996.19 644.14 0 92.77 31.54 0 P
9.01 0 14.71 -2.52 19.09 -6.49 c
4.77 -4.37 7.68 -10.73 7.68 -17.63 c
0 -6.36 -2.91 -12.46 -7.29 -16.57 c
8.75 -4.37 15.25 -13.92 15.25 -24.39 c
0 -8.61 -3.98 -16.43 -10.21 -21.47 c
-4.77 -3.98 -10.87 -6.23 -20.28 -6.23 c
-35.78 0 p f
2105.26 655.01 m
-5.96 6.5 -9.67 15.11 -9.67 27.57 c
0 54.34 13.25 0 0 -55 p
0 -8.75 2.12 -14.18 5.83 -18.29 c
4.64 -5.17 11.53 -8.22 19.35 -8.22 c
7.82 0 14.71 3.05 19.35 8.22 c
3.71 4.11 5.83 9.54 5.83 18.29 c
0 55 13.26 0 0 -54.34 p
0 -12.46 -3.71 -21.07 -9.68 -27.57 c
-7.02 -7.55 -17.36 -12.19 -28.76 -12.19 c
-11.4 0 -21.73 4.64 -28.76 12.19 c
f
2245.35 700.47 m
5.96 0 9.01 1.33 11.13 3.45 c
2.12 2.12 3.44 5.17 3.44 8.48 c
0 3.32 -1.32 6.36 -3.44 8.48 c
-2.12 2.12 -5.17 3.45 -11.13 3.45 c
-18.56 0 0 -23.86 ^ h
2226.79 687.88 0 -43.73 -13.25 0 0 92.77 32.47 0 P
8.48 0 13.78 -1.99 18.02 -5.43 c
5.57 -4.5 9.15 -11.4 9.15 -19.09 c
0 -7.69 -3.58 -14.58 -9.15 -19.08 c
-2.91 -2.39 -6.23 -4.11 -10.87 -4.91 c
33.27 -44.27 -16.03 0 -33.01 43.73 -10.6 0 p f
2390.47 660.05 m
-7.95 -10.07 -21.74 -17.23 -36.05 -17.23 c
-27.7 0 -48.11 20.28 -48.11 47.71 c
0 26.77 20.15 47.71 46.92 47.71 c
13.25 0 25.84 -5.43 33.92 -14.32 c
-8.87 -8.75 p
-5.44 5.96 -15.11 10.47 -25.05 10.47 c
-18.96 0 -33.67 -15.11 -33.67 -35.12 c
0 -20.94 15.11 -35.12 34.86 -35.12 c
9.81 0 17.89 3.71 22.8 8.62 c
0 23.85 -26.51 0 0 12.59 39.76 0 0 -40.42 p f
255 G
907.516 820.355 154.664 26.3086 re
f
841.18 646.809 26.5352 373.402 re
f
1101.98 646.809 26.5312 373.402 re
f
23 115 186 rG
176.65 43.96 0 -14.66 5.53 0 P
3.32 0 5.53 0.56 7.46 1.94 c
1.66 1.38 2.49 3.04 2.49 5.53 c
0 4.97 -3.04 7.19 -9.12 7.19 c
-6.36 0 h
170.29 1.38 0 48.66 11.06 0 P
5.53 0 9.68 -0.56 12.16 -2.21 c
3.87 -1.94 5.53 -5.53 5.53 -10.79 c
0 -3.03 -0.83 -5.52 -2.49 -7.46 c
-1.93 -1.93 -4.14 -3.32 -6.91 -3.87 c
1.94 -0.83 3.32 -2.49 4.43 -4.98 c
8.57 -19.35 -7.46 0 -6.91 16.87 p
-0.83 2.21 -1.94 3.59 -3.32 4.14 c
-0.83 0.55 -2.21 0.55 -4.14 0.55 c
-4.15 0 0 -21.56 -6.36 0 h
124.41 25.71 m
0 -5.25 1.1 -9.68 3.59 -13.27 c
2.77 -3.87 6.36 -5.81 11.34 -5.81 c
4.98 0 8.85 1.94 11.61 5.81 c
2.21 3.59 3.59 8.02 3.59 13.27 c
0 5.25 -1.38 9.67 -3.87 13.27 c
-2.77 3.87 -6.36 5.81 -11.34 5.81 c
-4.7 0 -8.57 -1.94 -11.34 -5.81 c
-2.49 -3.6 -3.59 -8.02 -3.59 -13.27 c
h
117.49 25.71 m
0 7.46 1.93 13.54 5.8 17.97 c
3.87 4.98 9.4 7.46 16.04 7.46 c
6.91 0 12.16 -2.48 16.31 -7.46 c
3.87 -4.43 5.8 -10.51 5.8 -17.97 c
0 -7.46 -1.93 -13.55 -5.8 -18.24 c
-4.15 -4.71 -9.4 -6.92 -16.31 -6.92 c
-6.64 0 -12.16 2.21 -16.04 6.92 c
-3.87 4.69 -5.8 10.78 -5.8 18.24 c
h
85.98 23.5 0 -16.59 4.98 0 P
7.46 0 11.06 2.77 11.06 8.02 c
0 5.8 -3.87 8.57 -11.61 8.57 c
-4.42 0 h
85.98 44.51 0 -15.21 3.59 0 P
3.87 0 6.64 0.28 8.29 1.11 c
2.21 1.38 3.59 3.6 3.59 6.63 c
0 4.98 -3.04 7.47 -8.57 7.47 c
-6.91 0 h
79.62 1.38 0 48.66 12.16 0 P
10.78 0 16.04 -3.87 16.04 -12.17 c
0 -6.08 -3.04 -9.95 -9.4 -11.61 c
0 -0.27 p
3.32 -0.28 5.8 -1.39 7.74 -3.6 c
1.94 -1.93 2.77 -4.7 2.77 -8.01 c
0 -8.85 -5.8 -13 -17.14 -13 c
-12.16 0 h
59.44 19.35 -9.12 24.33 -9.12 -24.33 18.25 0 H
27.64 1.38 19.63 48.66 6.64 0 19.35 -48.66 -7.19 0 -4.42 12.17 -22.39 0 -4.7 -12.17 
-6.91 0 H
0 1.38 0 48.66 6.64 0 0 -42.57 19.07 0 0 -6.09 -25.71 0 H
948.5 1.38 0 48.94 6.64 0 0 -21.57 19.63 21.57 8.85 0 -21.84 -23.23 23.5 -25.71 
-9.68 0 -20.46 23.78 0 -23.78 -6.64 0 H
929.7 1.38 0 48.66 6.64 0 ^ ^ H
882.16 1.38 0 48.66 8.84 0 20.46 -39.26 0 39.26 6.64 0 0 -48.66 -8.3 0 
-21.01 40.09 0 -40.09 -6.63 0 H
834.89 1.11 0 48.93 6.63 0 0 -20.46 21.84 0 ^ 6.63 0 0 -48.66 
-6.36 0 -0.28 22.12 -21.84 0 0 -22.39 -6.63 0 H
826.59 48.93 -0.55 -6.91 P
-3.04 1.94 -6.08 2.77 -9.68 2.77 c
-5.25 0 -9.4 -1.94 -12.71 -5.54 c
-3.32 -3.59 -4.98 -8.01 -4.98 -13.54 c
0 -5.8 1.94 -10.23 5.25 -13.82 c
3.32 -3.6 7.46 -5.26 12.16 -5.26 c
4.14 0 7.74 0.84 10.23 2.22 c
0.28 -6.64 p
-2.77 -1.1 -6.08 -1.94 -10.5 -1.94 c
-7.19 0 -13.27 2.49 -17.69 6.92 c
-4.43 4.7 -6.64 11.06 -6.64 18.8 c
0 7.46 2.21 13.26 6.91 17.97 c
4.43 4.7 10.51 6.91 17.42 6.91 c
3.87 0 7.46 -0.55 10.5 -1.94 c
h
757.75 1.11 0 48.93 25.98 0 0 -6.08 -19.35 0 0 -14.38 17.42 0 0 -6.08 
^ 0 -16.03 19.35 0 0 -6.36 -25.98 0 H
729.83 1.11 0 42.85 -14.1 0 0 6.08 35.11 0 ^ -14.37 0 0 -42.85 
-6.63 0 H
679.24 43.96 0 -36.77 6.91 0 P
11.89 0 17.69 6.36 17.69 18.52 c
0 5.53 -1.66 9.95 -4.7 13.27 c
-3.32 3.32 -7.19 4.98 -12.16 4.98 c
-7.74 0 h
672.61 1.11 0 48.93 13.82 0 P
6.91 0 12.71 -2.21 17.41 -6.36 c
4.7 -4.43 6.91 -10.23 6.91 -17.69 c
0 -8.02 -1.93 -14.1 -6.36 -18.52 c
-4.43 -4.15 -10.23 -6.36 -17.97 -6.36 c
-13.82 0 h
625.34 1.11 0 48.93 9.12 0 20.45 -39.26 0 39.26 6.64 0 0 -48.93 -8.57 0 
-21 40.08 0 -40.08 -6.64 0 H
613.72 50.04 0 -28.75 P
0 -6.64 -1.66 -11.89 -4.7 -15.49 c
-3.04 -3.87 -7.46 -5.53 -13.27 -5.53 c
-5.81 0 -10.23 1.66 -13.27 5.53 c
-3.04 3.6 -4.7 8.58 -4.7 15.49 c
0 28.75 6.64 0 0 -27.92 p
0 -10.51 3.87 -15.76 11.34 -15.76 c
7.46 0 11.34 5.25 11.34 15.76 c
0 27.92 6.63 0 h
543.78 23.22 0 -16.31 4.98 0 P
7.46 0 11.05 2.49 11.05 7.74 c
0 5.81 -3.87 8.57 -11.89 8.57 c
-4.14 0 h
543.78 44.23 0 -15.2 3.59 0 P
3.87 0 6.63 0.55 8.29 1.38 c
2.21 1.11 3.59 3.32 3.59 6.63 c
0 4.7 -3.04 7.19 -8.57 7.19 c
-6.91 0 h
537.14 1.11 0 48.93 12.44 0 P
10.78 0 16.03 -4.15 16.03 -12.44 c
0 -6.08 -3.04 -9.95 -9.39 -11.61 c
3.32 -0.28 5.8 -1.66 7.74 -3.6 c
1.94 -2.21 3.04 -4.97 3.04 -8.29 c
0 -8.57 -5.8 -12.99 -17.69 -12.99 c
-12.16 0 h
503.42 43.68 0 -14.65 5.53 0 P
3.04 0 5.53 0.55 7.46 1.93 c
1.66 1.38 2.49 3.32 2.49 5.53 c
0 4.98 -3.04 7.19 -9.12 7.19 c
-6.36 0 h
496.79 1.11 0 48.93 11.33 0 P
5.53 0 9.68 -0.83 12.16 -2.21 c
3.87 -2.22 5.53 -5.81 5.53 -11.06 c
0 -3.04 -0.83 -5.53 -2.49 -7.47 c
-1.93 -1.93 -4.14 -3.31 -6.91 -3.87 c
1.94 -0.83 3.32 -2.49 4.43 -4.97 c
8.84 -19.35 -7.46 0 -7.18 16.86 p
-0.83 2.21 -1.94 3.59 -3.32 4.15 c
-0.83 0.55 -2.21 0.55 -4.42 0.55 c
-3.87 0 0 -21.56 -6.63 0 h
460.84 1.11 0 48.93 25.71 0 0 -6.36 -19.07 0 0 -14.1 17.41 0 0 -6.36 
^ 0 -16.03 19.07 0 0 -6.08 -25.71 0 H
454.21 49.76 -17.7 -48.65 -8.29 0 -17.42 48.65 7.46 0 14.38 -42.57 14.65 42.57 6.91 0 H
382.33 43.68 0 -14.93 5.53 0 P
3.04 0 5.53 0.83 7.46 2.21 c
1.66 1.38 2.49 3.05 2.49 5.53 c
0 4.7 -3.04 7.19 -9.12 7.19 c
-6.36 0 h
375.7 1.11 0 48.65 11.33 0 P
5.53 0 9.68 -0.55 12.16 -2.21 c
3.87 -1.94 5.8 -5.53 5.8 -10.78 c
0 -3.04 -1.11 -5.53 -2.76 -7.47 c
-1.94 -1.93 -4.15 -3.31 -6.91 -3.87 c
1.94 -0.83 3.32 -2.49 4.43 -4.97 c
8.84 -19.35 -7.46 0 -7.19 16.86 p
-0.83 2.21 -1.93 3.59 -3.32 4.15 c
-0.83 0.27 -2.21 0.55 -4.42 0.55 c
-3.87 0 0 -21.56 -6.63 0 h
339.76 0.83 0 48.93 25.71 0 0 -6.08 -19.07 0 0 -14.38 17.41 0 0 -6.08 
^ 0 -16.03 19.07 0 0 -6.36 -25.71 0 H
328.15 48.93 -0.83 -6.36 P
-3.32 1.39 -6.08 1.94 -8.57 1.94 c
-5.53 0 -8.02 -2.21 -8.02 -6.64 c
0 -2.49 1.66 -4.7 4.98 -6.63 c
6.08 -3.32 9.13 -4.98 9.68 -5.53 c
3.32 -2.77 4.98 -6.36 4.98 -11.06 c
0 -4.97 -1.66 -8.57 -4.98 -11.05 c
-2.77 -2.49 -6.91 -3.6 -11.89 -3.6 c
-2.21 0 -5.53 0.83 -9.4 2.21 c
0.83 6.36 p
3.59 -1.66 6.64 -2.21 9.4 -2.21 c
2.21 0 4.43 0.55 6.08 1.66 c
1.94 1.66 3.04 3.59 3.04 6.36 c
0 2.76 -1.66 5.25 -5.25 7.46 c
-3.04 1.66 -6.36 3.32 -9.4 5.25 c
-3.59 2.49 -5.25 6.08 -5.25 10.23 c
0 4.15 1.38 7.47 4.43 9.95 c
2.48 2.21 6.08 3.32 10.5 3.32 c
3.32 0 6.63 -0.55 9.68 -1.66 c
h
285.85 19.07 -9.4 24.05 -9.12 -24.05 18.52 0 H
253.78 0.83 19.63 48.93 6.91 0 19.35 -48.93 -7.18 0 -4.7 12.44 -22.39 0 -4.7 -12.44 
-6.91 0 H
225.31 0.83 0 48.93 24.6 0 0 -6.08 -17.97 0 0 -14.38 17.14 0 0 -6.08 
^ 0 -22.39 -6.63 0 H
1006.01 1.11 58.33 0 0 169.46 ^ ^ H
811.66 66.9 58.06 0 0 103.67 ^ ^ H
879.95 83.21 116.11 0 0 58.33 ^ ^ H
908.7 151.77 58.05 0 0 116.38 ^ ^ H
976.98 181.07 115.83 0 0 58.05 ^ ^ H
713.8 151.77 58.34 0 0 116.11 ^ ^ H
782.08 180.8 116.39 0 0 58.05 ^ ^ H
1006.01 249.08 58.05 0 0 116.39 ^ ^ H
1074.29 278.39 116.11 0 0 58.05 ^ ^ H
811.66 249.08 58.06 0 0 116.11 ^ ^ H
879.95 278.11 116.11 0 0 58.05 ^ ^ H
908.7 346.67 58.05 0 0 116.11 ^ ^ H
976.98 375.7 276.17 0 0 58.05 ^ ^ H
714.07 346.39 58.06 0 0 116.11 ^ ^ H
782.08 375.42 116.39 0 0 58.05 ^ ^ H
0 66.9 0 366.58 73.54 0 0 -308.8 142.37 0 0 -57.78 -215.91 0 H
225.86 66.9 0 366.58 477.98 0 0 -57.78 -105.05 0 0 -308.8 -73.54 0 ^ 
-225.86 0 0 -90.4 123.85 0 0 -57.78 ^ 0 -160.62 -73.54 0 f*
cleartomark end end pagesave restore
 showpage
%%PageTrailer
%%Trailer
%%Pages: 1
