%!PS-Adobe-3.0 EPSF-3.0
%%BoundingBox: 0 0 426 125
%%HiResBoundingBox: 0.000000 0.000000 425.200000 124.800000
%.........................................
%%Creator: GPL Ghostscript 907 (epswrite)
%%CreationDate: 2016/02/11 21:01:02
%%DocumentData: Clean7Bit
%%LanguageLevel: 2
%%EndComments
%%BeginProlog
% This copyright applies to everything between here and the %%EndProlog:
% Copyright (C) 2012 Artifex Software, Inc.  All rights reserved.
%%BeginResource: procset GS_epswrite_2_0_1001 1.001 0
/GS_epswrite_2_0_1001 80 dict dup begin
/PageSize 2 array def/setpagesize{ PageSize aload pop 3 index eq exch
4 index eq and{ pop pop pop}{ PageSize dup  1
5 -1 roll put 0 4 -1 roll put dup null eq {false} {dup where} ifelse{ exch get exec}
{ pop/setpagedevice where
{ pop 1 dict dup /PageSize PageSize put setpagedevice}
{ /setpage where{ pop PageSize aload pop pageparams 3 {exch pop} repeat
setpage}if}ifelse}ifelse}ifelse} bind def
/!{bind def}bind def/#{load def}!/N/counttomark #
/rG{3{3 -1 roll 255 div}repeat setrgbcolor}!/G{255 div setgray}!/K{0 G}!
/r6{dup 3 -1 roll rG}!/r5{dup 3 1 roll rG}!/r3{dup rG}!
/w/setlinewidth #/J/setlinecap #
/j/setlinejoin #/M/setmiterlimit #/d/setdash #/i/setflat #
/m/moveto #/l/lineto #/c/rcurveto #
/p{N 2 idiv{N -2 roll rlineto}repeat}!
/P{N 0 gt{N -2 roll moveto p}if}!
/h{p closepath}!/H{P closepath}!
/lx{0 rlineto}!/ly{0 exch rlineto}!/v{0 0 6 2 roll c}!/y{2 copy c}!
/re{4 -2 roll m exch dup lx exch ly neg lx h}!
/^{3 index neg 3 index neg}!
/f{P fill}!/f*{P eofill}!/s{H stroke}!/S{P stroke}!
/q/gsave #/Q/grestore #/rf{re fill}!
/Y{P clip newpath}!/Y*{P eoclip newpath}!/rY{re Y}!
/|={pop exch 4 1 roll 1 array astore cvx 3 array astore cvx exch 1 index def exec}!
/|{exch string readstring |=}!
/+{dup type/nametype eq{2 index 7 add -3 bitshift 2 index mul}if}!
/@/currentfile #/${+ @ |}!
/B{{2 copy string{readstring pop}aload pop 4 array astore cvx
3 1 roll}repeat pop pop true}!
/Ix{[1 0 0 1 11 -2 roll exch neg exch neg]exch}!
/,{true exch Ix imagemask}!/If{false exch Ix imagemask}!/I{exch Ix image}!
/Ic{exch Ix false 3 colorimage}!
/F{/Columns counttomark 3 add -2 roll/Rows exch/K -1/BlackIs1 true>>
/CCITTFaxDecode filter}!/FX{<</EndOfBlock false F}!
/X{/ASCII85Decode filter}!/@X{@ X}!/&2{2 index 2 index}!
/@F{@ &2<<F}!/@C{@X &2 FX}!
/$X{+ @X |}!/&4{4 index 4 index}!/$F{+ @ &4<<F |}!/$C{+ @X &4 FX |}!
/IC{3 1 roll 10 dict begin 1{/ImageType/Interpolate/Decode/DataSource
/ImageMatrix/BitsPerComponent/Height/Width}{exch def}forall
currentdict end image}!
/~{@ read {pop} if}!
end def
%%EndResource
/pagesave null def
%%EndProlog
%%Page: 1 1
%%BeginPageSetup
GS_epswrite_2_0_1001 begin
/pagesave save store 197 dict begin
0.1 0.1 scale
%%EndPageSetup
gsave mark
Q q
0 0 4251.97 1247.24 re
Y
255 G
0 0 4251.97 1247.24 re
f
35 31 32 rG
0 623.723 1245.85 623.516 re
f
255 G
521.211 1096.18 246.238 26.3594 re
f
631.152 748.426 26.3555 308.219 re
f
901.617 922.305 153.633 26.3555 re
f
835.723 748.426 26.3594 374.113 re
f
1094.79 748.426 26.3516 374.113 re
f
457.24 1053.01 -18.82 -18.82 P
21.29 -27.26 34.03 -61.52 34.03 -98.71 c
0 -88.61 -72.09 -160.7 -160.7 -160.7 c
-37.2 0 -71.45 12.74 -98.71 34.03 c
-18.82 -18.82 p
32.13 -25.98 73 -41.57 117.53 -41.57 c
103.31 0 187.05 83.75 187.05 187.05 c
0 44.53 -15.59 85.41 -41.57 117.53 c
f
185.09 836.77 m
-21.29 27.26 -34.03 61.52 -34.03 98.71 c
0 88.61 72.09 160.7 160.7 160.7 c
37.2 0 71.45 -12.74 98.71 -34.03 c
18.82 18.82 p
-32.12 25.98 -72.99 41.57 -117.53 41.57 c
-103.31 0 -187.05 -83.75 -187.05 -187.05 c
0 -44.53 15.59 -85.41 41.57 -117.53 c
18.82 18.82 p f
35 31 32 rG
1419.24 1041.55 m
18.82 0 32.91 14.88 32.91 34.89 c
0 19.88 -14.09 34.89 -32.91 34.89 c
-18.83 0 -32.92 -15.01 -32.92 -34.89 c
0 -20.01 14.09 -34.89 32.92 -34.89 c
h
1419.24 1123.83 m
26.06 0 46.08 -20.54 46.08 -47.39 c
0 -26.86 -20.02 -47.39 -46.08 -47.39 c
-26.07 0 -46.08 20.54 -46.08 47.39 c
0 26.86 20.01 47.39 46.08 47.39 c
f
1500.73 1053.39 m
5.39 -6.58 13.03 -11.85 22.51 -11.85 c
8.56 0 16.06 5.53 16.06 13.82 c
0 14.08 -19.48 15.66 -31.73 23.7 c
-6.58 4.34 -11.72 10.66 -11.72 20.28 c
0 13.43 11.86 24.48 27.91 24.48 c
11.72 0 19.89 -5.13 24.76 -9.21 c
-7.77 -9.61 p
-5 4.21 -10.66 6.32 -16.46 6.32 c
-7.63 0 -15.27 -4.35 -15.27 -12.38 c
0 -11.71 19.62 -14.21 31.47 -22.12 c
6.18 -4.08 11.98 -10.53 11.98 -21.06 c
0 -16.2 -12.51 -26.73 -28.57 -26.73 c
-12.64 0 -24.1 5.53 -32.26 15.4 c
9.09 8.95 p f
1575.5 1122.52 63.2 0 0 -12.51 -25.02 0 0 -79.65 -13.16 0 ^ -25.02 0 
0 12.51 f
1704.13 1042.86 m
8.29 0 12.24 1.84 15.14 4.74 c
2.63 2.76 4.34 6.58 4.34 10.8 c
0 4.21 -1.71 7.9 -4.34 10.66 c
-2.9 2.89 -6.85 4.74 -15.14 4.74 c
-20.02 0 0 -30.94 ^ h
1699.91 1086.31 m
7.38 0 10.54 1.45 12.64 3.82 c
1.98 2.11 3.16 4.88 3.16 8.03 c
0 3.16 -1.18 5.93 -3.16 8.03 c
-2.1 2.37 -5.26 3.82 -12.64 3.82 c
-15.8 0 0 -23.7 ^ h
1670.95 1030.36 0 92.16 31.33 0 P
8.96 0 14.62 -2.5 18.96 -6.45 c
4.74 -4.34 7.64 -10.66 7.64 -17.51 c
0 -6.32 -2.9 -12.37 -7.24 -16.46 c
8.69 -4.34 15.14 -13.82 15.14 -24.22 c
0 -8.56 -3.95 -16.32 -10.14 -21.33 c
-4.74 -3.95 -10.8 -6.19 -20.14 -6.19 c
-35.55 0 p f
1787.73 1066.56 28.43 0 -14.21 34.23 -14.22 -34.23 H
1821.3 1054.05 -38.84 0 -9.61 -23.7 -13.69 0 38.18 92.16 9.22 0 38.17 -92.16 -13.69 0 
-9.74 23.7 f
1899.37 1072.48 0 -42.13 -13.17 0 ^ -31.59 50.03 14.74 0 23.44 -37 23.43 37 
14.75 0 -31.6 -50.03 f
2006.01 1086.31 0 -12.51 -30.29 0 0 -30.94 40.82 0 0 -12.5 -53.98 0 0 92.16 
52.66 0 0 -12.51 -39.5 0 0 -23.7 30.29 0 f
2083.68 1086.31 m
5.92 0 8.95 1.32 11.06 3.42 c
2.11 2.11 3.42 5.14 3.42 8.43 c
0 3.29 -1.31 6.32 -3.42 8.43 c
-2.11 2.11 -5.14 3.43 -11.06 3.43 c
-18.43 0 0 -23.7 ^ h
2065.25 1073.8 0 -43.45 -13.17 0 0 92.16 32.26 0 P
8.42 0 13.69 -1.98 17.9 -5.4 c
5.53 -4.48 9.09 -11.32 9.09 -18.96 c
0 -7.64 -3.56 -14.48 -9.09 -18.96 c
-2.89 -2.37 -6.19 -4.08 -10.79 -4.87 c
33.04 -43.97 -15.93 0 -32.78 43.45 -10.53 0 p f
2154.77 1030.36 13.1719 92.1602 re
f
2211.25 1053.39 m
5.4 -6.58 13.03 -11.85 22.51 -11.85 c
8.56 0 16.07 5.53 16.07 13.82 c
0 14.08 -19.49 15.66 -31.73 23.7 c
-6.58 4.34 -11.72 10.66 -11.72 20.28 c
0 13.43 11.85 24.48 27.91 24.48 c
11.72 0 19.88 -5.13 24.75 -9.21 c
-7.77 -9.61 p
-5 4.21 -10.66 6.32 -16.45 6.32 c
-7.64 0 -15.27 -4.35 -15.27 -12.38 c
0 -11.71 19.61 -14.21 31.46 -22.12 c
6.19 -4.08 11.98 -10.53 11.98 -21.06 c
0 -16.2 -12.51 -26.73 -28.57 -26.73 c
-12.64 0 -24.09 5.53 -32.25 15.4 c
9.08 8.95 p f
2337.9 1123.83 m
13.17 0 25.67 -5.39 33.7 -14.21 c
-8.81 -8.69 p
-5.41 5.93 -15.01 10.4 -24.89 10.4 c
-18.83 0 -33.44 -15.01 -33.44 -34.89 c
0 -20.8 15.01 -34.89 34.63 -34.89 c
12.37 0 21.32 6.84 26.46 13.03 c
9.35 -8.43 p
-7.9 -10.14 -21.59 -17.11 -35.81 -17.11 c
-27.52 0 -47.8 20.14 -47.8 47.39 c
0 26.59 20.02 47.39 46.61 47.39 c
f
2472.31 1073.8 -51.34 0 0 -43.45 -13.17 0 0 92.16 ^ 0 -36.21 51.34 0 
^ 13.17 0 0 -92.16 ^ 0 43.45 f
2571.05 1086.31 0 -12.51 -30.28 0 0 -30.94 40.82 0 0 -12.5 -53.99 0 0 92.16 
52.67 0 0 -12.51 -39.5 0 0 -23.7 30.28 0 f
1370.52 981.56 63.2 0 0 -12.51 -25.02 0 0 -79.65 -13.16 0 ^ -25.02 0 
0 12.51 f
1509.42 945.35 0 -12.51 -30.29 0 0 -30.94 40.82 0 0 -12.5 -53.98 0 0 92.16 
52.66 0 0 -12.51 -39.5 0 0 -23.7 30.29 0 f
1592.22 982.87 m
13.17 0 25.68 -5.39 33.71 -14.21 c
-8.82 -8.69 p
-5.4 5.93 -15.01 10.4 -24.89 10.4 c
-18.82 0 -33.44 -15.01 -33.44 -34.89 c
0 -20.8 15.01 -34.89 34.63 -34.89 c
12.38 0 21.33 6.84 26.46 13.03 c
9.35 -8.43 p
-7.9 -10.14 -21.59 -17.11 -35.81 -17.11 c
-27.52 0 -47.79 20.14 -47.79 47.39 c
0 26.59 20.01 47.39 46.6 47.39 c
f
1726.64 932.84 -51.35 0 0 -43.45 -13.16 0 0 92.16 ^ 0 -36.21 51.35 0 
^ 13.16 0 0 -92.16 ^ 0 43.45 f
1795.09 957.07 0 -67.67 -13.16 0 0 92.16 9.21 0 55.3 -67.67 0 67.67 13.17 0 
0 -92.16 -9.22 0 -55.3 67.67 f
1901.73 889.398 13.168 92.1602 re
f
1958.21 912.44 m
5.4 -6.58 13.03 -11.85 22.51 -11.85 c
8.56 0 16.06 5.53 16.06 13.82 c
0 14.08 -19.48 15.66 -31.72 23.7 c
-6.59 4.34 -11.72 10.66 -11.72 20.28 c
0 13.43 11.85 24.48 27.91 24.48 c
11.72 0 19.88 -5.13 24.75 -9.21 c
-7.77 -9.61 p
-5 4.21 -10.66 6.32 -16.45 6.32 c
-7.64 0 -15.28 -4.35 -15.28 -12.38 c
0 -11.71 19.62 -14.21 31.47 -22.12 c
6.19 -4.08 11.98 -10.53 11.98 -21.06 c
0 -16.2 -12.51 -26.73 -28.57 -26.73 c
-12.64 0 -24.09 5.53 -32.26 15.4 c
9.09 8.95 p f
2084.86 982.87 m
13.16 0 25.67 -5.39 33.7 -14.21 c
-8.82 -8.69 p
-5.4 5.93 -15.01 10.4 -24.88 10.4 c
-18.83 0 -33.44 -15.01 -33.44 -34.89 c
0 -20.8 15.01 -34.89 34.62 -34.89 c
12.38 0 21.33 6.84 26.47 13.03 c
9.34 -8.43 p
-7.9 -10.14 -21.59 -17.11 -35.81 -17.11 c
-27.51 0 -47.79 20.14 -47.79 47.39 c
0 26.59 20.01 47.39 46.61 47.39 c
f
2219.27 932.84 -51.34 0 0 -43.45 -13.17 0 0 92.16 ^ 0 -36.21 51.34 0 
^ 13.17 0 0 -92.16 ^ 0 43.45 f
2318.01 945.35 0 -12.51 -30.28 0 0 -30.94 40.82 0 0 -12.5 -53.99 0 0 92.16 
52.67 0 0 -12.51 -39.5 0 0 -23.7 30.28 0 f
2482.57 932.84 -51.34 0 0 -43.45 -13.17 0 0 92.16 ^ 0 -36.21 51.34 0 
^ 13.17 0 0 -92.16 ^ 0 43.45 f
2576.7 900.59 m
18.83 0 32.92 14.88 32.92 34.89 c
0 19.88 -14.09 34.89 -32.92 34.89 c
-18.82 0 -32.91 -15.01 -32.91 -34.89 c
0 -20.01 14.09 -34.89 32.91 -34.89 c
h
2576.7 982.87 m
26.07 0 46.08 -20.54 46.08 -47.39 c
0 -26.86 -20.01 -47.39 -46.08 -47.39 c
-26.06 0 -46.08 20.54 -46.08 47.39 c
0 26.86 20.02 47.39 46.08 47.39 c
f
2699.66 982.87 m
13.17 0 25.68 -5.39 33.71 -14.21 c
-8.82 -8.69 p
-5.4 5.93 -15.01 10.4 -24.89 10.4 c
-18.82 0 -33.44 -15.01 -33.44 -34.89 c
0 -20.8 15.01 -34.89 34.63 -34.89 c
12.38 0 21.33 6.84 26.46 13.03 c
9.35 -8.43 p
-7.9 -10.14 -21.59 -17.11 -35.81 -17.11 c
-27.52 0 -47.79 20.14 -47.79 47.39 c
0 26.59 20.01 47.39 46.6 47.39 c
f
2834.08 932.84 -51.35 0 0 -43.45 -13.16 0 0 92.16 ^ 0 -36.21 51.35 0 
^ 13.16 0 0 -92.16 ^ 0 43.45 f
2890.55 912.44 m
5.4 -6.58 13.04 -11.85 22.52 -11.85 c
8.55 0 16.06 5.53 16.06 13.82 c
0 14.08 -19.49 15.66 -31.73 23.7 c
-6.58 4.34 -11.72 10.66 -11.72 20.28 c
0 13.43 11.85 24.48 27.91 24.48 c
11.72 0 19.88 -5.13 24.76 -9.21 c
-7.77 -9.61 p
-5 4.21 -10.67 6.32 -16.46 6.32 c
-7.64 0 -15.27 -4.35 -15.27 -12.38 c
0 -11.71 19.61 -14.21 31.47 -22.12 c
6.18 -4.08 11.98 -10.53 11.98 -21.06 c
0 -16.2 -12.51 -26.73 -28.58 -26.73 c
-12.63 0 -24.09 5.53 -32.25 15.4 c
9.08 8.95 p f
3017.2 982.87 m
13.17 0 25.68 -5.39 33.71 -14.21 c
-8.82 -8.69 p
-5.4 5.93 -15.01 10.4 -24.89 10.4 c
-18.83 0 -33.44 -15.01 -33.44 -34.89 c
0 -20.8 15.01 -34.89 34.63 -34.89 c
12.37 0 21.33 6.84 26.46 13.03 c
9.35 -8.43 p
-7.9 -10.14 -21.59 -17.11 -35.81 -17.11 c
-27.52 0 -47.79 20.14 -47.79 47.39 c
0 26.59 20.01 47.39 46.6 47.39 c
f
3151.62 932.84 -51.35 0 0 -43.45 -13.17 0 0 92.16 ^ 0 -36.21 51.35 0 
^ 13.16 0 0 -92.16 ^ 0 43.45 f
3215.2 900.19 m
-5.92 6.45 -9.61 15.01 -9.61 27.39 c
0 53.98 13.17 0 0 -54.64 p
0 -8.69 2.1 -14.09 5.79 -18.17 c
4.61 -5.13 11.45 -8.16 19.22 -8.16 c
7.77 0 14.61 3.03 19.22 8.16 c
3.69 4.08 5.8 9.48 5.8 18.17 c
0 54.64 13.16 0 0 -53.98 p
0 -12.37 -3.68 -20.93 -9.61 -27.39 c
-6.98 -7.5 -17.25 -12.11 -28.57 -12.11 c
-11.32 0 -21.59 4.61 -28.57 12.11 c
f
3335.92 901.9 40.82 0 0 -12.5 -53.98 0 0 92.16 13.16 0 0 -79.66 f
3453.09 945.35 0 -12.51 -30.28 0 0 -30.94 40.82 0 0 -12.5 -53.99 0 0 92.16 
52.67 0 0 -12.51 -39.5 0 0 -23.7 30.28 0 f
1412 804.4 m
5.92 0 8.95 1.32 11.05 3.42 c
2.11 2.11 3.43 5.13 3.43 8.43 c
0 3.29 -1.32 6.32 -3.43 8.43 c
-2.1 2.11 -5.13 3.43 -11.05 3.43 c
-18.44 0 0 -23.7 ^ h
1393.56 791.89 0 -43.45 -13.16 0 0 92.16 32.25 0 P
8.43 0 13.69 -1.98 17.91 -5.4 c
5.53 -4.47 9.08 -11.32 9.08 -18.96 c
0 -7.64 -3.55 -14.48 -9.08 -18.96 c
-2.9 -2.37 -6.19 -4.08 -10.8 -4.87 c
33.05 -43.98 -15.93 0 -32.78 43.45 -10.54 0 p f
1526.53 804.4 0 -12.51 -30.28 0 0 -30.94 40.82 0 0 -12.51 -53.99 0 0 92.16 
52.67 0 0 -12.5 -39.5 0 0 -23.7 30.28 0 f
1646.34 764.24 m
-7.9 -10 -21.59 -17.12 -35.81 -17.12 c
-27.52 0 -47.8 20.14 -47.8 47.4 c
0 26.59 20.02 47.39 46.61 47.39 c
13.17 0 25.67 -5.39 33.7 -14.22 c
-8.81 -8.69 p
-5.41 5.92 -15.01 10.4 -24.89 10.4 c
-18.83 0 -33.44 -15.01 -33.44 -34.89 c
0 -20.8 15.01 -34.89 34.63 -34.89 c
9.74 0 17.77 3.69 22.64 8.56 c
0 23.7 -26.33 0 0 12.51 39.5 0 0 -40.16 p f
1728.62 804.4 0 -12.51 -30.29 0 0 -30.94 40.82 0 0 -12.51 -53.98 0 0 92.16 
52.66 0 0 -12.5 -39.5 0 0 -23.7 30.29 0 f
1787.86 816.11 0 -67.67 -13.17 0 0 92.16 9.22 0 55.29 -67.67 0 67.67 13.17 0 
0 -92.16 -9.22 0 -55.29 67.67 f
1895.68 771.48 m
5.4 -6.58 13.03 -11.85 22.51 -11.85 c
8.56 0 16.06 5.53 16.06 13.82 c
0 14.09 -19.48 15.67 -31.72 23.7 c
-6.59 4.34 -11.72 10.66 -11.72 20.27 c
0 13.43 11.85 24.49 27.91 24.49 c
11.72 0 19.88 -5.14 24.75 -9.21 c
-7.77 -9.61 p
-5 4.21 -10.66 6.32 -16.45 6.32 c
-7.64 0 -15.28 -4.34 -15.28 -12.37 c
0 -11.72 19.62 -14.22 31.47 -22.12 c
6.19 -4.08 11.98 -10.54 11.98 -21.06 c
0 -16.2 -12.51 -26.73 -28.57 -26.73 c
-12.64 0 -24.09 5.53 -32.26 15.41 c
9.09 8.95 p f
2016.14 760.95 m
8.29 0 12.24 1.84 15.14 4.74 c
2.63 2.77 4.34 6.58 4.34 10.8 c
0 4.21 -1.71 7.9 -4.34 10.66 c
-2.9 2.9 -6.85 4.74 -15.14 4.74 c
-20.01 0 0 -30.94 ^ h
2011.93 804.4 m
7.37 0 10.53 1.45 12.64 3.82 c
1.97 2.11 3.16 4.87 3.16 8.03 c
0 3.16 -1.19 5.93 -3.16 8.03 c
-2.11 2.37 -5.27 3.82 -12.64 3.82 c
-15.8 0 0 -23.7 ^ h
1982.96 748.44 0 92.16 31.34 0 P
8.95 0 14.61 -2.5 18.96 -6.45 c
4.74 -4.34 7.63 -10.66 7.63 -17.51 c
0 -6.32 -2.89 -12.37 -7.24 -16.46 c
8.69 -4.34 15.14 -13.82 15.14 -24.23 c
0 -8.55 -3.95 -16.32 -10.14 -21.33 c
-4.74 -3.95 -10.79 -6.19 -20.14 -6.19 c
-35.55 0 p f
2091.31 759.24 m
-5.92 6.45 -9.61 15.01 -9.61 27.38 c
0 53.98 13.17 0 0 -54.64 p
0 -8.69 2.1 -14.09 5.79 -18.17 c
4.61 -5.13 11.45 -8.16 19.22 -8.16 c
7.77 0 14.61 3.03 19.22 8.16 c
3.69 4.08 5.8 9.48 5.8 18.17 c
0 54.64 13.16 0 0 -53.98 p
0 -12.37 -3.68 -20.93 -9.61 -27.38 c
-6.98 -7.5 -17.24 -12.11 -28.57 -12.11 c
-11.32 0 -21.59 4.61 -28.57 12.11 c
f
2230.47 804.4 m
5.92 0 8.95 1.32 11.06 3.42 c
2.11 2.11 3.42 5.13 3.42 8.43 c
0 3.29 -1.31 6.32 -3.42 8.43 c
-2.11 2.11 -5.14 3.43 -11.06 3.43 c
-18.43 0 0 -23.7 ^ h
2212.04 791.89 0 -43.45 -13.17 0 0 92.16 32.26 0 P
8.43 0 13.69 -1.98 17.9 -5.4 c
5.53 -4.47 9.09 -11.32 9.09 -18.96 c
0 -7.64 -3.56 -14.48 -9.09 -18.96 c
-2.89 -2.37 -6.19 -4.08 -10.79 -4.87 c
33.04 -43.98 -15.93 0 -32.78 43.45 -10.53 0 p f
2374.63 764.24 m
-7.9 -10 -21.59 -17.12 -35.81 -17.12 c
-27.52 0 -47.79 20.14 -47.79 47.4 c
0 26.59 20.01 47.39 46.61 47.39 c
13.16 0 25.67 -5.39 33.7 -14.22 c
-8.82 -8.69 p
-5.4 5.92 -15.01 10.4 -24.88 10.4 c
-18.83 0 -33.44 -15.01 -33.44 -34.89 c
0 -20.8 15 -34.89 34.62 -34.89 c
9.75 0 17.78 3.69 22.65 8.56 c
0 23.7 -26.33 0 0 12.51 39.49 0 0 -40.16 p f
0 0 1245.85 66.1797 re
f
1419.77 500.4 m
13.17 0 25.68 -5.4 33.71 -14.22 c
-8.82 -8.69 p
-5.4 5.93 -15.01 10.41 -24.89 10.41 c
-18.83 0 -33.44 -15.02 -33.44 -34.9 c
0 -20.8 15 -34.9 34.63 -34.9 c
12.38 0 21.33 6.85 26.46 13.04 c
9.35 -8.43 p
-7.9 -10.14 -21.59 -17.12 -35.81 -17.12 c
-27.53 0 -47.8 20.15 -47.8 47.41 c
0 26.6 20.01 47.41 46.61 47.41 c
f
1527.2 418.09 m
18.83 0 32.92 14.88 32.92 34.9 c
0 19.88 -14.09 34.9 -32.92 34.9 c
-18.83 0 -32.92 -15.02 -32.92 -34.9 c
0 -20.02 14.09 -34.9 32.92 -34.9 c
h
1527.2 500.4 m
26.08 0 46.09 -20.54 46.09 -47.41 c
0 -26.86 -20.01 -47.41 -46.09 -47.41 c
-26.07 0 -46.08 20.54 -46.08 47.41 c
0 26.86 20.01 47.41 46.08 47.41 c
f
1657.53 426.65 -9.21 0 -27 42.27 0 -62.02 -13.17 0 0 92.18 9.22 0 35.56 -56.23 
35.55 56.23 9.22 0 0 -92.18 -13.17 0 0 62.02 -27 -42.27 f
1772.99 419.41 m
8.3 0 12.25 1.84 15.15 4.74 c
2.63 2.77 4.34 6.58 4.34 10.8 c
0 4.21 -1.71 7.9 -4.34 10.67 c
-2.9 2.9 -6.85 4.74 -15.15 4.74 c
-20.01 0 0 -30.95 ^ h
1768.78 462.87 m
7.37 0 10.53 1.45 12.64 3.82 c
1.98 2.11 3.16 4.88 3.16 8.03 c
0 3.16 -1.18 5.93 -3.16 8.04 c
-2.11 2.37 -5.27 3.82 -12.64 3.82 c
-15.8 0 0 -23.7 ^ h
1739.81 406.9 0 92.18 31.34 0 P
8.95 0 14.61 -2.5 18.96 -6.45 c
4.74 -4.35 7.64 -10.67 7.64 -17.52 c
0 -6.32 -2.9 -12.38 -7.25 -16.46 c
8.7 -4.35 15.15 -13.83 15.15 -24.23 c
0 -8.56 -3.95 -16.33 -10.14 -21.33 c
-4.74 -3.95 -10.8 -6.19 -20.15 -6.19 c
-35.55 0 p f
1848.16 417.7 m
-5.92 6.45 -9.61 15.02 -9.61 27.39 c
0 53.99 13.16 0 0 -54.65 p
0 -8.69 2.11 -14.09 5.8 -18.18 c
4.61 -5.13 11.46 -8.16 19.22 -8.16 c
7.77 0 14.62 3.04 19.23 8.16 c
3.69 4.08 5.8 9.48 5.8 18.18 c
0 54.65 13.16 0 0 -53.99 p
0 -12.37 -3.69 -20.94 -9.61 -27.39 c
-6.98 -7.5 -17.25 -12.11 -28.58 -12.11 c
-11.32 0 -21.59 4.61 -28.57 12.11 c
f
1954.93 429.95 m
5.4 -6.59 13.04 -11.86 22.52 -11.86 c
8.56 0 16.07 5.54 16.07 13.83 c
0 14.09 -19.49 15.67 -31.74 23.7 c
-6.58 4.34 -11.72 10.67 -11.72 20.28 c
0 13.43 11.85 24.49 27.91 24.49 c
11.73 0 19.89 -5.14 24.77 -9.22 c
-7.78 -9.61 p
-5 4.21 -10.66 6.32 -16.46 6.32 c
-7.64 0 -15.28 -4.35 -15.28 -12.38 c
0 -11.72 19.62 -14.22 31.48 -22.12 c
6.19 -4.08 11.98 -10.54 11.98 -21.07 c
0 -16.2 -12.51 -26.73 -28.57 -26.73 c
-12.65 0 -24.1 5.53 -32.27 15.41 c
9.09 8.95 p f
2029.71 499.08 63.2 0 0 -12.51 -25.02 0 0 -79.67 -13.16 0 ^ -25.02 0 
0 12.51 f
2125.16 406.902 13.1602 92.1797 re
f
2219.3 418.09 m
18.83 0 32.92 14.88 32.92 34.9 c
0 19.88 -14.09 34.9 -32.92 34.9 c
-18.84 0 -32.92 -15.02 -32.92 -34.9 c
0 -20.02 14.08 -34.9 32.92 -34.9 c
h
2219.3 500.4 m
26.07 0 46.08 -20.54 46.08 -47.41 c
0 -26.86 -20.01 -47.41 -46.08 -47.41 c
-26.08 0 -46.09 20.54 -46.09 47.41 c
0 26.86 20.01 47.41 46.09 47.41 c
f
2313.42 474.59 0 -67.69 -13.17 0 0 92.18 9.21 0 55.32 -67.69 0 67.69 13.16 0 
0 -92.18 -9.22 0 -55.3 67.69 f
2517.48 462.87 0 -12.51 -30.28 0 0 -30.95 40.82 0 0 -12.51 -53.98 0 0 92.18 
52.66 0 0 -12.51 -39.5 0 0 -23.7 30.28 0 f
2576.73 474.59 0 -67.69 -13.16 0 0 92.18 9.22 0 55.3 -67.69 0 67.69 13.16 0 
0 -92.18 -9.22 0 -55.3 67.69 f
2759.74 422.7 m
-7.91 -10 -21.6 -17.12 -35.82 -17.12 c
-27.52 0 -47.8 20.15 -47.8 47.41 c
0 26.6 20.01 47.41 46.61 47.41 c
13.17 0 25.68 -5.4 33.71 -14.22 c
-8.82 -8.69 p
-5.4 5.93 -15.01 10.41 -24.89 10.41 c
-18.83 0 -33.45 -15.02 -33.45 -34.9 c
0 -20.8 15.02 -34.9 34.64 -34.9 c
9.74 0 17.77 3.69 22.64 8.56 c
0 23.71 -26.33 0 0 12.51 39.51 0 0 -40.17 p f
2798.55 406.902 13.1602 92.1797 re
f
2867 474.59 0 -67.69 -13.16 0 0 92.18 9.22 0 55.3 -67.69 0 67.69 13.17 0 
0 -92.18 -9.22 0 -55.31 67.69 f
3017.09 462.87 0 -12.51 -30.28 0 0 -30.95 40.82 0 0 -12.51 -53.99 0 0 92.18 
52.67 0 0 -12.51 -39.5 0 0 -23.7 30.28 0 f
3064.35 429.95 m
5.4 -6.59 13.03 -11.86 22.52 -11.86 c
8.55 0 16.06 5.54 16.06 13.83 c
0 14.09 -19.49 15.67 -31.74 23.7 c
-6.58 4.34 -11.72 10.67 -11.72 20.28 c
0 13.43 11.86 24.49 27.92 24.49 c
11.72 0 19.89 -5.14 24.76 -9.22 c
-7.77 -9.61 p
-5 4.21 -10.67 6.32 -16.46 6.32 c
-7.63 0 -15.28 -4.35 -15.28 -12.38 c
0 -11.72 19.63 -14.22 31.47 -22.12 c
6.19 -4.08 11.99 -10.54 11.99 -21.07 c
0 -16.2 -12.51 -26.73 -28.58 -26.73 c
-12.64 0 -24.09 5.53 -32.25 15.41 c
9.08 8.95 p f
3220.37 443.11 28.44 0 -14.22 34.24 -14.22 -34.24 H
3253.95 430.61 -38.85 0 -9.61 -23.7 -13.7 0 38.19 92.18 9.22 0 38.18 -92.18 -13.69 0 
-9.74 23.7 f
3321.47 474.59 0 -67.69 -13.17 0 0 92.18 9.21 0 55.31 -67.69 0 67.69 13.17 0 
0 -92.18 -9.22 0 -55.3 67.69 f
3481.44 478.8 m
-5.8 5.01 -13.44 7.77 -26.34 7.77 c
-13.83 0 0 -67.16 ^ p
12.9 0 20.54 2.76 26.34 7.77 c
6.97 6.19 11.19 15.54 11.19 25.81 c
0 10.27 -4.22 19.62 -11.19 25.81 c
h
3428.11 406.9 0 92.18 27.64 0 P
14.62 0 24.11 -3.16 31.62 -8.69 c
11.31 -8.43 18.42 -22.12 18.42 -37.4 c
0 -15.27 -6.97 -28.97 -18.3 -37.4 c
-7.51 -5.53 -17.12 -8.69 -31.74 -8.69 c
-27.64 0 p f
1423.85 321.92 0 -12.51 -30.28 0 0 -30.95 40.82 0 0 -12.51 -53.99 0 0 92.18 
52.67 0 0 -12.51 -39.5 0 0 -23.7 30.28 0 f
1519.3 285.71 -9.22 0 -26.99 42.27 0 -62.02 -13.17 0 0 92.18 9.22 0 35.55 -56.23 
35.56 56.23 9.21 0 0 -92.18 -13.16 0 0 62.02 -27 -42.27 f
1601.56 265.949 13.1719 92.1797 re
f
1658.04 289 m
5.4 -6.58 13.04 -11.86 22.52 -11.86 c
8.56 0 16.07 5.54 16.07 13.83 c
0 14.09 -19.49 15.68 -31.74 23.7 c
-6.58 4.34 -11.72 10.66 -11.72 20.28 c
0 13.43 11.85 24.49 27.92 24.49 c
11.72 0 19.88 -5.14 24.76 -9.22 c
-7.78 -9.61 p
-5 4.21 -10.66 6.32 -16.46 6.32 c
-7.63 0 -15.27 -4.35 -15.27 -12.38 c
0 -11.72 19.62 -14.22 31.47 -22.12 c
6.19 -4.08 11.99 -10.54 11.99 -21.07 c
0 -16.19 -12.51 -26.73 -28.58 -26.73 c
-12.64 0 -24.1 5.54 -32.26 15.41 c
9.08 8.95 p f
1745.2 289 m
5.4 -6.58 13.03 -11.86 22.52 -11.86 c
8.56 0 16.06 5.54 16.06 13.83 c
0 14.09 -19.49 15.68 -31.74 23.7 c
-6.58 4.34 -11.72 10.66 -11.72 20.28 c
0 13.43 11.85 24.49 27.92 24.49 c
11.72 0 19.89 -5.14 24.76 -9.22 c
-7.77 -9.61 p
-5 4.21 -10.67 6.32 -16.46 6.32 c
-7.64 0 -15.28 -4.35 -15.28 -12.38 c
0 -11.72 19.62 -14.22 31.47 -22.12 c
6.19 -4.08 11.99 -10.54 11.99 -21.07 c
0 -16.19 -12.51 -26.73 -28.58 -26.73 c
-12.64 0 -24.1 5.54 -32.26 15.41 c
9.09 8.95 p f
1832.48 265.949 13.1797 92.1797 re
f
1926.62 277.14 m
18.84 0 32.92 14.88 32.92 34.91 c
0 19.88 -14.08 34.89 -32.92 34.89 c
-18.83 0 -32.92 -15.01 -32.92 -34.89 c
0 -20.02 14.09 -34.91 32.92 -34.91 c
h
1926.62 359.45 m
26.08 0 46.1 -20.55 46.1 -47.4 c
0 -26.87 -20.02 -47.41 -46.1 -47.41 c
-26.07 0 -46.08 20.55 -46.08 47.41 c
0 26.85 20.01 47.4 46.08 47.4 c
f
2020.74 333.64 0 -67.69 -13.16 0 0 92.18 9.22 0 55.3 -67.69 0 67.69 13.18 0 
0 -92.18 -9.22 0 -55.32 67.69 f
2128.58 289 m
5.4 -6.58 13.03 -11.86 22.52 -11.86 c
8.55 0 16.06 5.54 16.06 13.83 c
0 14.09 -19.49 15.68 -31.74 23.7 c
-6.58 4.34 -11.72 10.66 -11.72 20.28 c
0 13.43 11.85 24.49 27.91 24.49 c
11.73 0 19.9 -5.14 24.77 -9.22 c
-7.77 -9.61 p
-5 4.21 -10.67 6.32 -16.47 6.32 c
-7.64 0 -15.27 -4.35 -15.27 -12.38 c
0 -11.72 19.62 -14.22 31.47 -22.12 c
6.19 -4.08 11.98 -10.54 11.98 -21.07 c
0 -16.19 -12.51 -26.73 -28.57 -26.73 c
-12.65 0 -24.1 5.54 -32.27 15.41 c
9.1 8.95 p f
2309.2 359.45 m
13.17 0 25.68 -5.4 33.71 -14.22 c
-8.83 -8.69 p
-5.4 5.92 -15.01 10.4 -24.88 10.4 c
-18.84 0 -33.45 -15.01 -33.45 -34.89 c
0 -20.81 15.01 -34.91 34.63 -34.91 c
12.39 0 21.34 6.85 26.48 13.04 c
9.34 -8.43 p
-7.9 -10.14 -21.6 -17.12 -35.82 -17.12 c
-27.52 0 -47.8 20.14 -47.8 47.41 c
0 26.59 20.02 47.4 46.62 47.4 c
f
2416.62 277.14 m
18.84 0 32.93 14.88 32.93 34.91 c
0 19.88 -14.09 34.89 -32.93 34.89 c
-18.83 0 -32.92 -15.01 -32.92 -34.89 c
0 -20.02 14.09 -34.91 32.92 -34.91 c
h
2416.62 359.45 m
26.08 0 46.1 -20.55 46.1 -47.4 c
0 -26.87 -20.02 -47.41 -46.1 -47.41 c
-26.06 0 -46.08 20.55 -46.08 47.41 c
0 26.85 20.02 47.4 46.08 47.4 c
f
2510.75 333.64 0 -67.69 -13.16 0 0 92.18 9.22 0 55.3 -67.69 0 67.69 13.17 0 
0 -92.18 -9.22 0 -55.31 67.69 f
2607.51 358.13 63.21 0 0 -12.51 -25.02 0 0 -79.67 -13.17 0 ^ -25.02 0 
0 12.51 f
2734.57 321.92 m
5.93 0 8.96 1.32 11.07 3.42 c
2.1 2.11 3.41 5.14 3.41 8.43 c
0 3.3 -1.31 6.33 -3.41 8.43 c
-2.11 2.11 -5.14 3.43 -11.07 3.43 c
-18.44 0 0 -23.7 ^ h
2716.13 309.41 0 -43.46 -13.16 0 0 92.18 32.26 0 P
8.42 0 13.7 -1.97 17.91 -5.4 c
5.52 -4.47 9.09 -11.32 9.09 -18.96 c
0 -7.63 -3.57 -14.48 -9.09 -18.95 c
-2.9 -2.37 -6.19 -4.08 -10.8 -4.87 c
33.05 -43.98 -15.94 0 -32.78 43.46 -10.54 0 p f
2841.2 277.14 m
18.84 0 32.93 14.88 32.93 34.91 c
0 19.88 -14.09 34.89 -32.93 34.89 c
-18.83 0 -32.92 -15.01 -32.92 -34.89 c
0 -20.02 14.09 -34.91 32.92 -34.91 c
h
2841.2 359.45 m
26.08 0 46.1 -20.55 46.1 -47.4 c
0 -26.87 -20.02 -47.41 -46.1 -47.41 c
-26.06 0 -46.08 20.55 -46.08 47.41 c
0 26.85 20.02 47.4 46.08 47.4 c
f
2935.33 278.46 40.82 0 0 -12.51 -53.98 0 0 92.18 13.16 0 0 -79.67 f
3076.19 278.46 40.82 0 0 -12.51 -53.98 0 0 92.18 13.16 0 0 -79.67 f
3173.88 302.16 28.44 0 -14.22 34.24 -14.22 -34.24 H
3207.45 289.65 -38.84 0 -9.61 -23.7 -13.71 0 38.2 92.18 9.22 0 38.18 -92.18 -13.69 0 
-9.75 23.7 f
3294.99 278.46 m
8.29 0 12.25 1.84 15.14 4.73 c
2.64 2.77 4.34 6.59 4.34 10.8 c
0 4.22 -1.7 7.9 -4.34 10.66 c
-2.89 2.9 -6.85 4.75 -15.14 4.75 c
-20.02 0 0 -30.95 ^ h
3290.77 321.92 m
7.38 0 10.54 1.45 12.65 3.82 c
1.97 2.11 3.15 4.88 3.15 8.03 c
0 3.16 -1.18 5.93 -3.15 8.04 c
-2.11 2.38 -5.27 3.82 -12.65 3.82 c
-15.8 0 0 -23.7 ^ h
3261.81 265.95 0 92.18 31.34 0 P
8.95 0 14.62 -2.5 18.96 -6.45 c
4.74 -4.35 7.64 -10.67 7.64 -17.51 c
0 -6.32 -2.9 -12.38 -7.25 -16.46 c
8.69 -4.35 15.15 -13.82 15.15 -24.23 c
0 -8.55 -3.96 -16.33 -10.15 -21.33 c
-4.73 -3.95 -10.79 -6.19 -20.14 -6.19 c
-35.55 0 p f
3402.03 277.14 m
18.84 0 32.93 14.88 32.93 34.91 c
0 19.88 -14.09 34.89 -32.93 34.89 c
-18.83 0 -32.92 -15.01 -32.92 -34.89 c
0 -20.02 14.09 -34.91 32.92 -34.91 c
h
3402.03 359.45 m
26.08 0 46.1 -20.55 46.1 -47.4 c
0 -26.87 -20.02 -47.41 -46.1 -47.41 c
-26.06 0 -46.08 20.55 -46.08 47.41 c
0 26.85 20.02 47.4 46.08 47.4 c
f
3514.59 321.92 m
5.93 0 8.96 1.32 11.07 3.42 c
2.1 2.11 3.41 5.14 3.41 8.43 c
0 3.3 -1.31 6.33 -3.41 8.43 c
-2.11 2.11 -5.14 3.43 -11.07 3.43 c
-18.44 0 0 -23.7 ^ h
3496.15 309.41 0 -43.46 -13.16 0 0 92.18 32.26 0 P
8.42 0 13.7 -1.97 17.91 -5.4 c
5.52 -4.47 9.09 -11.32 9.09 -18.96 c
0 -7.63 -3.57 -14.48 -9.09 -18.95 c
-2.9 -2.37 -6.2 -4.08 -10.8 -4.87 c
33.05 -43.98 -15.94 0 -32.78 43.46 -10.54 0 p f
3605.03 302.16 28.44 0 -14.22 34.24 -14.22 -34.24 H
3638.61 289.65 -38.85 0 -9.61 -23.7 -13.7 0 38.19 92.18 9.22 0 38.18 -92.18 -13.69 0 
-9.74 23.7 f
3675.19 358.13 63.21 0 0 -12.51 -25.02 0 0 -79.67 -13.17 0 ^ -25.02 0 
0 12.51 f
3805.53 277.14 m
18.84 0 32.93 14.88 32.93 34.91 c
0 19.88 -14.09 34.89 -32.93 34.89 c
-18.83 0 -32.92 -15.01 -32.92 -34.89 c
0 -20.02 14.09 -34.91 32.92 -34.91 c
h
3805.53 359.45 m
26.07 0 46.09 -20.55 46.09 -47.4 c
0 -26.87 -20.02 -47.41 -46.09 -47.41 c
-26.07 0 -46.08 20.55 -46.08 47.41 c
0 26.85 20.01 47.4 46.08 47.4 c
f
3918.09 321.92 m
5.93 0 8.95 1.32 11.06 3.42 c
2.1 2.11 3.42 5.14 3.42 8.43 c
0 3.3 -1.32 6.33 -3.42 8.43 c
-2.11 2.11 -5.13 3.43 -11.06 3.43 c
-18.44 0 0 -23.7 ^ h
3899.65 309.41 0 -43.46 -13.16 0 0 92.18 32.25 0 P
8.43 0 13.7 -1.97 17.91 -5.4 c
5.53 -4.47 9.09 -11.32 9.09 -18.96 c
0 -7.63 -3.56 -14.48 -9.09 -18.95 c
-2.9 -2.37 -6.19 -4.08 -10.8 -4.87 c
33.06 -43.98 -15.94 0 -32.78 43.46 -10.54 0 p f
4018.15 308.09 0 -42.14 -13.18 0 ^ -31.6 50.04 14.75 0 23.43 -37 23.45 37 
14.75 0 -31.6 -50.04 f
255 G
901.488 923.492 153.641 26.1328 re
f
835.594 751.094 26.3555 370.934 re
f
1094.66 751.094 26.3594 370.934 re
f
35 31 32 rG
439.64 286.55 m
21.68 2.86 41.33 12.27 56.57 26.21 c
8.97 -9.75 p
-17.79 -15.96 -40.48 -26.71 -65.55 -29.74 c
0 13.27 h
439.64 504.78 m
25.07 -2.69 47.76 -13.44 65.55 -29.57 c
-8.97 -9.74 p
-15.25 13.94 -34.89 23.35 -56.57 26.21 c
0 13.1 h
412.54 273.27 m
-58.61 6.72 -104 55.95 -104 115.92 c
0 59.81 45.39 109.04 104 115.59 c
0 -13.1 p
-51.66 -6.72 -90.79 -50.23 -90.79 -102.48 c
0 -52.41 39.13 -95.93 90.79 -102.64 c
0 -13.27 p f
594.71 286.38 100.6 0 0 -13.11 ^ ^ H
594.71 395.58 77.91 0 0 -13.11 ^ ^ H
594.71 504.78 100.6 0 0 -13.1 ^ ^ H
554.39 504.78 13.21 0 0 -231.5 ^ ^ f
783.12 286.38 100.61 0 0 -13.11 ^ ^ H
783.12 395.58 77.91 0 0 -13.11 ^ ^ H
783.12 504.78 100.61 0 0 -13.1 ^ ^ H
742.81 504.78 13.21 0 0 -231.5 ^ ^ f
1042.84 286.55 m
21.68 2.86 41.33 12.27 56.57 26.21 c
8.98 -9.75 p
-17.79 -15.96 -40.48 -26.71 -65.55 -29.74 c
0 13.27 h
1042.84 504.78 m
25.07 -2.69 47.76 -13.44 65.55 -29.57 c
-8.98 -9.74 p
-15.24 13.94 -34.89 23.35 -56.57 26.21 c
0 13.1 h
1015.74 273.27 m
-58.6 6.72 -103.99 55.95 -103.99 115.92 c
0 59.81 45.39 109.04 103.99 115.59 c
0 -13.1 p
-51.66 -6.72 -90.78 -50.23 -90.78 -102.48 c
0 -52.41 39.12 -95.93 90.78 -102.64 c
0 -13.27 p f
cleartomark end end pagesave restore
 showpage
%%PageTrailer
%%Trailer
%%Pages: 1
