%!PS-Adobe-3.0 EPSF-3.0
%%BoundingBox: 0 0 426 125
%%HiResBoundingBox: 0.000000 0.000000 425.200000 124.800000
%.........................................
%%Creator: GPL Ghostscript 907 (epswrite)
%%CreationDate: 2016/02/11 21:01:06
%%DocumentData: Clean7Bit
%%LanguageLevel: 2
%%EndComments
%%BeginProlog
% This copyright applies to everything between here and the %%EndProlog:
% Copyright (C) 2012 Artifex Software, Inc.  All rights reserved.
%%BeginResource: procset GS_epswrite_2_0_1001 1.001 0
/GS_epswrite_2_0_1001 80 dict dup begin
/PageSize 2 array def/setpagesize{ PageSize aload pop 3 index eq exch
4 index eq and{ pop pop pop}{ PageSize dup  1
5 -1 roll put 0 4 -1 roll put dup null eq {false} {dup where} ifelse{ exch get exec}
{ pop/setpagedevice where
{ pop 1 dict dup /PageSize PageSize put setpagedevice}
{ /setpage where{ pop PageSize aload pop pageparams 3 {exch pop} repeat
setpage}if}ifelse}ifelse}ifelse} bind def
/!{bind def}bind def/#{load def}!/N/counttomark #
/rG{3{3 -1 roll 255 div}repeat setrgbcolor}!/G{255 div setgray}!/K{0 G}!
/r6{dup 3 -1 roll rG}!/r5{dup 3 1 roll rG}!/r3{dup rG}!
/w/setlinewidth #/J/setlinecap #
/j/setlinejoin #/M/setmiterlimit #/d/setdash #/i/setflat #
/m/moveto #/l/lineto #/c/rcurveto #
/p{N 2 idiv{N -2 roll rlineto}repeat}!
/P{N 0 gt{N -2 roll moveto p}if}!
/h{p closepath}!/H{P closepath}!
/lx{0 rlineto}!/ly{0 exch rlineto}!/v{0 0 6 2 roll c}!/y{2 copy c}!
/re{4 -2 roll m exch dup lx exch ly neg lx h}!
/^{3 index neg 3 index neg}!
/f{P fill}!/f*{P eofill}!/s{H stroke}!/S{P stroke}!
/q/gsave #/Q/grestore #/rf{re fill}!
/Y{P clip newpath}!/Y*{P eoclip newpath}!/rY{re Y}!
/|={pop exch 4 1 roll 1 array astore cvx 3 array astore cvx exch 1 index def exec}!
/|{exch string readstring |=}!
/+{dup type/nametype eq{2 index 7 add -3 bitshift 2 index mul}if}!
/@/currentfile #/${+ @ |}!
/B{{2 copy string{readstring pop}aload pop 4 array astore cvx
3 1 roll}repeat pop pop true}!
/Ix{[1 0 0 1 11 -2 roll exch neg exch neg]exch}!
/,{true exch Ix imagemask}!/If{false exch Ix imagemask}!/I{exch Ix image}!
/Ic{exch Ix false 3 colorimage}!
/F{/Columns counttomark 3 add -2 roll/Rows exch/K -1/BlackIs1 true>>
/CCITTFaxDecode filter}!/FX{<</EndOfBlock false F}!
/X{/ASCII85Decode filter}!/@X{@ X}!/&2{2 index 2 index}!
/@F{@ &2<<F}!/@C{@X &2 FX}!
/$X{+ @X |}!/&4{4 index 4 index}!/$F{+ @ &4<<F |}!/$C{+ @X &4 FX |}!
/IC{3 1 roll 10 dict begin 1{/ImageType/Interpolate/Decode/DataSource
/ImageMatrix/BitsPerComponent/Height/Width}{exch def}forall
currentdict end image}!
/~{@ read {pop} if}!
end def
%%EndResource
/pagesave null def
%%EndProlog
%%Page: 1 1
%%BeginPageSetup
GS_epswrite_2_0_1001 begin
/pagesave save store 197 dict begin
0.1 0.1 scale
%%EndPageSetup
gsave mark
Q q
0 0 4251.97 1247.24 re
Y
255 G
0 0 4251.97 1247.24 re
f
35 31 32 rG
0 623.723 1245.85 623.516 re
f
255 G
521.211 1096.18 246.238 26.3594 re
f
631.152 748.426 26.3555 308.219 re
f
901.617 922.305 153.633 26.3555 re
f
835.723 748.426 26.3594 374.113 re
f
1094.79 748.426 26.3516 374.113 re
f
457.24 1053.01 -18.82 -18.82 P
21.29 -27.26 34.03 -61.52 34.03 -98.71 c
0 -88.61 -72.09 -160.7 -160.7 -160.7 c
-37.2 0 -71.45 12.74 -98.71 34.03 c
-18.82 -18.82 p
32.13 -25.98 73 -41.57 117.53 -41.57 c
103.31 0 187.05 83.75 187.05 187.05 c
0 44.53 -15.59 85.41 -41.57 117.53 c
f
185.09 836.77 m
-21.29 27.26 -34.03 61.52 -34.03 98.71 c
0 88.61 72.09 160.7 160.7 160.7 c
37.2 0 71.45 -12.74 98.71 -34.03 c
18.82 18.82 p
-32.12 25.98 -72.99 41.57 -117.53 41.57 c
-103.31 0 -187.05 -83.75 -187.05 -187.05 c
0 -44.53 15.59 -85.41 41.57 -117.53 c
18.82 18.82 p f
35 31 32 rG
1419.24 1041.55 m
18.82 0 32.91 14.88 32.91 34.89 c
0 19.88 -14.09 34.89 -32.91 34.89 c
-18.83 0 -32.92 -15.01 -32.92 -34.89 c
0 -20.01 14.09 -34.89 32.92 -34.89 c
h
1419.24 1123.83 m
26.06 0 46.08 -20.54 46.08 -47.39 c
0 -26.86 -20.02 -47.39 -46.08 -47.39 c
-26.07 0 -46.08 20.54 -46.08 47.39 c
0 26.86 20.01 47.39 46.08 47.39 c
f
1500.73 1053.39 m
5.39 -6.58 13.03 -11.85 22.51 -11.85 c
8.56 0 16.06 5.53 16.06 13.82 c
0 14.08 -19.48 15.66 -31.73 23.7 c
-6.58 4.34 -11.72 10.66 -11.72 20.28 c
0 13.43 11.86 24.48 27.91 24.48 c
11.72 0 19.89 -5.13 24.76 -9.21 c
-7.77 -9.61 p
-5 4.21 -10.66 6.32 -16.46 6.32 c
-7.63 0 -15.27 -4.35 -15.27 -12.38 c
0 -11.71 19.62 -14.21 31.47 -22.12 c
6.18 -4.08 11.98 -10.53 11.98 -21.06 c
0 -16.2 -12.51 -26.73 -28.57 -26.73 c
-12.64 0 -24.1 5.53 -32.26 15.4 c
9.09 8.95 p f
1575.5 1122.52 63.2 0 0 -12.51 -25.02 0 0 -79.65 -13.16 0 ^ -25.02 0 
0 12.51 f
1704.13 1042.86 m
8.29 0 12.24 1.84 15.14 4.74 c
2.63 2.76 4.34 6.58 4.34 10.8 c
0 4.21 -1.71 7.9 -4.34 10.66 c
-2.9 2.89 -6.85 4.74 -15.14 4.74 c
-20.02 0 0 -30.94 ^ h
1699.91 1086.31 m
7.38 0 10.54 1.45 12.64 3.82 c
1.98 2.11 3.16 4.88 3.16 8.03 c
0 3.16 -1.18 5.93 -3.16 8.03 c
-2.1 2.37 -5.26 3.82 -12.64 3.82 c
-15.8 0 0 -23.7 ^ h
1670.95 1030.36 0 92.16 31.33 0 P
8.96 0 14.62 -2.5 18.96 -6.45 c
4.74 -4.34 7.64 -10.66 7.64 -17.51 c
0 -6.32 -2.9 -12.37 -7.24 -16.46 c
8.69 -4.34 15.14 -13.82 15.14 -24.22 c
0 -8.56 -3.95 -16.32 -10.14 -21.33 c
-4.74 -3.95 -10.8 -6.19 -20.14 -6.19 c
-35.55 0 p f
1787.73 1066.56 28.43 0 -14.21 34.23 -14.22 -34.23 H
1821.3 1054.05 -38.84 0 -9.61 -23.7 -13.69 0 38.18 92.16 9.22 0 38.17 -92.16 -13.69 0 
-9.74 23.7 f
1899.37 1072.48 0 -42.13 -13.17 0 ^ -31.59 50.03 14.74 0 23.44 -37 23.43 37 
14.75 0 -31.6 -50.03 f
2006.01 1086.31 0 -12.51 -30.29 0 0 -30.94 40.82 0 0 -12.5 -53.98 0 0 92.16 
52.66 0 0 -12.51 -39.5 0 0 -23.7 30.29 0 f
2083.68 1086.31 m
5.92 0 8.95 1.32 11.06 3.42 c
2.11 2.11 3.42 5.14 3.42 8.43 c
0 3.29 -1.31 6.32 -3.42 8.43 c
-2.11 2.11 -5.14 3.43 -11.06 3.43 c
-18.43 0 0 -23.7 ^ h
2065.25 1073.8 0 -43.45 -13.17 0 0 92.16 32.26 0 P
8.42 0 13.69 -1.98 17.9 -5.4 c
5.53 -4.48 9.09 -11.32 9.09 -18.96 c
0 -7.64 -3.56 -14.48 -9.09 -18.96 c
-2.89 -2.37 -6.19 -4.08 -10.79 -4.87 c
33.04 -43.97 -15.93 0 -32.78 43.45 -10.53 0 p f
2154.77 1030.36 13.1719 92.1602 re
f
2211.25 1053.39 m
5.4 -6.58 13.03 -11.85 22.51 -11.85 c
8.56 0 16.07 5.53 16.07 13.82 c
0 14.08 -19.49 15.66 -31.73 23.7 c
-6.58 4.34 -11.72 10.66 -11.72 20.28 c
0 13.43 11.85 24.48 27.91 24.48 c
11.72 0 19.88 -5.13 24.75 -9.21 c
-7.77 -9.61 p
-5 4.21 -10.66 6.32 -16.45 6.32 c
-7.64 0 -15.27 -4.35 -15.27 -12.38 c
0 -11.71 19.61 -14.21 31.46 -22.12 c
6.19 -4.08 11.98 -10.53 11.98 -21.06 c
0 -16.2 -12.51 -26.73 -28.57 -26.73 c
-12.64 0 -24.09 5.53 -32.25 15.4 c
9.08 8.95 p f
2337.9 1123.83 m
13.17 0 25.67 -5.39 33.7 -14.21 c
-8.81 -8.69 p
-5.41 5.93 -15.01 10.4 -24.89 10.4 c
-18.83 0 -33.44 -15.01 -33.44 -34.89 c
0 -20.8 15.01 -34.89 34.63 -34.89 c
12.37 0 21.32 6.84 26.46 13.03 c
9.35 -8.43 p
-7.9 -10.14 -21.59 -17.11 -35.81 -17.11 c
-27.52 0 -47.8 20.14 -47.8 47.39 c
0 26.59 20.02 47.39 46.61 47.39 c
f
2472.31 1073.8 -51.34 0 0 -43.45 -13.17 0 0 92.16 ^ 0 -36.21 51.34 0 
^ 13.17 0 0 -92.16 ^ 0 43.45 f
2571.05 1086.31 0 -12.51 -30.28 0 0 -30.94 40.82 0 0 -12.5 -53.99 0 0 92.16 
52.67 0 0 -12.51 -39.5 0 0 -23.7 30.28 0 f
1370.52 981.56 63.2 0 0 -12.51 -25.02 0 0 -79.65 -13.16 0 ^ -25.02 0 
0 12.51 f
1509.42 945.35 0 -12.51 -30.29 0 0 -30.94 40.82 0 0 -12.5 -53.98 0 0 92.16 
52.66 0 0 -12.51 -39.5 0 0 -23.7 30.29 0 f
1592.22 982.87 m
13.17 0 25.68 -5.39 33.71 -14.21 c
-8.82 -8.69 p
-5.4 5.93 -15.01 10.4 -24.89 10.4 c
-18.82 0 -33.44 -15.01 -33.44 -34.89 c
0 -20.8 15.01 -34.89 34.63 -34.89 c
12.38 0 21.33 6.84 26.46 13.03 c
9.35 -8.43 p
-7.9 -10.14 -21.59 -17.11 -35.81 -17.11 c
-27.52 0 -47.79 20.14 -47.79 47.39 c
0 26.59 20.01 47.39 46.6 47.39 c
f
1726.64 932.84 -51.35 0 0 -43.45 -13.16 0 0 92.16 ^ 0 -36.21 51.35 0 
^ 13.16 0 0 -92.16 ^ 0 43.45 f
1795.09 957.07 0 -67.67 -13.16 0 0 92.16 9.21 0 55.3 -67.67 0 67.67 13.17 0 
0 -92.16 -9.22 0 -55.3 67.67 f
1901.73 889.398 13.168 92.1602 re
f
1958.21 912.44 m
5.4 -6.58 13.03 -11.85 22.51 -11.85 c
8.56 0 16.06 5.53 16.06 13.82 c
0 14.08 -19.48 15.66 -31.72 23.7 c
-6.59 4.34 -11.72 10.66 -11.72 20.28 c
0 13.43 11.85 24.48 27.91 24.48 c
11.72 0 19.88 -5.13 24.75 -9.21 c
-7.77 -9.61 p
-5 4.21 -10.66 6.32 -16.45 6.32 c
-7.64 0 -15.28 -4.35 -15.28 -12.38 c
0 -11.71 19.62 -14.21 31.47 -22.12 c
6.19 -4.08 11.98 -10.53 11.98 -21.06 c
0 -16.2 -12.51 -26.73 -28.57 -26.73 c
-12.64 0 -24.09 5.53 -32.26 15.4 c
9.09 8.95 p f
2084.86 982.87 m
13.16 0 25.67 -5.39 33.7 -14.21 c
-8.82 -8.69 p
-5.4 5.93 -15.01 10.4 -24.88 10.4 c
-18.83 0 -33.44 -15.01 -33.44 -34.89 c
0 -20.8 15.01 -34.89 34.62 -34.89 c
12.38 0 21.33 6.84 26.47 13.03 c
9.34 -8.43 p
-7.9 -10.14 -21.59 -17.11 -35.81 -17.11 c
-27.51 0 -47.79 20.14 -47.79 47.39 c
0 26.59 20.01 47.39 46.61 47.39 c
f
2219.27 932.84 -51.34 0 0 -43.45 -13.17 0 0 92.16 ^ 0 -36.21 51.34 0 
^ 13.17 0 0 -92.16 ^ 0 43.45 f
2318.01 945.35 0 -12.51 -30.28 0 0 -30.94 40.82 0 0 -12.5 -53.99 0 0 92.16 
52.67 0 0 -12.51 -39.5 0 0 -23.7 30.28 0 f
2482.57 932.84 -51.34 0 0 -43.45 -13.17 0 0 92.16 ^ 0 -36.21 51.34 0 
^ 13.17 0 0 -92.16 ^ 0 43.45 f
2576.7 900.59 m
18.83 0 32.92 14.88 32.92 34.89 c
0 19.88 -14.09 34.89 -32.92 34.89 c
-18.82 0 -32.91 -15.01 -32.91 -34.89 c
0 -20.01 14.09 -34.89 32.91 -34.89 c
h
2576.7 982.87 m
26.07 0 46.08 -20.54 46.08 -47.39 c
0 -26.86 -20.01 -47.39 -46.08 -47.39 c
-26.06 0 -46.08 20.54 -46.08 47.39 c
0 26.86 20.02 47.39 46.08 47.39 c
f
2699.66 982.87 m
13.17 0 25.68 -5.39 33.71 -14.21 c
-8.82 -8.69 p
-5.4 5.93 -15.01 10.4 -24.89 10.4 c
-18.82 0 -33.44 -15.01 -33.44 -34.89 c
0 -20.8 15.01 -34.89 34.63 -34.89 c
12.38 0 21.33 6.84 26.46 13.03 c
9.35 -8.43 p
-7.9 -10.14 -21.59 -17.11 -35.81 -17.11 c
-27.52 0 -47.79 20.14 -47.79 47.39 c
0 26.59 20.01 47.39 46.6 47.39 c
f
2834.08 932.84 -51.35 0 0 -43.45 -13.16 0 0 92.16 ^ 0 -36.21 51.35 0 
^ 13.16 0 0 -92.16 ^ 0 43.45 f
2890.55 912.44 m
5.4 -6.58 13.04 -11.85 22.52 -11.85 c
8.55 0 16.06 5.53 16.06 13.82 c
0 14.08 -19.49 15.66 -31.73 23.7 c
-6.58 4.34 -11.72 10.66 -11.72 20.28 c
0 13.43 11.85 24.48 27.91 24.48 c
11.72 0 19.88 -5.13 24.76 -9.21 c
-7.77 -9.61 p
-5 4.21 -10.67 6.32 -16.46 6.32 c
-7.64 0 -15.27 -4.35 -15.27 -12.38 c
0 -11.71 19.61 -14.21 31.47 -22.12 c
6.18 -4.08 11.98 -10.53 11.98 -21.06 c
0 -16.2 -12.51 -26.73 -28.58 -26.73 c
-12.63 0 -24.09 5.53 -32.25 15.4 c
9.08 8.95 p f
3017.2 982.87 m
13.17 0 25.68 -5.39 33.71 -14.21 c
-8.82 -8.69 p
-5.4 5.93 -15.01 10.4 -24.89 10.4 c
-18.83 0 -33.44 -15.01 -33.44 -34.89 c
0 -20.8 15.01 -34.89 34.63 -34.89 c
12.37 0 21.33 6.84 26.46 13.03 c
9.35 -8.43 p
-7.9 -10.14 -21.59 -17.11 -35.81 -17.11 c
-27.52 0 -47.79 20.14 -47.79 47.39 c
0 26.59 20.01 47.39 46.6 47.39 c
f
3151.62 932.84 -51.35 0 0 -43.45 -13.17 0 0 92.16 ^ 0 -36.21 51.35 0 
^ 13.16 0 0 -92.16 ^ 0 43.45 f
3215.2 900.19 m
-5.92 6.45 -9.61 15.01 -9.61 27.39 c
0 53.98 13.17 0 0 -54.64 p
0 -8.69 2.1 -14.09 5.79 -18.17 c
4.61 -5.13 11.45 -8.16 19.22 -8.16 c
7.77 0 14.61 3.03 19.22 8.16 c
3.69 4.08 5.8 9.48 5.8 18.17 c
0 54.64 13.16 0 0 -53.98 p
0 -12.37 -3.68 -20.93 -9.61 -27.39 c
-6.98 -7.5 -17.25 -12.11 -28.57 -12.11 c
-11.32 0 -21.59 4.61 -28.57 12.11 c
f
3335.92 901.9 40.82 0 0 -12.5 -53.98 0 0 92.16 13.16 0 0 -79.66 f
3453.09 945.35 0 -12.51 -30.28 0 0 -30.94 40.82 0 0 -12.5 -53.99 0 0 92.16 
52.67 0 0 -12.51 -39.5 0 0 -23.7 30.28 0 f
1412 804.4 m
5.92 0 8.95 1.32 11.05 3.42 c
2.11 2.11 3.43 5.13 3.43 8.43 c
0 3.29 -1.32 6.32 -3.43 8.43 c
-2.1 2.11 -5.13 3.43 -11.05 3.43 c
-18.44 0 0 -23.7 ^ h
1393.56 791.89 0 -43.45 -13.16 0 0 92.16 32.25 0 P
8.43 0 13.69 -1.98 17.91 -5.4 c
5.53 -4.47 9.08 -11.32 9.08 -18.96 c
0 -7.64 -3.55 -14.48 -9.08 -18.96 c
-2.9 -2.37 -6.19 -4.08 -10.8 -4.87 c
33.05 -43.98 -15.93 0 -32.78 43.45 -10.54 0 p f
1526.53 804.4 0 -12.51 -30.28 0 0 -30.94 40.82 0 0 -12.51 -53.99 0 0 92.16 
52.67 0 0 -12.5 -39.5 0 0 -23.7 30.28 0 f
1646.34 764.24 m
-7.9 -10 -21.59 -17.12 -35.81 -17.12 c
-27.52 0 -47.8 20.14 -47.8 47.4 c
0 26.59 20.02 47.39 46.61 47.39 c
13.17 0 25.67 -5.39 33.7 -14.22 c
-8.81 -8.69 p
-5.41 5.92 -15.01 10.4 -24.89 10.4 c
-18.83 0 -33.44 -15.01 -33.44 -34.89 c
0 -20.8 15.01 -34.89 34.63 -34.89 c
9.74 0 17.77 3.69 22.64 8.56 c
0 23.7 -26.33 0 0 12.51 39.5 0 0 -40.16 p f
1728.62 804.4 0 -12.51 -30.29 0 0 -30.94 40.82 0 0 -12.51 -53.98 0 0 92.16 
52.66 0 0 -12.5 -39.5 0 0 -23.7 30.29 0 f
1787.86 816.11 0 -67.67 -13.17 0 0 92.16 9.22 0 55.29 -67.67 0 67.67 13.17 0 
0 -92.16 -9.22 0 -55.29 67.67 f
1895.68 771.48 m
5.4 -6.58 13.03 -11.85 22.51 -11.85 c
8.56 0 16.06 5.53 16.06 13.82 c
0 14.09 -19.48 15.67 -31.72 23.7 c
-6.59 4.34 -11.72 10.66 -11.72 20.27 c
0 13.43 11.85 24.49 27.91 24.49 c
11.72 0 19.88 -5.14 24.75 -9.21 c
-7.77 -9.61 p
-5 4.21 -10.66 6.32 -16.45 6.32 c
-7.64 0 -15.28 -4.34 -15.28 -12.37 c
0 -11.72 19.62 -14.22 31.47 -22.12 c
6.19 -4.08 11.98 -10.54 11.98 -21.06 c
0 -16.2 -12.51 -26.73 -28.57 -26.73 c
-12.64 0 -24.09 5.53 -32.26 15.41 c
9.09 8.95 p f
2016.14 760.95 m
8.29 0 12.24 1.84 15.14 4.74 c
2.63 2.77 4.34 6.58 4.34 10.8 c
0 4.21 -1.71 7.9 -4.34 10.66 c
-2.9 2.9 -6.85 4.74 -15.14 4.74 c
-20.01 0 0 -30.94 ^ h
2011.93 804.4 m
7.37 0 10.53 1.45 12.64 3.82 c
1.97 2.11 3.16 4.87 3.16 8.03 c
0 3.16 -1.19 5.93 -3.16 8.03 c
-2.11 2.37 -5.27 3.82 -12.64 3.82 c
-15.8 0 0 -23.7 ^ h
1982.96 748.44 0 92.16 31.34 0 P
8.95 0 14.61 -2.5 18.96 -6.45 c
4.74 -4.34 7.63 -10.66 7.63 -17.51 c
0 -6.32 -2.89 -12.37 -7.24 -16.46 c
8.69 -4.34 15.14 -13.82 15.14 -24.23 c
0 -8.55 -3.95 -16.32 -10.14 -21.33 c
-4.74 -3.95 -10.79 -6.19 -20.14 -6.19 c
-35.55 0 p f
2091.31 759.24 m
-5.92 6.45 -9.61 15.01 -9.61 27.38 c
0 53.98 13.17 0 0 -54.64 p
0 -8.69 2.1 -14.09 5.79 -18.17 c
4.61 -5.13 11.45 -8.16 19.22 -8.16 c
7.77 0 14.61 3.03 19.22 8.16 c
3.69 4.08 5.8 9.48 5.8 18.17 c
0 54.64 13.16 0 0 -53.98 p
0 -12.37 -3.68 -20.93 -9.61 -27.38 c
-6.98 -7.5 -17.24 -12.11 -28.57 -12.11 c
-11.32 0 -21.59 4.61 -28.57 12.11 c
f
2230.47 804.4 m
5.92 0 8.95 1.32 11.06 3.42 c
2.11 2.11 3.42 5.13 3.42 8.43 c
0 3.29 -1.31 6.32 -3.42 8.43 c
-2.11 2.11 -5.14 3.43 -11.06 3.43 c
-18.43 0 0 -23.7 ^ h
2212.04 791.89 0 -43.45 -13.17 0 0 92.16 32.26 0 P
8.43 0 13.69 -1.98 17.9 -5.4 c
5.53 -4.47 9.09 -11.32 9.09 -18.96 c
0 -7.64 -3.56 -14.48 -9.09 -18.96 c
-2.89 -2.37 -6.19 -4.08 -10.79 -4.87 c
33.04 -43.98 -15.93 0 -32.78 43.45 -10.53 0 p f
2374.63 764.24 m
-7.9 -10 -21.59 -17.12 -35.81 -17.12 c
-27.52 0 -47.79 20.14 -47.79 47.4 c
0 26.59 20.01 47.39 46.61 47.39 c
13.16 0 25.67 -5.39 33.7 -14.22 c
-8.82 -8.69 p
-5.4 5.92 -15.01 10.4 -24.88 10.4 c
-18.83 0 -33.44 -15.01 -33.44 -34.89 c
0 -20.8 15 -34.89 34.62 -34.89 c
9.75 0 17.78 3.69 22.65 8.56 c
0 23.7 -26.33 0 0 12.51 39.49 0 0 -40.16 p f
0 0 1245.85 66.1797 re
f
1393.74 418.88 41.11 0 0 -12.6 -54.37 0 0 92.82 13.26 0 0 -80.22 f
1492.08 442.75 28.63 0 -14.31 34.48 -14.32 -34.48 H
1525.89 430.15 -39.12 0 -9.68 -23.87 -13.79 0 38.45 92.82 9.29 0 38.45 -92.82 -13.79 0 
-9.81 23.87 f
1614.01 418.88 m
8.35 0 12.33 1.85 15.24 4.77 c
2.66 2.79 4.38 6.63 4.38 10.87 c
0 4.25 -1.72 7.96 -4.38 10.74 c
-2.91 2.92 -6.89 4.78 -15.24 4.78 c
-20.16 0 0 -31.16 ^ h
1609.76 462.64 m
7.43 0 10.61 1.46 12.73 3.85 c
1.99 2.12 3.19 4.91 3.19 8.09 c
0 3.18 -1.2 5.97 -3.19 8.09 c
-2.12 2.39 -5.3 3.85 -12.73 3.85 c
-15.91 0 0 -23.87 ^ h
1580.59 406.28 0 92.82 31.56 0 P
9.02 0 14.72 -2.52 19.1 -6.5 c
4.77 -4.37 7.69 -10.74 7.69 -17.64 c
0 -6.37 -2.92 -12.46 -7.3 -16.58 c
8.76 -4.37 15.25 -13.92 15.25 -24.39 c
0 -8.62 -3.97 -16.45 -10.21 -21.48 c
-4.77 -3.97 -10.87 -6.23 -20.29 -6.23 c
-35.8 0 p f
1721.75 417.55 m
18.97 0 33.15 14.99 33.15 35.14 c
0 20.02 -14.18 35.14 -33.15 35.14 c
-18.96 0 -33.14 -15.12 -33.14 -35.14 c
0 -20.16 14.18 -35.14 33.14 -35.14 c
h
1721.75 500.43 m
26.26 0 46.42 -20.68 46.42 -47.73 c
0 -27.05 -20.16 -47.74 -46.42 -47.74 c
-26.25 0 -46.41 20.69 -46.41 47.74 c
0 27.05 20.16 47.73 46.41 47.73 c
f
1835.06 462.64 m
5.97 0 9.01 1.33 11.14 3.45 c
2.12 2.13 3.45 5.18 3.45 8.49 c
0 3.31 -1.33 6.37 -3.45 8.48 c
-2.13 2.13 -5.17 3.45 -11.14 3.45 c
-18.56 0 0 -23.87 ^ h
1816.5 450.04 0 -43.76 -13.27 0 0 92.82 32.49 0 P
8.49 0 13.79 -1.99 18.04 -5.43 c
5.57 -4.51 9.14 -11.4 9.14 -19.1 c
0 -7.69 -3.57 -14.59 -9.14 -19.09 c
-2.92 -2.39 -6.24 -4.11 -10.88 -4.91 c
33.28 -44.29 -16.04 0 -33.02 43.76 -10.6 0 p f
2010.68 426.17 -9.29 0 -27.18 42.57 0 -62.46 -13.26 0 0 92.82 9.28 0 35.8 -56.62 
35.8 56.62 9.29 0 0 -92.82 -13.27 0 0 62.46 -27.17 -42.57 f
2110.98 442.75 28.64 0 -14.32 34.48 -14.32 -34.48 H
2144.8 430.15 -39.12 0 -9.68 -23.87 -13.79 0 38.45 92.82 9.28 0 38.45 -92.82 -13.79 0 
-9.8 23.87 f
2202.68 429.48 m
5.44 -6.62 13.12 -11.93 22.67 -11.93 c
8.62 0 16.18 5.57 16.18 13.93 c
0 14.19 -19.62 15.78 -31.96 23.87 c
-6.63 4.38 -11.79 10.74 -11.79 20.42 c
0 13.53 11.93 24.66 28.1 24.66 c
11.81 0 20.02 -5.17 24.93 -9.29 c
-7.82 -9.68 p
-5.04 4.24 -10.74 6.36 -16.58 6.36 c
-7.69 0 -15.38 -4.37 -15.38 -12.47 c
0 -11.8 19.76 -14.31 31.7 -22.27 c
6.23 -4.11 12.06 -10.61 12.06 -21.21 c
0 -16.31 -12.6 -26.92 -28.77 -26.92 c
-12.74 0 -24.27 5.57 -32.49 15.52 c
9.15 9.01 p f
2330.19 500.43 m
13.26 0 25.86 -5.44 33.94 -14.32 c
-8.87 -8.75 p
-5.44 5.97 -15.12 10.48 -25.07 10.48 c
-18.97 0 -33.68 -15.12 -33.68 -35.14 c
0 -20.95 15.11 -35.14 34.87 -35.14 c
12.47 0 21.48 6.89 26.66 13.13 c
9.41 -8.49 p
-7.96 -10.21 -21.74 -17.24 -36.07 -17.24 c
-27.71 0 -48.14 20.29 -48.14 47.74 c
0 26.78 20.16 47.73 46.95 47.73 c
f
2465.51 450.04 -51.71 0 0 -43.76 -13.26 0 0 92.82 ^ 0 -36.46 51.71 0 
^ 13.26 0 0 -92.82 ^ 0 43.76 f
2521.13 406.281 13.2695 92.8203 re
f
2590.06 474.44 0 -68.16 -13.26 0 0 92.82 9.29 0 55.68 -68.16 0 68.16 13.26 0 
0 -92.82 -9.28 0 -55.69 68.16 f
2741.16 462.64 0 -12.59 -30.49 0 0 -31.16 41.1 0 0 -12.6 -54.37 0 0 92.82 
53.04 0 0 -12.59 -39.77 0 0 -23.87 30.49 0 f
2800.78 474.44 0 -68.16 -13.26 0 0 92.82 9.29 0 55.68 -68.16 0 68.16 13.26 0 
0 -92.82 -9.27 0 -55.7 68.16 f
2961.82 478.68 m
-5.83 5.04 -13.53 7.83 -26.52 7.83 c
-13.92 0 0 -67.62 ^ p
12.99 0 20.69 2.78 26.52 7.82 c
7.03 6.23 11.27 15.64 11.27 25.99 c
0 10.34 -4.24 19.75 -11.27 25.98 c
h
2908.12 406.28 0 92.82 27.84 0 P
14.73 0 24.27 -3.18 31.83 -8.75 c
11.4 -8.49 18.56 -22.28 18.56 -37.66 c
0 -15.38 -7.03 -29.18 -18.43 -37.66 c
-7.56 -5.57 -17.23 -8.75 -31.96 -8.75 c
-27.84 0 p f
3050.6 448.71 0 -42.43 -13.25 0 ^ -31.83 50.39 14.85 0 23.6 -37.26 23.6 37.26 
14.85 0 -31.82 -50.39 f
3127.45 474.44 0 -68.16 -13.26 0 0 92.82 9.28 0 55.69 -68.16 0 68.16 13.26 0 
0 -92.82 -9.27 0 -55.7 68.16 f
3252.29 442.75 28.64 0 -14.32 34.48 -14.32 -34.48 H
3286.11 430.15 -39.13 0 -9.67 -23.87 -13.79 0 38.45 92.82 9.28 0 38.46 -92.82 -13.79 0 
-9.81 23.87 f
3390.54 426.17 -9.29 0 -27.18 42.57 0 -62.46 -13.26 0 0 92.82 9.28 0 35.81 -56.62 
35.8 56.62 9.28 0 0 -92.82 -13.26 0 0 62.46 -27.18 -42.57 f
3473.33 406.281 13.2578 92.8203 re
f
3529 499.1 13.26 0 0 -39.12 38.18 39.12 17.51 0 -41.9 -43.09 44.55 -49.73 -16.98 0 
-41.36 46.41 0 -46.41 -13.26 0 0 92.82 f
1388.83 275.26 m
-5.96 6.5 -9.67 15.12 -9.67 27.59 c
0 54.37 13.25 0 0 -55.03 p
0 -8.75 2.13 -14.19 5.84 -18.3 c
4.64 -5.18 11.54 -8.23 19.36 -8.23 c
7.82 0 14.72 3.05 19.36 8.23 c
3.71 4.11 5.83 9.55 5.83 18.3 c
0 55.03 13.26 0 0 -54.37 p
0 -12.47 -3.71 -21.08 -9.68 -27.59 c
-7.03 -7.56 -17.37 -12.2 -28.77 -12.2 c
-11.41 0 -21.75 4.64 -28.78 12.2 c
f
1510.37 332.54 0 -68.16 -13.26 0 0 92.82 9.28 0 55.69 -68.16 0 68.16 13.26 0 
0 -92.82 -9.28 0 -55.69 68.16 f
1671.41 336.79 m
-5.84 5.04 -13.53 7.82 -26.52 7.82 c
-13.92 0 0 -67.63 ^ p
12.99 0 20.68 2.79 26.52 7.82 c
7.03 6.23 11.27 15.64 11.27 25.99 c
0 10.34 -4.24 19.75 -11.27 26 c
h
1617.71 264.39 0 92.82 27.84 0 P
14.72 0 24.27 -3.18 31.83 -8.75 c
11.4 -8.49 18.56 -22.29 18.56 -37.66 c
0 -15.38 -7.03 -29.17 -18.43 -37.66 c
-7.56 -5.57 -17.24 -8.75 -31.96 -8.75 c
-27.84 0 p f
1783.89 287.59 m
5.44 -6.63 13.13 -11.93 22.67 -11.93 c
8.62 0 16.18 5.57 16.18 13.93 c
0 14.19 -19.62 15.78 -31.95 23.86 c
-6.63 4.38 -11.8 10.74 -11.8 20.42 c
0 13.52 11.93 24.66 28.11 24.66 c
11.8 0 20.02 -5.16 24.92 -9.27 c
-7.82 -9.68 p
-5.04 4.24 -10.74 6.37 -16.58 6.37 c
-7.69 0 -15.38 -4.39 -15.38 -12.47 c
0 -11.79 19.76 -14.32 31.7 -22.27 c
6.23 -4.11 12.07 -10.61 12.07 -21.21 c
0 -16.32 -12.6 -26.93 -28.78 -26.93 c
-12.73 0 -24.27 5.57 -32.49 15.52 c
9.15 9.01 p f
1859.16 357.21 63.65 0 0 -12.6 -25.19 0 0 -80.23 -13.26 0 ^ -25.2 0 
0 12.6 f
1987.08 320.75 m
5.97 0 9.02 1.32 11.13 3.45 c
2.12 2.12 3.45 5.17 3.45 8.49 c
0 3.31 -1.33 6.36 -3.45 8.49 c
-2.11 2.12 -5.16 3.45 -11.13 3.45 c
-18.56 0 0 -23.87 ^ h
1968.52 308.15 0 -43.76 -13.26 0 0 92.82 32.48 0 P
8.48 0 13.8 -1.99 18.03 -5.44 c
5.57 -4.51 9.15 -11.41 9.15 -19.09 c
0 -7.7 -3.58 -14.59 -9.15 -19.1 c
-2.92 -2.38 -6.23 -4.1 -10.87 -4.9 c
33.29 -44.29 -16.05 0 -33.02 43.76 -10.6 0 p f
2064.33 275.26 m
-5.97 6.5 -9.68 15.12 -9.68 27.59 c
0 54.37 13.26 0 0 -55.03 p
0 -8.75 2.12 -14.19 5.83 -18.3 c
4.64 -5.18 11.55 -8.23 19.37 -8.23 c
7.82 0 14.71 3.05 19.35 8.23 c
3.71 4.11 5.84 9.55 5.84 18.3 c
0 55.03 13.25 0 0 -54.37 p
0 -12.47 -3.71 -21.08 -9.67 -27.59 c
-7.03 -7.56 -17.38 -12.2 -28.77 -12.2 c
-11.41 0 -21.75 4.64 -28.78 12.2 c
f
2172.6 357.21 13.26 0 0 -39.12 38.19 39.12 17.5 0 -41.9 -43.1 44.55 -49.73 -16.97 0 
-41.37 46.41 0 -46.41 -13.26 0 0 92.82 f
2267.36 357.21 63.64 0 0 -12.6 -25.19 0 0 -80.23 -13.26 0 ^ -25.19 0 
0 12.6 f
2371.79 275.26 m
-5.97 6.5 -9.68 15.12 -9.68 27.59 c
0 54.37 13.26 0 0 -55.03 p
0 -8.75 2.12 -14.19 5.83 -18.3 c
4.65 -5.18 11.55 -8.23 19.37 -8.23 c
7.82 0 14.72 3.05 19.35 8.23 c
3.72 4.11 5.84 9.55 5.84 18.3 c
0 55.03 13.27 0 0 -54.37 p
0 -12.47 -3.73 -21.08 -9.69 -27.59 c
-7.02 -7.56 -17.37 -12.2 -28.77 -12.2 c
-11.41 0 -21.75 4.64 -28.78 12.2 c
f
2511.9 320.75 m
5.96 0 9.01 1.32 11.13 3.45 c
2.13 2.12 3.45 5.17 3.45 8.49 c
0 3.31 -1.32 6.36 -3.45 8.49 c
-2.12 2.12 -5.17 3.45 -11.13 3.45 c
-18.57 0 0 -23.87 ^ h
2493.33 308.15 0 -43.76 -13.26 0 0 92.82 32.49 0 P
8.49 0 13.79 -1.99 18.03 -5.44 c
5.57 -4.51 9.15 -11.41 9.15 -19.09 c
0 -7.7 -3.58 -14.59 -9.15 -19.1 c
-2.91 -2.38 -6.23 -4.1 -10.87 -4.9 c
33.28 -44.29 -16.04 0 -33.02 43.76 -10.61 0 p f
2602.93 300.85 28.64 0 -14.31 34.47 -14.33 -34.47 H
2636.75 288.26 -39.12 0 -9.68 -23.87 -13.79 0 38.46 92.82 9.28 0 38.45 -92.82 -13.79 0 
-9.81 23.87 f
2704.72 332.54 0 -68.16 -13.26 0 0 92.82 9.27 0 55.7 -68.16 0 68.16 13.26 0 
0 -92.82 -9.28 0 -55.69 68.16 f
2829.55 300.85 28.65 0 -14.32 34.47 -14.33 -34.47 H
2863.37 288.26 -39.12 0 -9.68 -23.87 -13.79 0 38.46 92.82 9.28 0 38.45 -92.82 -13.78 0 
-9.82 23.87 f
2931.34 276.98 41.1 0 0 -12.6 -54.36 0 0 92.82 13.26 0 0 -80.23 f
3033.39 306.82 0 -42.43 -13.25 0 ^ -31.83 50.39 14.86 0 23.59 -37.27 23.6 37.27 
14.86 0 -31.83 -50.39 f
3094.2 287.59 m
5.44 -6.63 13.13 -11.93 22.68 -11.93 c
8.62 0 16.18 5.57 16.18 13.93 c
0 14.19 -19.63 15.78 -31.96 23.86 c
-6.64 4.38 -11.8 10.74 -11.8 20.42 c
0 13.52 11.93 24.66 28.1 24.66 c
11.81 0 20.03 -5.16 24.94 -9.27 c
-7.83 -9.68 p
-5.04 4.24 -10.74 6.37 -16.57 6.37 c
-7.69 0 -15.38 -4.39 -15.38 -12.47 c
0 -11.79 19.76 -14.32 31.69 -22.27 c
6.23 -4.11 12.06 -10.61 12.06 -21.21 c
0 -16.32 -12.59 -26.93 -28.77 -26.93 c
-12.73 0 -24.27 5.57 -32.49 15.52 c
9.15 9.01 p f
3225.83 320.75 0 -12.6 -30.5 0 0 -31.16 41.11 0 0 -12.6 -54.37 0 0 92.82 
53.04 0 0 -12.6 -39.78 0 0 -23.87 30.5 0 f
255 G
901.488 923.492 153.641 26.1328 re
f
835.594 751.094 26.3555 370.934 re
f
1094.66 751.094 26.3594 370.934 re
f
35 31 32 rG
598.82 290.26 80.91 0 0 -12.86 ^ ^ H
559.2 504.7 12.98 0 0 -227.3 ^ ^ f
721.3 445.15 12.98 -14.68 0 -153.07 -12.98 0 0 167.75 H
721.3 484.9 0 19.79 99.38 -112.83 99.39 112.83 0 -227.3 -12.98 0 0 192.66 -86.4 -98.14 
-99.38 113 f
1051 506.34 m
32.46 -2.47 56.27 -24.74 v
-8.65 -9.57 p
-15.99 14.02 -30.64 18.14 -47.62 21.44 c
0 12.86 h
1052.17 288.62 m
28.46 3.29 48.77 20.12 48.77 47.17 c
0 26.89 -20.14 36.79 -44.28 46.02 c
-46.44 17.65 p
-25.64 9.73 -41.46 27.55 -41.46 52.13 c
0 32.16 27.3 52.62 55.61 54.76 c
0 -12.86 p
-20.32 -1.98 -42.62 -16 -42.62 -41.56 c
0 -16.99 9.82 -31.67 32.96 -40.42 c
46.95 -17.64 p
27.46 -10.39 52.27 -23.92 52.27 -58.07 c
0 -36.61 -28.47 -56.41 -61.76 -60.21 c
0 13.04 h
973.26 313.85 m
13.65 -14.19 31.8 -21.95 52.27 -25.23 c
0 -13.04 p
-23.64 2.97 -47.28 13.86 -62.26 29.86 c
9.99 8.42 p f
cleartomark end end pagesave restore
 showpage
%%PageTrailer
%%Trailer
%%Pages: 1
