%!PS-Adobe-3.0 EPSF-3.0
%%BoundingBox: 0 0 426 125
%%HiResBoundingBox: 0.000000 0.000000 425.200000 124.800000
%.........................................
%%Creator: GPL Ghostscript 907 (epswrite)
%%CreationDate: 2016/02/11 21:01:02
%%DocumentData: Clean7Bit
%%LanguageLevel: 2
%%EndComments
%%BeginProlog
% This copyright applies to everything between here and the %%EndProlog:
% Copyright (C) 2012 Artifex Software, Inc.  All rights reserved.
%%BeginResource: procset GS_epswrite_2_0_1001 1.001 0
/GS_epswrite_2_0_1001 80 dict dup begin
/PageSize 2 array def/setpagesize{ PageSize aload pop 3 index eq exch
4 index eq and{ pop pop pop}{ PageSize dup  1
5 -1 roll put 0 4 -1 roll put dup null eq {false} {dup where} ifelse{ exch get exec}
{ pop/setpagedevice where
{ pop 1 dict dup /PageSize PageSize put setpagedevice}
{ /setpage where{ pop PageSize aload pop pageparams 3 {exch pop} repeat
setpage}if}ifelse}ifelse}ifelse} bind def
/!{bind def}bind def/#{load def}!/N/counttomark #
/rG{3{3 -1 roll 255 div}repeat setrgbcolor}!/G{255 div setgray}!/K{0 G}!
/r6{dup 3 -1 roll rG}!/r5{dup 3 1 roll rG}!/r3{dup rG}!
/w/setlinewidth #/J/setlinecap #
/j/setlinejoin #/M/setmiterlimit #/d/setdash #/i/setflat #
/m/moveto #/l/lineto #/c/rcurveto #
/p{N 2 idiv{N -2 roll rlineto}repeat}!
/P{N 0 gt{N -2 roll moveto p}if}!
/h{p closepath}!/H{P closepath}!
/lx{0 rlineto}!/ly{0 exch rlineto}!/v{0 0 6 2 roll c}!/y{2 copy c}!
/re{4 -2 roll m exch dup lx exch ly neg lx h}!
/^{3 index neg 3 index neg}!
/f{P fill}!/f*{P eofill}!/s{H stroke}!/S{P stroke}!
/q/gsave #/Q/grestore #/rf{re fill}!
/Y{P clip newpath}!/Y*{P eoclip newpath}!/rY{re Y}!
/|={pop exch 4 1 roll 1 array astore cvx 3 array astore cvx exch 1 index def exec}!
/|{exch string readstring |=}!
/+{dup type/nametype eq{2 index 7 add -3 bitshift 2 index mul}if}!
/@/currentfile #/${+ @ |}!
/B{{2 copy string{readstring pop}aload pop 4 array astore cvx
3 1 roll}repeat pop pop true}!
/Ix{[1 0 0 1 11 -2 roll exch neg exch neg]exch}!
/,{true exch Ix imagemask}!/If{false exch Ix imagemask}!/I{exch Ix image}!
/Ic{exch Ix false 3 colorimage}!
/F{/Columns counttomark 3 add -2 roll/Rows exch/K -1/BlackIs1 true>>
/CCITTFaxDecode filter}!/FX{<</EndOfBlock false F}!
/X{/ASCII85Decode filter}!/@X{@ X}!/&2{2 index 2 index}!
/@F{@ &2<<F}!/@C{@X &2 FX}!
/$X{+ @X |}!/&4{4 index 4 index}!/$F{+ @ &4<<F |}!/$C{+ @X &4 FX |}!
/IC{3 1 roll 10 dict begin 1{/ImageType/Interpolate/Decode/DataSource
/ImageMatrix/BitsPerComponent/Height/Width}{exch def}forall
currentdict end image}!
/~{@ read {pop} if}!
end def
%%EndResource
/pagesave null def
%%EndProlog
%%Page: 1 1
%%BeginPageSetup
GS_epswrite_2_0_1001 begin
/pagesave save store 197 dict begin
0.1 0.1 scale
%%EndPageSetup
gsave mark
Q q
0 0 4251.97 1247.24 re
Y
255 G
0 0 4251.97 1247.24 re
f
35 31 32 rG
0 623.723 1245.85 623.516 re
f
255 G
521.211 1096.18 246.238 26.3594 re
f
631.152 748.426 26.3555 308.219 re
f
901.617 922.305 153.633 26.3555 re
f
835.723 748.426 26.3594 374.113 re
f
1094.79 748.426 26.3516 374.113 re
f
457.24 1053.01 -18.82 -18.82 P
21.29 -27.26 34.03 -61.52 34.03 -98.71 c
0 -88.61 -72.09 -160.7 -160.7 -160.7 c
-37.2 0 -71.45 12.74 -98.71 34.03 c
-18.82 -18.82 p
32.13 -25.98 73 -41.57 117.53 -41.57 c
103.31 0 187.05 83.75 187.05 187.05 c
0 44.53 -15.59 85.41 -41.57 117.53 c
f
185.09 836.77 m
-21.29 27.26 -34.03 61.52 -34.03 98.71 c
0 88.61 72.09 160.7 160.7 160.7 c
37.2 0 71.45 -12.74 98.71 -34.03 c
18.82 18.82 p
-32.12 25.98 -72.99 41.57 -117.53 41.57 c
-103.31 0 -187.05 -83.75 -187.05 -187.05 c
0 -44.53 15.59 -85.41 41.57 -117.53 c
18.82 18.82 p f
35 31 32 rG
1419.24 1041.55 m
18.82 0 32.91 14.88 32.91 34.89 c
0 19.88 -14.09 34.89 -32.91 34.89 c
-18.83 0 -32.92 -15.01 -32.92 -34.89 c
0 -20.01 14.09 -34.89 32.92 -34.89 c
h
1419.24 1123.83 m
26.06 0 46.08 -20.54 46.08 -47.39 c
0 -26.86 -20.02 -47.39 -46.08 -47.39 c
-26.07 0 -46.08 20.54 -46.08 47.39 c
0 26.86 20.01 47.39 46.08 47.39 c
f
1500.73 1053.39 m
5.39 -6.58 13.03 -11.85 22.51 -11.85 c
8.56 0 16.06 5.53 16.06 13.82 c
0 14.08 -19.48 15.66 -31.73 23.7 c
-6.58 4.34 -11.72 10.66 -11.72 20.28 c
0 13.43 11.86 24.48 27.91 24.48 c
11.72 0 19.89 -5.13 24.76 -9.21 c
-7.77 -9.61 p
-5 4.21 -10.66 6.32 -16.46 6.32 c
-7.63 0 -15.27 -4.35 -15.27 -12.38 c
0 -11.71 19.62 -14.21 31.47 -22.12 c
6.18 -4.08 11.98 -10.53 11.98 -21.06 c
0 -16.2 -12.51 -26.73 -28.57 -26.73 c
-12.64 0 -24.1 5.53 -32.26 15.4 c
9.09 8.95 p f
1575.5 1122.52 63.2 0 0 -12.51 -25.02 0 0 -79.65 -13.16 0 ^ -25.02 0 
0 12.51 f
1704.13 1042.86 m
8.29 0 12.24 1.84 15.14 4.74 c
2.63 2.76 4.34 6.58 4.34 10.8 c
0 4.21 -1.71 7.9 -4.34 10.66 c
-2.9 2.89 -6.85 4.74 -15.14 4.74 c
-20.02 0 0 -30.94 ^ h
1699.91 1086.31 m
7.38 0 10.54 1.45 12.64 3.82 c
1.98 2.11 3.16 4.88 3.16 8.03 c
0 3.16 -1.18 5.93 -3.16 8.03 c
-2.1 2.37 -5.26 3.82 -12.64 3.82 c
-15.8 0 0 -23.7 ^ h
1670.95 1030.36 0 92.16 31.33 0 P
8.96 0 14.62 -2.5 18.96 -6.45 c
4.74 -4.34 7.64 -10.66 7.64 -17.51 c
0 -6.32 -2.9 -12.37 -7.24 -16.46 c
8.69 -4.34 15.14 -13.82 15.14 -24.22 c
0 -8.56 -3.95 -16.32 -10.14 -21.33 c
-4.74 -3.95 -10.8 -6.19 -20.14 -6.19 c
-35.55 0 p f
1787.73 1066.56 28.43 0 -14.21 34.23 -14.22 -34.23 H
1821.3 1054.05 -38.84 0 -9.61 -23.7 -13.69 0 38.18 92.16 9.22 0 38.17 -92.16 -13.69 0 
-9.74 23.7 f
1899.37 1072.48 0 -42.13 -13.17 0 ^ -31.59 50.03 14.74 0 23.44 -37 23.43 37 
14.75 0 -31.6 -50.03 f
2006.01 1086.31 0 -12.51 -30.29 0 0 -30.94 40.82 0 0 -12.5 -53.98 0 0 92.16 
52.66 0 0 -12.51 -39.5 0 0 -23.7 30.29 0 f
2083.68 1086.31 m
5.92 0 8.95 1.32 11.06 3.42 c
2.11 2.11 3.42 5.14 3.42 8.43 c
0 3.29 -1.31 6.32 -3.42 8.43 c
-2.11 2.11 -5.14 3.43 -11.06 3.43 c
-18.43 0 0 -23.7 ^ h
2065.25 1073.8 0 -43.45 -13.17 0 0 92.16 32.26 0 P
8.42 0 13.69 -1.98 17.9 -5.4 c
5.53 -4.48 9.09 -11.32 9.09 -18.96 c
0 -7.64 -3.56 -14.48 -9.09 -18.96 c
-2.89 -2.37 -6.19 -4.08 -10.79 -4.87 c
33.04 -43.97 -15.93 0 -32.78 43.45 -10.53 0 p f
2154.77 1030.36 13.1719 92.1602 re
f
2211.25 1053.39 m
5.4 -6.58 13.03 -11.85 22.51 -11.85 c
8.56 0 16.07 5.53 16.07 13.82 c
0 14.08 -19.49 15.66 -31.73 23.7 c
-6.58 4.34 -11.72 10.66 -11.72 20.28 c
0 13.43 11.85 24.48 27.91 24.48 c
11.72 0 19.88 -5.13 24.75 -9.21 c
-7.77 -9.61 p
-5 4.21 -10.66 6.32 -16.45 6.32 c
-7.64 0 -15.27 -4.35 -15.27 -12.38 c
0 -11.71 19.61 -14.21 31.46 -22.12 c
6.19 -4.08 11.98 -10.53 11.98 -21.06 c
0 -16.2 -12.51 -26.73 -28.57 -26.73 c
-12.64 0 -24.09 5.53 -32.25 15.4 c
9.08 8.95 p f
2337.9 1123.83 m
13.17 0 25.67 -5.39 33.7 -14.21 c
-8.81 -8.69 p
-5.41 5.93 -15.01 10.4 -24.89 10.4 c
-18.83 0 -33.44 -15.01 -33.44 -34.89 c
0 -20.8 15.01 -34.89 34.63 -34.89 c
12.37 0 21.32 6.84 26.46 13.03 c
9.35 -8.43 p
-7.9 -10.14 -21.59 -17.11 -35.81 -17.11 c
-27.52 0 -47.8 20.14 -47.8 47.39 c
0 26.59 20.02 47.39 46.61 47.39 c
f
2472.31 1073.8 -51.34 0 0 -43.45 -13.17 0 0 92.16 ^ 0 -36.21 51.34 0 
^ 13.17 0 0 -92.16 ^ 0 43.45 f
2571.05 1086.31 0 -12.51 -30.28 0 0 -30.94 40.82 0 0 -12.5 -53.99 0 0 92.16 
52.67 0 0 -12.51 -39.5 0 0 -23.7 30.28 0 f
1370.52 981.56 63.2 0 0 -12.51 -25.02 0 0 -79.65 -13.16 0 ^ -25.02 0 
0 12.51 f
1509.42 945.35 0 -12.51 -30.29 0 0 -30.94 40.82 0 0 -12.5 -53.98 0 0 92.16 
52.66 0 0 -12.51 -39.5 0 0 -23.7 30.29 0 f
1592.22 982.87 m
13.17 0 25.68 -5.39 33.71 -14.21 c
-8.82 -8.69 p
-5.4 5.93 -15.01 10.4 -24.89 10.4 c
-18.82 0 -33.44 -15.01 -33.44 -34.89 c
0 -20.8 15.01 -34.89 34.63 -34.89 c
12.38 0 21.33 6.84 26.46 13.03 c
9.35 -8.43 p
-7.9 -10.14 -21.59 -17.11 -35.81 -17.11 c
-27.52 0 -47.79 20.14 -47.79 47.39 c
0 26.59 20.01 47.39 46.6 47.39 c
f
1726.64 932.84 -51.35 0 0 -43.45 -13.16 0 0 92.16 ^ 0 -36.21 51.35 0 
^ 13.16 0 0 -92.16 ^ 0 43.45 f
1795.09 957.07 0 -67.67 -13.16 0 0 92.16 9.21 0 55.3 -67.67 0 67.67 13.17 0 
0 -92.16 -9.22 0 -55.3 67.67 f
1901.73 889.398 13.168 92.1602 re
f
1958.21 912.44 m
5.4 -6.58 13.03 -11.85 22.51 -11.85 c
8.56 0 16.06 5.53 16.06 13.82 c
0 14.08 -19.48 15.66 -31.72 23.7 c
-6.59 4.34 -11.72 10.66 -11.72 20.28 c
0 13.43 11.85 24.48 27.91 24.48 c
11.72 0 19.88 -5.13 24.75 -9.21 c
-7.77 -9.61 p
-5 4.21 -10.66 6.32 -16.45 6.32 c
-7.64 0 -15.28 -4.35 -15.28 -12.38 c
0 -11.71 19.62 -14.21 31.47 -22.12 c
6.19 -4.08 11.98 -10.53 11.98 -21.06 c
0 -16.2 -12.51 -26.73 -28.57 -26.73 c
-12.64 0 -24.09 5.53 -32.26 15.4 c
9.09 8.95 p f
2084.86 982.87 m
13.16 0 25.67 -5.39 33.7 -14.21 c
-8.82 -8.69 p
-5.4 5.93 -15.01 10.4 -24.88 10.4 c
-18.83 0 -33.44 -15.01 -33.44 -34.89 c
0 -20.8 15.01 -34.89 34.62 -34.89 c
12.38 0 21.33 6.84 26.47 13.03 c
9.34 -8.43 p
-7.9 -10.14 -21.59 -17.11 -35.81 -17.11 c
-27.51 0 -47.79 20.14 -47.79 47.39 c
0 26.59 20.01 47.39 46.61 47.39 c
f
2219.27 932.84 -51.34 0 0 -43.45 -13.17 0 0 92.16 ^ 0 -36.21 51.34 0 
^ 13.17 0 0 -92.16 ^ 0 43.45 f
2318.01 945.35 0 -12.51 -30.28 0 0 -30.94 40.82 0 0 -12.5 -53.99 0 0 92.16 
52.67 0 0 -12.51 -39.5 0 0 -23.7 30.28 0 f
2482.57 932.84 -51.34 0 0 -43.45 -13.17 0 0 92.16 ^ 0 -36.21 51.34 0 
^ 13.17 0 0 -92.16 ^ 0 43.45 f
2576.7 900.59 m
18.83 0 32.92 14.88 32.92 34.89 c
0 19.88 -14.09 34.89 -32.92 34.89 c
-18.82 0 -32.91 -15.01 -32.91 -34.89 c
0 -20.01 14.09 -34.89 32.91 -34.89 c
h
2576.7 982.87 m
26.07 0 46.08 -20.54 46.08 -47.39 c
0 -26.86 -20.01 -47.39 -46.08 -47.39 c
-26.06 0 -46.08 20.54 -46.08 47.39 c
0 26.86 20.02 47.39 46.08 47.39 c
f
2699.66 982.87 m
13.17 0 25.68 -5.39 33.71 -14.21 c
-8.82 -8.69 p
-5.4 5.93 -15.01 10.4 -24.89 10.4 c
-18.82 0 -33.44 -15.01 -33.44 -34.89 c
0 -20.8 15.01 -34.89 34.63 -34.89 c
12.38 0 21.33 6.84 26.46 13.03 c
9.35 -8.43 p
-7.9 -10.14 -21.59 -17.11 -35.81 -17.11 c
-27.52 0 -47.79 20.14 -47.79 47.39 c
0 26.59 20.01 47.39 46.6 47.39 c
f
2834.08 932.84 -51.35 0 0 -43.45 -13.16 0 0 92.16 ^ 0 -36.21 51.35 0 
^ 13.16 0 0 -92.16 ^ 0 43.45 f
2890.55 912.44 m
5.4 -6.58 13.04 -11.85 22.52 -11.85 c
8.55 0 16.06 5.53 16.06 13.82 c
0 14.08 -19.49 15.66 -31.73 23.7 c
-6.58 4.34 -11.72 10.66 -11.72 20.28 c
0 13.43 11.85 24.48 27.91 24.48 c
11.72 0 19.88 -5.13 24.76 -9.21 c
-7.77 -9.61 p
-5 4.21 -10.67 6.32 -16.46 6.32 c
-7.64 0 -15.27 -4.35 -15.27 -12.38 c
0 -11.71 19.61 -14.21 31.47 -22.12 c
6.18 -4.08 11.98 -10.53 11.98 -21.06 c
0 -16.2 -12.51 -26.73 -28.58 -26.73 c
-12.63 0 -24.09 5.53 -32.25 15.4 c
9.08 8.95 p f
3017.2 982.87 m
13.17 0 25.68 -5.39 33.71 -14.21 c
-8.82 -8.69 p
-5.4 5.93 -15.01 10.4 -24.89 10.4 c
-18.83 0 -33.44 -15.01 -33.44 -34.89 c
0 -20.8 15.01 -34.89 34.63 -34.89 c
12.37 0 21.33 6.84 26.46 13.03 c
9.35 -8.43 p
-7.9 -10.14 -21.59 -17.11 -35.81 -17.11 c
-27.52 0 -47.79 20.14 -47.79 47.39 c
0 26.59 20.01 47.39 46.6 47.39 c
f
3151.62 932.84 -51.35 0 0 -43.45 -13.17 0 0 92.16 ^ 0 -36.21 51.35 0 
^ 13.16 0 0 -92.16 ^ 0 43.45 f
3215.2 900.19 m
-5.92 6.45 -9.61 15.01 -9.61 27.39 c
0 53.98 13.17 0 0 -54.64 p
0 -8.69 2.1 -14.09 5.79 -18.17 c
4.61 -5.13 11.45 -8.16 19.22 -8.16 c
7.77 0 14.61 3.03 19.22 8.16 c
3.69 4.08 5.8 9.48 5.8 18.17 c
0 54.64 13.16 0 0 -53.98 p
0 -12.37 -3.68 -20.93 -9.61 -27.39 c
-6.98 -7.5 -17.25 -12.11 -28.57 -12.11 c
-11.32 0 -21.59 4.61 -28.57 12.11 c
f
3335.92 901.9 40.82 0 0 -12.5 -53.98 0 0 92.16 13.16 0 0 -79.66 f
3453.09 945.35 0 -12.51 -30.28 0 0 -30.94 40.82 0 0 -12.5 -53.99 0 0 92.16 
52.67 0 0 -12.51 -39.5 0 0 -23.7 30.28 0 f
1412 804.4 m
5.92 0 8.95 1.32 11.05 3.42 c
2.11 2.11 3.43 5.13 3.43 8.43 c
0 3.29 -1.32 6.32 -3.43 8.43 c
-2.1 2.11 -5.13 3.43 -11.05 3.43 c
-18.44 0 0 -23.7 ^ h
1393.56 791.89 0 -43.45 -13.16 0 0 92.16 32.25 0 P
8.43 0 13.69 -1.98 17.91 -5.4 c
5.53 -4.47 9.08 -11.32 9.08 -18.96 c
0 -7.64 -3.55 -14.48 -9.08 -18.96 c
-2.9 -2.37 -6.19 -4.08 -10.8 -4.87 c
33.05 -43.98 -15.93 0 -32.78 43.45 -10.54 0 p f
1526.53 804.4 0 -12.51 -30.28 0 0 -30.94 40.82 0 0 -12.51 -53.99 0 0 92.16 
52.67 0 0 -12.5 -39.5 0 0 -23.7 30.28 0 f
1646.34 764.24 m
-7.9 -10 -21.59 -17.12 -35.81 -17.12 c
-27.52 0 -47.8 20.14 -47.8 47.4 c
0 26.59 20.02 47.39 46.61 47.39 c
13.17 0 25.67 -5.39 33.7 -14.22 c
-8.81 -8.69 p
-5.41 5.92 -15.01 10.4 -24.89 10.4 c
-18.83 0 -33.44 -15.01 -33.44 -34.89 c
0 -20.8 15.01 -34.89 34.63 -34.89 c
9.74 0 17.77 3.69 22.64 8.56 c
0 23.7 -26.33 0 0 12.51 39.5 0 0 -40.16 p f
1728.62 804.4 0 -12.51 -30.29 0 0 -30.94 40.82 0 0 -12.51 -53.98 0 0 92.16 
52.66 0 0 -12.5 -39.5 0 0 -23.7 30.29 0 f
1787.86 816.11 0 -67.67 -13.17 0 0 92.16 9.22 0 55.29 -67.67 0 67.67 13.17 0 
0 -92.16 -9.22 0 -55.29 67.67 f
1895.68 771.48 m
5.4 -6.58 13.03 -11.85 22.51 -11.85 c
8.56 0 16.06 5.53 16.06 13.82 c
0 14.09 -19.48 15.67 -31.72 23.7 c
-6.59 4.34 -11.72 10.66 -11.72 20.27 c
0 13.43 11.85 24.49 27.91 24.49 c
11.72 0 19.88 -5.14 24.75 -9.21 c
-7.77 -9.61 p
-5 4.21 -10.66 6.32 -16.45 6.32 c
-7.64 0 -15.28 -4.34 -15.28 -12.37 c
0 -11.72 19.62 -14.22 31.47 -22.12 c
6.19 -4.08 11.98 -10.54 11.98 -21.06 c
0 -16.2 -12.51 -26.73 -28.57 -26.73 c
-12.64 0 -24.09 5.53 -32.26 15.41 c
9.09 8.95 p f
2016.14 760.95 m
8.29 0 12.24 1.84 15.14 4.74 c
2.63 2.77 4.34 6.58 4.34 10.8 c
0 4.21 -1.71 7.9 -4.34 10.66 c
-2.9 2.9 -6.85 4.74 -15.14 4.74 c
-20.01 0 0 -30.94 ^ h
2011.93 804.4 m
7.37 0 10.53 1.45 12.64 3.82 c
1.97 2.11 3.16 4.87 3.16 8.03 c
0 3.16 -1.19 5.93 -3.16 8.03 c
-2.11 2.37 -5.27 3.82 -12.64 3.82 c
-15.8 0 0 -23.7 ^ h
1982.96 748.44 0 92.16 31.34 0 P
8.95 0 14.61 -2.5 18.96 -6.45 c
4.74 -4.34 7.63 -10.66 7.63 -17.51 c
0 -6.32 -2.89 -12.37 -7.24 -16.46 c
8.69 -4.34 15.14 -13.82 15.14 -24.23 c
0 -8.55 -3.95 -16.32 -10.14 -21.33 c
-4.74 -3.95 -10.79 -6.19 -20.14 -6.19 c
-35.55 0 p f
2091.31 759.24 m
-5.92 6.45 -9.61 15.01 -9.61 27.38 c
0 53.98 13.17 0 0 -54.64 p
0 -8.69 2.1 -14.09 5.79 -18.17 c
4.61 -5.13 11.45 -8.16 19.22 -8.16 c
7.77 0 14.61 3.03 19.22 8.16 c
3.69 4.08 5.8 9.48 5.8 18.17 c
0 54.64 13.16 0 0 -53.98 p
0 -12.37 -3.68 -20.93 -9.61 -27.38 c
-6.98 -7.5 -17.24 -12.11 -28.57 -12.11 c
-11.32 0 -21.59 4.61 -28.57 12.11 c
f
2230.47 804.4 m
5.92 0 8.95 1.32 11.06 3.42 c
2.11 2.11 3.42 5.13 3.42 8.43 c
0 3.29 -1.31 6.32 -3.42 8.43 c
-2.11 2.11 -5.14 3.43 -11.06 3.43 c
-18.43 0 0 -23.7 ^ h
2212.04 791.89 0 -43.45 -13.17 0 0 92.16 32.26 0 P
8.43 0 13.69 -1.98 17.9 -5.4 c
5.53 -4.47 9.09 -11.32 9.09 -18.96 c
0 -7.64 -3.56 -14.48 -9.09 -18.96 c
-2.89 -2.37 -6.19 -4.08 -10.79 -4.87 c
33.04 -43.98 -15.93 0 -32.78 43.45 -10.53 0 p f
2374.63 764.24 m
-7.9 -10 -21.59 -17.12 -35.81 -17.12 c
-27.52 0 -47.79 20.14 -47.79 47.4 c
0 26.59 20.01 47.39 46.61 47.39 c
13.16 0 25.67 -5.39 33.7 -14.22 c
-8.82 -8.69 p
-5.4 5.92 -15.01 10.4 -24.88 10.4 c
-18.83 0 -33.44 -15.01 -33.44 -34.89 c
0 -20.8 15 -34.89 34.62 -34.89 c
9.75 0 17.78 3.69 22.65 8.56 c
0 23.7 -26.33 0 0 12.51 39.49 0 0 -40.16 p f
0 0 1245.85 66.1797 re
f
1424.24 462.64 0 -12.59 -30.5 0 0 -43.76 -13.26 0 0 92.82 53.04 0 0 -12.59 
-39.78 0 0 -23.87 30.5 0 f
1466.62 406.281 13.2578 92.8203 re
f
1535.55 474.44 0 -68.16 -13.26 0 0 92.82 9.28 0 55.69 -68.16 0 68.16 13.26 0 
0 -92.82 -9.28 0 -55.69 68.16 f
1642.89 406.281 13.2578 92.8203 re
f
1688.6 499.1 63.65 0 0 -12.59 -25.19 0 0 -80.23 -13.26 0 ^ -25.2 0 
0 12.59 f
1828.45 462.64 0 -12.59 -30.5 0 0 -31.16 41.1 0 0 -12.6 -54.36 0 0 92.82 
53.05 0 0 -12.59 -39.79 0 0 -23.87 30.5 0 f
1873.49 451.367 39.7734 10.6094 re
f
1998.09 462.64 0 -12.59 -30.5 0 0 -31.16 41.1 0 0 -12.6 -54.36 0 0 92.82 
53.04 0 0 -12.59 -39.78 0 0 -23.87 30.5 0 f
2057.71 418.88 41.1 0 0 -12.6 -54.36 0 0 92.82 13.26 0 0 -80.22 f
2175.67 462.64 0 -12.59 -30.5 0 0 -31.16 41.1 0 0 -12.6 -54.36 0 0 92.82 
53.04 0 0 -12.59 -39.78 0 0 -23.87 30.5 0 f
2271.75 426.17 -9.29 0 -27.17 42.57 0 -62.46 -13.27 0 0 92.82 9.28 0 35.8 -56.62 
35.8 56.62 9.29 0 0 -92.82 -13.26 0 0 62.46 -27.18 -42.57 f
2398.31 462.64 0 -12.59 -30.5 0 0 -31.16 41.11 0 0 -12.6 -54.37 0 0 92.82 
53.04 0 0 -12.59 -39.78 0 0 -23.87 30.5 0 f
2457.93 474.44 0 -68.16 -13.26 0 0 92.82 9.29 0 55.68 -68.16 0 68.16 13.26 0 
0 -92.82 -9.27 0 -55.7 68.16 f
2555.33 499.1 63.65 0 0 -12.59 -25.2 0 0 -80.23 -13.25 0 ^ -25.2 0 
0 12.59 f
2695.18 462.64 0 -12.59 -30.5 0 0 -31.16 41.1 0 0 -12.6 -54.36 0 0 92.82 
53.03 0 0 -12.59 -39.77 0 0 -23.87 30.5 0 f
2740.21 451.367 39.7773 10.6094 re
f
2870.77 426.17 -9.28 0 -27.18 42.57 0 -62.46 -13.26 0 0 92.82 9.27 0 35.81 -56.62 
35.81 56.62 9.27 0 0 -92.82 -13.26 0 0 62.46 -27.18 -42.57 f
2997.34 462.64 0 -12.59 -30.5 0 0 -31.16 41.1 0 0 -12.6 -54.36 0 0 92.82 
53.03 0 0 -12.59 -39.77 0 0 -23.87 30.5 0 f
3033.75 499.1 63.64 0 0 -12.59 -25.19 0 0 -80.23 -13.25 0 ^ -25.2 0 
0 12.59 f
3194.81 450.04 -51.71 0 0 -43.76 -13.26 0 0 92.82 ^ 0 -36.46 51.71 0 
^ 13.26 0 0 -92.82 ^ 0 43.76 f
3289.54 417.55 m
18.96 0 33.15 14.99 33.15 35.14 c
0 20.02 -14.19 35.14 -33.15 35.14 c
-18.96 0 -33.15 -15.12 -33.15 -35.14 c
0 -20.16 14.19 -35.14 33.15 -35.14 c
h
3289.54 500.43 m
26.25 0 46.41 -20.68 46.41 -47.73 c
0 -27.05 -20.16 -47.74 -46.41 -47.74 c
-26.26 0 -46.41 20.69 -46.41 47.74 c
0 27.05 20.15 47.73 46.41 47.73 c
f
3424.72 478.68 m
-5.83 5.04 -13.53 7.83 -26.52 7.83 c
-13.92 0 0 -67.62 ^ p
12.99 0 20.69 2.78 26.52 7.82 c
7.03 6.23 11.27 15.64 11.27 25.99 c
0 10.34 -4.24 19.75 -11.27 25.98 c
h
3371.02 406.28 0 92.82 27.84 0 P
14.73 0 24.27 -3.18 31.83 -8.75 c
11.4 -8.49 18.56 -22.28 18.56 -37.66 c
0 -15.38 -7.03 -29.18 -18.43 -37.66 c
-7.56 -5.57 -17.23 -8.75 -31.96 -8.75 c
-27.84 0 p f
3528.09 462.64 0 -12.59 -30.5 0 0 -31.16 41.1 0 0 -12.6 -54.36 0 0 92.82 
53.04 0 0 -12.59 -39.78 0 0 -23.87 30.5 0 f
255 G
901.488 923.492 153.641 26.1328 re
f
835.594 751.094 26.3555 370.934 re
f
1094.66 751.094 26.3594 370.934 re
f
35 31 32 rG
579.68 397.48 77.75 0 0 -12.87 ^ ^ H
579.68 504.7 100.55 0 0 -12.87 ^ ^ H
540.07 504.7 12.98 0 0 -227.3 ^ ^ f
763.08 290.26 98.89 0 0 -12.86 ^ ^ H
763.08 397.48 76.58 0 0 -12.87 ^ ^ H
763.08 504.7 98.89 0 0 -12.87 ^ ^ H
723.46 504.7 12.98 0 0 -227.3 ^ ^ f
908.52 445.15 12.98 -14.68 0 -153.07 -12.98 0 0 167.75 H
908.52 484.9 0 19.79 99.38 -112.83 99.39 112.83 0 -227.3 -12.99 0 0 192.66 -86.4 -98.14 
-99.38 113 f
cleartomark end end pagesave restore
 showpage
%%PageTrailer
%%Trailer
%%Pages: 1
