\relax 
\providecommand\hyper@newdestlabel[2]{}
\providecommand*\new@tpo@label[2]{}
\providecommand\HyperFirstAtBeginDocument{\AtBeginDocument}
\HyperFirstAtBeginDocument{\ifx\hyper@anchor\@undefined
\global\let\oldcontentsline\contentsline
\gdef\contentsline#1#2#3#4{\oldcontentsline{#1}{#2}{#3}}
\global\let\oldnewlabel\newlabel
\gdef\newlabel#1#2{\newlabelxx{#1}#2}
\gdef\newlabelxx#1#2#3#4#5#6{\oldnewlabel{#1}{{#2}{#3}}}
\AtEndDocument{\ifx\hyper@anchor\@undefined
\let\contentsline\oldcontentsline
\let\newlabel\oldnewlabel
\fi}
\fi}
\global\let\hyper@last\relax 
\gdef\HyperFirstAtBeginDocument#1{#1}
\providecommand\HyField@AuxAddToFields[1]{}
\providecommand\HyField@AuxAddToCoFields[2]{}
\AC@reset@newl@bel
\bibstyle{alphadin}
\@input{latex_einstellungen/deckblatt.aux}
\providecommand \oddpage@label [2]{}
\@input{abstract.aux}
\@writefile{toc}{\contentsline {section}{Abk\IeC {\"u}rzungsverzeichnis}{5}{section*.3}}
\newacro{A}[\AC@hyperlink{A}{A}]{Ampere}
\newacro{API}[\AC@hyperlink{API}{API}]{Application Programming Interface}
\newacro{BT}[\AC@hyperlink{BT}{BT}]{Bluetooth}
\newacro{GB}[\AC@hyperlink{GB}{GB}]{Gigabyte}
\newacro{GHz}[\AC@hyperlink{GHz}{GHz}]{Gigahertz}
\newacro{GPU}[\AC@hyperlink{GPU}{GPU}]{Graphics Processing Unit}
\newacro{MAC}[\AC@hyperlink{MAC}{MAC}]{Media Access Control}
\newacro{NOOBS}[\AC@hyperlink{NOOBS}{NOOBS}]{New Out Of Box Software}
\newacro{OTH}[\AC@hyperlink{OTH}{OTH}]{Ostbayerische Technische Hochschule}
\newacro{SOC}[\AC@hyperlink{SOC}{SOC}]{System On Chip}
\newacro{WLAN}[\AC@hyperlink{WLAN}{WLAN}]{Wireless Local Area Network}
\citation{DPAuto}
\citation{DPAuto}
\citation{DPAuto}
\@writefile{toc}{\contentsline {section}{\numberline {1}Einleitung}{6}{section.1}}
\newlabel{einleitung}{{1}{6}{Einleitung}{section.1}{}}
\@writefile{toc}{\contentsline {subsection}{\numberline {1.1}Aktuelle Situation}{6}{subsection.1.1}}
\@writefile{lof}{\contentsline {figure}{\numberline {1}{\ignorespaces Die 10 gr\IeC {\"o}\IeC {\ss }ten Patentanmelder im Bereich autonomen Fahren \cite  {DPAuto}\relax }}{6}{figure.caption.5}}
\providecommand*\caption@xref[2]{\@setref\relax\@undefined{#1}}
\newlabel{pat}{{1}{6}{Die 10 größten Patentanmelder im Bereich autonomen Fahren \cite {DPAuto}\relax }{figure.caption.5}{}}
\@writefile{toc}{\contentsline {subsection}{\numberline {1.2}Anforderungen}{7}{subsection.1.2}}
\newlabel{Anforderungen}{{1.2}{7}{Anforderungen}{subsection.1.2}{}}
\@writefile{toc}{\contentsline {subsection}{\numberline {1.3}Zielsetzung}{7}{subsection.1.3}}
\@writefile{toc}{\contentsline {subsection}{\numberline {1.4}Allgemeiner Projektaufbau}{7}{subsection.1.4}}
\citation{FIAT}
\citation{FIAT}
\citation{HAMA}
\citation{HAMA}
\@writefile{toc}{\contentsline {section}{\numberline {2}Verwendete Hardware}{8}{section.2}}
\newlabel{Verwendete Hardware}{{2}{8}{Verwendete Hardware}{section.2}{}}
\@writefile{toc}{\contentsline {subsection}{\numberline {2.1}BeeWi Bluetooth Car}{8}{subsection.2.1}}
\@writefile{lot}{\contentsline {table}{\numberline {1}{\ignorespaces Technische Daten BeeWi BT Car\relax }}{8}{table.caption.6}}
\@writefile{lof}{\contentsline {figure}{\numberline {2}{\ignorespaces BeeWi Fiat 500 \cite  {FIAT}\relax }}{8}{figure.caption.7}}
\newlabel{fiat}{{2}{8}{BeeWi Fiat 500 \cite {FIAT}\relax }{figure.caption.7}{}}
\@writefile{toc}{\contentsline {subsection}{\numberline {2.2}Hama Black Tube HD-Webcam}{9}{subsection.2.2}}
\newlabel{kamera}{{2.2}{9}{Hama Black Tube HD-Webcam}{subsection.2.2}{}}
\@writefile{lot}{\contentsline {table}{\numberline {2}{\ignorespaces Technische Daten Hama Black Tube\relax }}{9}{table.caption.8}}
\@writefile{lof}{\contentsline {figure}{\numberline {3}{\ignorespaces Hama Black Tube \cite  {HAMA}\relax }}{9}{figure.caption.9}}
\newlabel{hama}{{3}{9}{Hama Black Tube \cite {HAMA}\relax }{figure.caption.9}{}}
\citation{PI}
\citation{PIT}
\citation{PIT}
\@writefile{toc}{\contentsline {subsection}{\numberline {2.3}Raspberry Pi 3}{10}{subsection.2.3}}
\newlabel{raspberryPi}{{2.3}{10}{Raspberry Pi 3}{subsection.2.3}{}}
\@writefile{toc}{\contentsline {subsubsection}{\numberline {2.3.1}Technische Daten}{10}{subsubsection.2.3.1}}
\@writefile{lot}{\contentsline {table}{\numberline {3}{\ignorespaces Technische Daten Raspberry Pi 3 Modell B \cite  {PIT}\relax }}{10}{table.caption.10}}
\citation{PIS}
\citation{PIS}
\@writefile{lof}{\contentsline {figure}{\numberline {4}{\ignorespaces Raspberry Pi Modell B Starter Kit \cite  {PIS}\relax }}{11}{figure.caption.11}}
\newlabel{pistart}{{4}{11}{Raspberry Pi Modell B Starter Kit \cite {PIS}\relax }{figure.caption.11}{}}
\@writefile{toc}{\contentsline {subsubsection}{\numberline {2.3.2}Betriebssystem}{12}{subsubsection.2.3.2}}
\@writefile{lof}{\contentsline {figure}{\numberline {5}{\ignorespaces NOOBS Men\IeC {\"u}\relax }}{12}{figure.caption.12}}
\newlabel{noobs}{{5}{12}{NOOBS Menü\relax }{figure.caption.12}{}}
\@writefile{toc}{\contentsline {subsubsection}{\numberline {2.3.3}Steuerung des Raspberry Pi per Remote Desktop}{12}{subsubsection.2.3.3}}
\@writefile{lol}{\contentsline {lstlisting}{\numberline {2}Installation xrdp}{12}{lstlisting.2}}
\@writefile{lof}{\contentsline {figure}{\numberline {6}{\ignorespaces xrdp Login\relax }}{13}{figure.caption.13}}
\newlabel{xrdp}{{6}{13}{xrdp Login\relax }{figure.caption.13}{}}
\@writefile{toc}{\contentsline {section}{\numberline {3}Implementierung einer Android Applikation zur Steuerung des Autos}{14}{section.3}}
\newlabel{AndroidApp}{{3}{14}{Implementierung einer Android Applikation zur Steuerung des Autos}{section.3}{}}
\@writefile{toc}{\contentsline {subsection}{\numberline {3.1}Test der Steuerungsapp aus dem App Store}{14}{subsection.3.1}}
\@writefile{lof}{\contentsline {figure}{\numberline {7}{\ignorespaces Screenshot Verbindungsaufbau zum BeeWi Car\relax }}{14}{figure.caption.14}}
\newlabel{verbinden}{{7}{14}{Screenshot Verbindungsaufbau zum BeeWi Car\relax }{figure.caption.14}{}}
\@writefile{lof}{\contentsline {figure}{\numberline {8}{\ignorespaces Screenshot ControlPad\relax }}{15}{figure.caption.15}}
\newlabel{steuern}{{8}{15}{Screenshot ControlPad\relax }{figure.caption.15}{}}
\@writefile{toc}{\contentsline {subsection}{\numberline {3.2}Herausfinden der Bluetooth Commands}{15}{subsection.3.2}}
\newlabel{hbt}{{3.2}{15}{Herausfinden der Bluetooth Commands}{subsection.3.2}{}}
\newlabel{commands}{{3}{16}{Bluetooth Commands BeeWi}{lstlisting.3}{}}
\@writefile{lol}{\contentsline {lstlisting}{\numberline {3}Bluetooth Commands BeeWi}{16}{lstlisting.3}}
\@writefile{toc}{\contentsline {subsection}{\numberline {3.3}Implementierung der Android App}{16}{subsection.3.3}}
\@writefile{toc}{\contentsline {subsubsection}{\numberline {3.3.1}Layout}{16}{subsubsection.3.3.1}}
\@writefile{lof}{\contentsline {figure}{\numberline {9}{\ignorespaces Screenshot AutoTest App\relax }}{17}{figure.caption.16}}
\newlabel{atest}{{9}{17}{Screenshot AutoTest App\relax }{figure.caption.16}{}}
\@writefile{toc}{\contentsline {subsubsection}{\numberline {3.3.2}Suchen von Ger\IeC {\"a}ten in der N\IeC {\"a}he}{17}{subsubsection.3.3.2}}
\newlabel{btcheck}{{4}{17}{Bluetooth check und enable}{lstlisting.4}{}}
\@writefile{lol}{\contentsline {lstlisting}{\numberline {4}Bluetooth check und enable}{17}{lstlisting.4}}
\@writefile{lof}{\contentsline {figure}{\numberline {10}{\ignorespaces Dialog zur Aktivierung von Bluetooth\relax }}{18}{figure.caption.17}}
\newlabel{bten}{{10}{18}{Dialog zur Aktivierung von Bluetooth\relax }{figure.caption.17}{}}
\newlabel{result}{{5}{18}{onActivityResult Methode}{lstlisting.5}{}}
\@writefile{lol}{\contentsline {lstlisting}{\numberline {5}onActivityResult Methode}{18}{lstlisting.5}}
\newlabel{permissions}{{6}{18}{Benötigte Permissions}{lstlisting.6}{}}
\@writefile{lol}{\contentsline {lstlisting}{\numberline {6}Ben\IeC {\"o}tigte Permissions}{18}{lstlisting.6}}
\newlabel{bc}{{7}{19}{BroadcastReceiver zum aktualisieren der Geräteliste}{lstlisting.7}{}}
\@writefile{lol}{\contentsline {lstlisting}{\numberline {7}BroadcastReceiver zum aktualisieren der Ger\IeC {\"a}teliste}{19}{lstlisting.7}}
\@writefile{toc}{\contentsline {subsubsection}{\numberline {3.3.3}Herstellung der Verbindung}{19}{subsubsection.3.3.3}}
\newlabel{click}{{8}{19}{Methode zum Herstellen einer BT Verbindung zum Auto}{lstlisting.8}{}}
\@writefile{lol}{\contentsline {lstlisting}{\numberline {8}Methode zum Herstellen einer BT Verbindung zum Auto}{19}{lstlisting.8}}
\newlabel{send}{{9}{21}{Methode zum Senden einer Nachricht zum Auto}{lstlisting.9}{}}
\@writefile{lol}{\contentsline {lstlisting}{\numberline {9}Methode zum Senden einer Nachricht zum Auto}{21}{lstlisting.9}}
\citation{culjak2012brief}
\citation{bradski2000opencv}
\citation{OCVM}
\@writefile{toc}{\contentsline {section}{\numberline {4}Erkennung der Fahrspur mit Hilfe von Computer Vision}{22}{section.4}}
\newlabel{kapitel3}{{4}{22}{Erkennung der Fahrspur mit Hilfe von Computer Vision}{section.4}{}}
\@writefile{toc}{\contentsline {subsection}{\numberline {4.1}OpenCV (Open Source Computer Vision Library)}{22}{subsection.4.1}}
\citation{van2007python}
\citation{hajji2008python}
\citation{lutz2007einfuhrung}
\citation{lutz2007einfuhrung}
\@writefile{toc}{\contentsline {subsection}{\numberline {4.2}Python}{24}{subsection.4.2}}
\@writefile{toc}{\contentsline {subsubsection}{\numberline {4.2.1}Vorteile}{24}{subsubsection.4.2.1}}
\@writefile{toc}{\contentsline {subsubsection}{\numberline {4.2.2}Nachteil}{25}{subsubsection.4.2.2}}
\@writefile{toc}{\contentsline {subsubsection}{\numberline {4.2.3}Versionen}{25}{subsubsection.4.2.3}}
\@writefile{toc}{\contentsline {subsubsection}{\numberline {4.2.4}Installation}{25}{subsubsection.4.2.4}}
\@writefile{toc}{\contentsline {subsection}{\numberline {4.3}Versuchsaufbau}{26}{subsection.4.3}}
\@writefile{lol}{\contentsline {lstlisting}{\numberline {10}Einfacher Video Stream mit OpenCV}{26}{lstlisting.10}}
\citation{5625121}
\citation{akinlar2011edlines}
\citation{5625121}
\citation{5625121}
\@writefile{toc}{\contentsline {subsection}{\numberline {4.4}Spurerkennung in Realbedingungen}{27}{subsection.4.4}}
\@writefile{toc}{\contentsline {subsubsection}{\numberline {4.4.1}Line estimation Method}{27}{subsubsection.4.4.1}}
\newlabel{lemeth}{{4.4.1}{27}{Line estimation Method}{subsubsection.4.4.1}{}}
\@writefile{lof}{\contentsline {figure}{\numberline {11}{\ignorespaces Line estimation \cite  {5625121}\relax }}{27}{figure.caption.18}}
\newlabel{linee}{{11}{27}{Line estimation \cite {5625121}\relax }{figure.caption.18}{}}
\citation{5625121}
\citation{5625121}
\citation{5625121}
\citation{5625121}
\@writefile{lof}{\contentsline {figure}{\numberline {12}{\ignorespaces Relevante und irrelevante Linien \cite  {5625121}\relax }}{28}{figure.caption.19}}
\newlabel{relevant}{{12}{28}{Relevante und irrelevante Linien \cite {5625121}\relax }{figure.caption.19}{}}
\@writefile{toc}{\contentsline {subsubsection}{\numberline {4.4.2}Vanishing point estimation}{28}{subsubsection.4.4.2}}
\citation{5625121}
\citation{5625121}
\@writefile{lof}{\contentsline {figure}{\numberline {13}{\ignorespaces Vanishing Point estimation \cite  {5625121}\relax }}{29}{figure.caption.20}}
\newlabel{vanishing}{{13}{29}{Vanishing Point estimation \cite {5625121}\relax }{figure.caption.20}{}}
\@writefile{toc}{\contentsline {subsubsection}{\numberline {4.4.3}Lane detection Method}{29}{subsubsection.4.4.3}}
\newlabel{ldetect}{{4.4.3}{29}{Lane detection Method}{subsubsection.4.4.3}{}}
\@writefile{lof}{\contentsline {figure}{\numberline {14}{\ignorespaces Lane detection Spurerkennung \cite  {5625121}\relax }}{29}{figure.caption.21}}
\newlabel{lanedet}{{14}{29}{Lane detection Spurerkennung \cite {5625121}\relax }{figure.caption.21}{}}
\@writefile{toc}{\contentsline {subsection}{\numberline {4.5}Implementierung des Algorithmus zur Erkennung der Fahrspur}{30}{subsection.4.5}}
\@writefile{toc}{\contentsline {subsubsection}{\numberline {4.5.1}Ausf\IeC {\"u}hrung des Projektes}{30}{subsubsection.4.5.1}}
\@writefile{lol}{\contentsline {lstlisting}{\numberline {11}Ausf\IeC {\"u}hrung der Main Funktion}{30}{lstlisting.11}}
\@writefile{toc}{\contentsline {subsubsection}{\numberline {4.5.2}Region of Interest}{30}{subsubsection.4.5.2}}
\newlabel{roi}{{4.5.2}{30}{Region of Interest}{subsubsection.4.5.2}{}}
\@writefile{lof}{\contentsline {figure}{\numberline {15}{\ignorespaces Ausgangsbild Spurerkennung\relax }}{31}{figure.caption.22}}
\newlabel{anfang}{{15}{31}{Ausgangsbild Spurerkennung\relax }{figure.caption.22}{}}
\newlabel{roy}{{12}{32}{region\_of\_interest Funktion}{lstlisting.12}{}}
\@writefile{lol}{\contentsline {lstlisting}{\numberline {12}region\_of\_interest Funktion}{32}{lstlisting.12}}
\@writefile{lof}{\contentsline {figure}{\numberline {16}{\ignorespaces Region of Interest mit cut\_top = 200\relax }}{32}{figure.caption.23}}
\newlabel{cropped}{{16}{32}{Region of Interest mit cut\_top = 200\relax }{figure.caption.23}{}}
\@writefile{toc}{\contentsline {subsubsection}{\numberline {4.5.3}Canny Edge Detection}{32}{subsubsection.4.5.3}}
\newlabel{greycode}{{17a}{33}{Greycode\relax }{figure.caption.24}{}}
\newlabel{sub@greycode}{{a}{33}{Greycode\relax }{figure.caption.24}{}}
\newlabel{blurred}{{17b}{33}{Geglättet mit Median Filter\relax }{figure.caption.24}{}}
\newlabel{sub@blurred}{{b}{33}{Geglättet mit Median Filter\relax }{figure.caption.24}{}}
\@writefile{lof}{\contentsline {figure}{\numberline {17}{\ignorespaces Vorbearbeitung f\IeC {\"u}r die Canny Edge Detection\relax }}{33}{figure.caption.24}}
\newlabel{fig:vor_canny}{{17}{33}{Vorbearbeitung für die Canny Edge Detection\relax }{figure.caption.24}{}}
\newlabel{canny_50_150}{{18a}{34}{50/150\relax }{figure.caption.25}{}}
\newlabel{sub@canny_50_150}{{a}{34}{50/150\relax }{figure.caption.25}{}}
\newlabel{canny_100_150}{{18b}{34}{100/150\relax }{figure.caption.25}{}}
\newlabel{sub@canny_100_150}{{b}{34}{100/150\relax }{figure.caption.25}{}}
\newlabel{canny_150_200}{{18c}{34}{150/200\relax }{figure.caption.25}{}}
\newlabel{sub@canny_150_200}{{c}{34}{150/200\relax }{figure.caption.25}{}}
\newlabel{autocanny}{{18d}{34}{Canny mit automatisch errechneten Werten\relax }{figure.caption.25}{}}
\newlabel{sub@autocanny}{{d}{34}{Canny mit automatisch errechneten Werten\relax }{figure.caption.25}{}}
\@writefile{lof}{\contentsline {figure}{\numberline {18}{\ignorespaces Canny Edge Detection mit unterschiedlichem High- Lowthresold\relax }}{34}{figure.caption.25}}
\newlabel{cannyth}{{18}{34}{Canny Edge Detection mit unterschiedlichem High- Lowthresold\relax }{figure.caption.25}{}}
\newlabel{auto_canny}{{13}{34}{auto\_canny Funktion}{lstlisting.13}{}}
\@writefile{lol}{\contentsline {lstlisting}{\numberline {13}auto\_canny Funktion}{34}{lstlisting.13}}
\citation{bradski2008learning}
\newlabel{canny_nglatt}{{19a}{35}{Edge Detection ungeglättet\relax }{figure.caption.26}{}}
\newlabel{sub@canny_nglatt}{{a}{35}{Edge Detection ungeglättet\relax }{figure.caption.26}{}}
\newlabel{canny_glatt}{{19b}{35}{Edge Detection mit Median Filter\relax }{figure.caption.26}{}}
\newlabel{sub@canny_glatt}{{b}{35}{Edge Detection mit Median Filter\relax }{figure.caption.26}{}}
\@writefile{lof}{\contentsline {figure}{\numberline {19}{\ignorespaces Eliminierung von Rauschen mit Hilfe des Median Filters\relax }}{35}{figure.caption.26}}
\newlabel{canny_vergleich}{{19}{35}{Eliminierung von Rauschen mit Hilfe des Median Filters\relax }{figure.caption.26}{}}
\@writefile{toc}{\contentsline {subsubsection}{\numberline {4.5.4}Hough Line Algorithmus}{35}{subsubsection.4.5.4}}
\newlabel{hlines}{{14}{35}{houghLine Funktion}{lstlisting.14}{}}
\@writefile{lol}{\contentsline {lstlisting}{\numberline {14}houghLine Funktion}{35}{lstlisting.14}}
\@writefile{lof}{\contentsline {figure}{\numberline {20}{\ignorespaces Detektierte Linien des Hough Line Algorithmus\relax }}{36}{figure.caption.27}}
\newlabel{lined_image}{{20}{36}{Detektierte Linien des Hough Line Algorithmus\relax }{figure.caption.27}{}}
\@writefile{toc}{\contentsline {subsubsection}{\numberline {4.5.5}Detektion der Fahrspur}{36}{subsubsection.4.5.5}}
\@writefile{lof}{\contentsline {figure}{\numberline {21}{\ignorespaces Filtern horizontaler Linien\relax }}{37}{figure.caption.28}}
\newlabel{slope_filter}{{21}{37}{Filtern horizontaler Linien\relax }{figure.caption.28}{}}
\@writefile{lof}{\contentsline {figure}{\numberline {22}{\ignorespaces Aufteilung rechte und linke Spursegmente\relax }}{38}{figure.caption.29}}
\newlabel{right_left}{{22}{38}{Aufteilung rechte und linke Spursegmente\relax }{figure.caption.29}{}}
\@writefile{lof}{\contentsline {figure}{\numberline {23}{\ignorespaces Verl\IeC {\"a}ngerte Liniensegmente\relax }}{39}{figure.caption.30}}
\newlabel{extended}{{23}{39}{Verlängerte Liniensegmente\relax }{figure.caption.30}{}}
\@writefile{lof}{\contentsline {figure}{\numberline {24}{\ignorespaces Schnittpunkte von rechten und linken Geraden\relax }}{39}{figure.caption.31}}
\newlabel{schnitt}{{24}{39}{Schnittpunkte von rechten und linken Geraden\relax }{figure.caption.31}{}}
\citation{LOBF}
\citation{LOBF}
\@writefile{lof}{\contentsline {figure}{\numberline {25}{\ignorespaces Vanishing Point\relax }}{40}{figure.caption.32}}
\newlabel{vanishing}{{25}{40}{Vanishing Point\relax }{figure.caption.32}{}}
\@writefile{lof}{\contentsline {figure}{\numberline {26}{\ignorespaces Linien, die im Vanishing Point einen Schnittpunkt haben\relax }}{40}{figure.caption.33}}
\newlabel{vanishing_filtered}{{26}{40}{Linien, die im Vanishing Point einen Schnittpunkt haben\relax }{figure.caption.33}{}}
\@writefile{lof}{\contentsline {figure}{\numberline {27}{\ignorespaces Line of Best Fit \cite  {LOBF}\relax }}{41}{figure.caption.34}}
\newlabel{lobf}{{27}{41}{Line of Best Fit \cite {LOBF}\relax }{figure.caption.34}{}}
\@writefile{lof}{\contentsline {figure}{\numberline {28}{\ignorespaces Final detektierte Fahrspur\relax }}{42}{figure.caption.35}}
\newlabel{fig:fitlined}{{28}{42}{Final detektierte Fahrspur\relax }{figure.caption.35}{}}
\@writefile{toc}{\contentsline {subsubsection}{\numberline {4.5.6}Berechnung der Abweichung des aktuellen Kurses zur Fahrbahnmitte}{43}{subsubsection.4.5.6}}
\@writefile{lof}{\contentsline {figure}{\numberline {29}{\ignorespaces Markierung Kameramitte/ Fahrbahnmitte\relax }}{43}{figure.caption.36}}
\newlabel{fig:linedpointed}{{29}{43}{Markierung Kameramitte/ Fahrbahnmitte\relax }{figure.caption.36}{}}
\@writefile{toc}{\contentsline {subsubsection}{\numberline {4.5.7}Anwenden von Filtern zur besseren Linienerkennung}{44}{subsubsection.4.5.7}}
\@writefile{toc}{\contentsline {section}{\numberline {5}Implementierung der Steuerung des Autos}{45}{section.5}}
\newlabel{kapitel4}{{5}{45}{Implementierung der Steuerung des Autos}{section.5}{}}
\@writefile{toc}{\contentsline {subsection}{\numberline {5.1}Bluetooth Connection}{45}{subsection.5.1}}
\@writefile{lol}{\contentsline {lstlisting}{\numberline {15}Installation Pybluez}{45}{lstlisting.15}}
\@writefile{toc}{\contentsline {subsection}{\numberline {5.2}Image Thread}{46}{subsection.5.2}}
\@writefile{toc}{\contentsline {subsection}{\numberline {5.3}Image Processing Thread}{46}{subsection.5.3}}
\@writefile{toc}{\contentsline {section}{\numberline {6}Ausblick}{47}{section.6}}
\newlabel{ausblick}{{6}{47}{Ausblick}{section.6}{}}
\@writefile{toc}{\contentsline {section}{\numberline {7}Fazit}{47}{section.7}}
\newlabel{fazit}{{7}{47}{Fazit}{section.7}{}}
\@writefile{toc}{\contentsline {section}{Literaturverzeichnis}{48}{section.7}}
\@writefile{toc}{\contentsline {section}{Verzeichnis der Webadressen}{49}{section*.37}}
\citation{DPAuto}
\citation{FIAT}
\citation{HAMA}
\citation{PIS}
\citation{5625121}
\citation{5625121}
\citation{5625121}
\citation{5625121}
\citation{LOBF}
\@writefile{toc}{\contentsline {section}{Abbildungsverzeichnis}{50}{section*.38}}
\citation{PIT}
\@writefile{toc}{\contentsline {section}{Tabellenverzeichnis}{51}{section*.39}}
\@writefile{toc}{\contentsline {section}{Listingverzeichnis}{52}{section*.40}}
\@writefile{toc}{\contentsline {section}{Anhang}{53}{section*.41}}
\newlabel{anhang}{{7}{53}{Anhang}{section*.42}{}}
\global\@namedef{scr@dte@section@lastmaxnumwidth}{11.96611pt}
\global\@namedef{scr@dte@subsection@lastmaxnumwidth}{21.73407pt}
\global\@namedef{scr@dte@subsubsection@lastmaxnumwidth}{32.15286pt}
