\BOOKMARK [1][-]{section*.3}{Abk\374rzungsverzeichnis}{}% 1
\BOOKMARK [1][-]{section.1}{1 Einleitung}{}% 2
\BOOKMARK [2][-]{subsection.1.1}{1.1 Aktuelle Situation}{section.1}% 3
\BOOKMARK [2][-]{subsection.1.2}{1.2 Anforderungen}{section.1}% 4
\BOOKMARK [2][-]{subsection.1.3}{1.3 Zielsetzung}{section.1}% 5
\BOOKMARK [2][-]{subsection.1.4}{1.4 Allgemeiner Projektaufbau}{section.1}% 6
\BOOKMARK [1][-]{section.2}{2 Verwendete Hardware}{}% 7
\BOOKMARK [2][-]{subsection.2.1}{2.1 BeeWi Bluetooth Car}{section.2}% 8
\BOOKMARK [2][-]{subsection.2.2}{2.2 Hama Black Tube HD-Webcam}{section.2}% 9
\BOOKMARK [2][-]{subsection.2.3}{2.3 Raspberry Pi 3}{section.2}% 10
\BOOKMARK [3][-]{subsubsection.2.3.1}{2.3.1 Technische Daten}{subsection.2.3}% 11
\BOOKMARK [3][-]{subsubsection.2.3.2}{2.3.2 Betriebssystem}{subsection.2.3}% 12
\BOOKMARK [3][-]{subsubsection.2.3.3}{2.3.3 Steuerung des Raspberry Pi per Remote Desktop}{subsection.2.3}% 13
\BOOKMARK [1][-]{section.3}{3 Implementierung einer Android Applikation zur Steuerung des Autos}{}% 14
\BOOKMARK [2][-]{subsection.3.1}{3.1 Test der Steuerungsapp aus dem App Store}{section.3}% 15
\BOOKMARK [2][-]{subsection.3.2}{3.2 Herausfinden der Bluetooth Commands}{section.3}% 16
\BOOKMARK [2][-]{subsection.3.3}{3.3 Implementierung der Android App}{section.3}% 17
\BOOKMARK [3][-]{subsubsection.3.3.1}{3.3.1 Layout}{subsection.3.3}% 18
\BOOKMARK [3][-]{subsubsection.3.3.2}{3.3.2 Suchen von Ger\344ten in der N\344he}{subsection.3.3}% 19
\BOOKMARK [3][-]{subsubsection.3.3.3}{3.3.3 Herstellung der Verbindung}{subsection.3.3}% 20
\BOOKMARK [1][-]{section.4}{4 Erkennung der Fahrspur mit Hilfe von Computer Vision}{}% 21
\BOOKMARK [2][-]{subsection.4.1}{4.1 OpenCV \(Open Source Computer Vision Library\)}{section.4}% 22
\BOOKMARK [2][-]{subsection.4.2}{4.2 Python}{section.4}% 23
\BOOKMARK [3][-]{subsubsection.4.2.1}{4.2.1 Vorteile}{subsection.4.2}% 24
\BOOKMARK [3][-]{subsubsection.4.2.2}{4.2.2 Nachteil}{subsection.4.2}% 25
\BOOKMARK [3][-]{subsubsection.4.2.3}{4.2.3 Versionen}{subsection.4.2}% 26
\BOOKMARK [3][-]{subsubsection.4.2.4}{4.2.4 Installation}{subsection.4.2}% 27
\BOOKMARK [2][-]{subsection.4.3}{4.3 Versuchsaufbau}{section.4}% 28
\BOOKMARK [2][-]{subsection.4.4}{4.4 Spurerkennung in Realbedingungen}{section.4}% 29
\BOOKMARK [3][-]{subsubsection.4.4.1}{4.4.1 Line estimation Method}{subsection.4.4}% 30
\BOOKMARK [3][-]{subsubsection.4.4.2}{4.4.2 Vanishing point estimation}{subsection.4.4}% 31
\BOOKMARK [3][-]{subsubsection.4.4.3}{4.4.3 Lane detection Method}{subsection.4.4}% 32
\BOOKMARK [2][-]{subsection.4.5}{4.5 Implementierung des Algorithmus zur Erkennung der Fahrspur}{section.4}% 33
\BOOKMARK [3][-]{subsubsection.4.5.1}{4.5.1 Ausf\374hrung des Projektes}{subsection.4.5}% 34
\BOOKMARK [3][-]{subsubsection.4.5.2}{4.5.2 Region of Interest}{subsection.4.5}% 35
\BOOKMARK [3][-]{subsubsection.4.5.3}{4.5.3 Canny Edge Detection}{subsection.4.5}% 36
\BOOKMARK [3][-]{subsubsection.4.5.4}{4.5.4 Hough Line Algorithmus}{subsection.4.5}% 37
\BOOKMARK [3][-]{subsubsection.4.5.5}{4.5.5 Detektion der Fahrspur}{subsection.4.5}% 38
\BOOKMARK [3][-]{subsubsection.4.5.6}{4.5.6 Berechnung der Abweichung des aktuellen Kurses zur Fahrbahnmitte}{subsection.4.5}% 39
\BOOKMARK [3][-]{subsubsection.4.5.7}{4.5.7 Anwenden von Filtern zur besseren Linienerkennung}{subsection.4.5}% 40
\BOOKMARK [1][-]{section.5}{5 Implementierung der Steuerung des Autos}{}% 41
\BOOKMARK [2][-]{subsection.5.1}{5.1 Bluetooth Connection}{section.5}% 42
\BOOKMARK [2][-]{subsection.5.2}{5.2 Image Thread}{section.5}% 43
\BOOKMARK [2][-]{subsection.5.3}{5.3 Image Processing Thread}{section.5}% 44
\BOOKMARK [1][-]{section.6}{6 Ausblick}{}% 45
\BOOKMARK [1][-]{section.7}{7 Fazit}{}% 46
\BOOKMARK [1][-]{section.7}{Literaturverzeichnis}{}% 47
\BOOKMARK [1][-]{section*.37}{Verzeichnis der Webadressen}{}% 48
\BOOKMARK [1][-]{section*.38}{Abbildungsverzeichnis}{}% 49
\BOOKMARK [1][-]{section*.39}{Tabellenverzeichnis}{}% 50
\BOOKMARK [1][-]{section*.40}{Listingverzeichnis}{}% 51
\BOOKMARK [1][-]{section*.41}{Anhang}{}% 52
