\relax 
\providecommand\hyper@newdestlabel[2]{}
\@writefile{lol}{\contentsline {lstlisting}{\numberline {1}Git Clone Befehl}{2}{lstlisting.1}}
\@setckpt{abstract}{
\setcounter{page}{3}
\setcounter{equation}{0}
\setcounter{enumi}{0}
\setcounter{enumii}{0}
\setcounter{enumiii}{0}
\setcounter{enumiv}{0}
\setcounter{footnote}{0}
\setcounter{mpfootnote}{0}
\setcounter{part}{0}
\setcounter{section}{0}
\setcounter{subsection}{0}
\setcounter{subsubsection}{0}
\setcounter{paragraph}{0}
\setcounter{subparagraph}{0}
\setcounter{figure}{0}
\setcounter{table}{0}
\setcounter{LT@tables}{0}
\setcounter{LT@chunks}{0}
\setcounter{Item}{0}
\setcounter{bookmark@seq@number}{0}
\setcounter{float@type}{8}
\setcounter{ContinuedFloat}{0}
\setcounter{subfigure}{0}
\setcounter{subtable}{0}
\setcounter{lstnumber}{2}
\setcounter{section@level}{0}
\setcounter{lstlisting}{1}
}
