\contentsline {section}{Abbildungsverzeichnis}{4}{section*.2}
\contentsline {section}{Tabellenverzeichnis}{5}{section*.3}
\contentsline {section}{Listingverzeichnis}{6}{section*.4}
\contentsline {section}{Abk\IeC {\"u}rzungsverzeichnis}{7}{section*.5}
\contentsline {section}{\numberline {1}Einleitung}{8}{section.1}
\contentsline {section}{\numberline {2}Implementierung einer Android Applikation zur Steuerung des Bluetooth Autos}{8}{section.2}
\contentsline {section}{\numberline {3}Verwendete Hardware}{8}{section.3}
\contentsline {section}{\numberline {4}Ausblick}{8}{section.4}
\contentsline {section}{\numberline {5}Fazit}{8}{section.5}
\contentsline {section}{Literaturverzeichnis}{10}{lstnumber.1.33}
\contentsline {section}{Anhang}{11}{section*.7}
