\bibstyle{unsrt}
\citation{*}
\bibdata{Bibliography}
\bibcite{aut}{1}
\bibcite{reichardt1996kontinuierliche}{2}
\bibcite{dickmanns2005vision}{3}
\bibcite{bradski2000opencv}{4}
\bibcite{culjak2012brief}{5}
\bibcite{van2007python}{6}
\bibcite{hajji2008python}{7}
\bibcite{lutz2007einfuhrung}{8}
\bibcite{5625121}{9}
\bibcite{akinlar2011edlines}{10}
\bibcite{bradski2008learning}{11}
