\bibstyle{unsrt}
\citation{*}
\bibdata{BibliographyUrls}
\bibcite{DPAuto}{12}
\bibcite{FIAT}{13}
\bibcite{HAMA}{14}
\bibcite{PI}{15}
\bibcite{PIT}{16}
\bibcite{PIS}{17}
\bibcite{OCVM}{18}
\bibcite{LOBF}{19}
